33286893 ns: DDR_AXI_HOST4(GPU) ReadStart Address 035e0180 to Address 035e01b8 Size 3 Length 00000008
33288350 ns: DDR_AXI_HOST4(GPU) ReadStart Address 035e01c0 to Address 035e01f8 Size 3 Length 00000008
33289529 ns: DDR_AXI_HOST4(GPU) ReadStart Address 035e0380 to Address 035e03b8 Size 3 Length 00000008
33290499 ns: DDR_AXI_HOST4(GPU) ReadStart Address 035e03c0 to Address 035e03f8 Size 3 Length 00000008
33304360 ns: DDR_AXI_HOST4(GPU) ReadStart Address 035e1180 to Address 035e11b8 Size 3 Length 00000008
33305331 ns: DDR_AXI_HOST4(GPU) ReadStart Address 035e11c0 to Address 035e11f8 Size 3 Length 00000008
33306684 ns: DDR_AXI_HOST4(GPU) ReadStart Address 035e1380 to Address 035e13b8 Size 3 Length 00000008
33307480 ns: DDR_AXI_HOST4(GPU) ReadStart Address 035e13c0 to Address 035e13f8 Size 3 Length 00000008
33321137 ns: DDR_AXI_HOST4(GPU) ReadStart Address 035e2180 to Address 035e21b8 Size 3 Length 00000008
33322316 ns: DDR_AXI_HOST4(GPU) ReadStart Address 035e21c0 to Address 035e21f8 Size 3 Length 00000008
33323286 ns: DDR_AXI_HOST4(GPU) ReadStart Address 035e2380 to Address 035e23b8 Size 3 Length 00000008
33324465 ns: DDR_AXI_HOST4(GPU) ReadStart Address 035e23c0 to Address 035e23f8 Size 3 Length 00000008
33338117 ns: DDR_AXI_HOST4(GPU) ReadStart Address 035e3180 to Address 035e31b8 Size 3 Length 00000008
33339575 ns: DDR_AXI_HOST4(GPU) ReadStart Address 035e31c0 to Address 035e31f8 Size 3 Length 00000008
33340266 ns: DDR_AXI_HOST4(GPU) ReadStart Address 035e3380 to Address 035e33b8 Size 3 Length 00000008
33341236 ns: DDR_AXI_HOST4(GPU) ReadStart Address 035e33c0 to Address 035e33f8 Size 3 Length 00000008
33355097 ns: DDR_AXI_HOST4(GPU) ReadStart Address 035e0580 to Address 035e05b8 Size 3 Length 00000008
33356067 ns: DDR_AXI_HOST4(GPU) ReadStart Address 035e05c0 to Address 035e05f8 Size 3 Length 00000008
33357261 ns: DDR_AXI_HOST4(GPU) ReadStart Address 035e0780 to Address 035e07b8 Size 3 Length 00000008
33358217 ns: DDR_AXI_HOST4(GPU) ReadStart Address 035e07c0 to Address 035e07f8 Size 3 Length 00000008
33372416 ns: DDR_AXI_HOST4(GPU) ReadStart Address 035e1580 to Address 035e15b8 Size 3 Length 00000008
33373052 ns: DDR_AXI_HOST4(GPU) ReadStart Address 035e15c0 to Address 035e15f8 Size 3 Length 00000008
33374023 ns: DDR_AXI_HOST4(GPU) ReadStart Address 035e1780 to Address 035e17b8 Size 3 Length 00000008
33375202 ns: DDR_AXI_HOST4(GPU) ReadStart Address 035e17c0 to Address 035e17f8 Size 3 Length 00000008
33388854 ns: DDR_AXI_HOST4(GPU) ReadStart Address 035e2580 to Address 035e25b8 Size 3 Length 00000008
33390157 ns: DDR_AXI_HOST4(GPU) ReadStart Address 035e25c0 to Address 035e25f8 Size 3 Length 00000008
33391003 ns: DDR_AXI_HOST4(GPU) ReadStart Address 035e2780 to Address 035e27b8 Size 3 Length 00000008
33391973 ns: DDR_AXI_HOST4(GPU) ReadStart Address 035e27c0 to Address 035e27f8 Size 3 Length 00000008
33405839 ns: DDR_AXI_HOST4(GPU) ReadStart Address 035e3580 to Address 035e35b8 Size 3 Length 00000008
33406809 ns: DDR_AXI_HOST4(GPU) ReadStart Address 035e35c0 to Address 035e35f8 Size 3 Length 00000008
33407988 ns: DDR_AXI_HOST4(GPU) ReadStart Address 035e3780 to Address 035e37b8 Size 3 Length 00000008
33408958 ns: DDR_AXI_HOST4(GPU) ReadStart Address 035e37c0 to Address 035e37f8 Size 3 Length 00000008
33422993 ns: DDR_AXI_HOST4(GPU) ReadStart Address 035e0980 to Address 035e09b8 Size 3 Length 00000008
33423789 ns: DDR_AXI_HOST4(GPU) ReadStart Address 035e09c0 to Address 035e09f8 Size 3 Length 00000008
33424759 ns: DDR_AXI_HOST4(GPU) ReadStart Address 035e0b80 to Address 035e0bb8 Size 3 Length 00000008
33425938 ns: DDR_AXI_HOST4(GPU) ReadStart Address 035e0bc0 to Address 035e0bf8 Size 3 Length 00000008
33439590 ns: DDR_AXI_HOST4(GPU) ReadStart Address 035e1980 to Address 035e19b8 Size 3 Length 00000008
33440769 ns: DDR_AXI_HOST4(GPU) ReadStart Address 035e19c0 to Address 035e19f8 Size 3 Length 00000008
33441740 ns: DDR_AXI_HOST4(GPU) ReadStart Address 035e1b80 to Address 035e1bb8 Size 3 Length 00000008
33443202 ns: DDR_AXI_HOST4(GPU) ReadStart Address 035e1bc0 to Address 035e1bf8 Size 3 Length 00000008
33456576 ns: DDR_AXI_HOST4(GPU) ReadStart Address 035e2980 to Address 035e29b8 Size 3 Length 00000008
33457546 ns: DDR_AXI_HOST4(GPU) ReadStart Address 035e29c0 to Address 035e29f8 Size 3 Length 00000008
33458725 ns: DDR_AXI_HOST4(GPU) ReadStart Address 035e2b80 to Address 035e2bb8 Size 3 Length 00000008
33459695 ns: DDR_AXI_HOST4(GPU) ReadStart Address 035e2bc0 to Address 035e2bf8 Size 3 Length 00000008
33473571 ns: DDR_AXI_HOST4(GPU) ReadStart Address 035e3980 to Address 035e39b8 Size 3 Length 00000008
33474526 ns: DDR_AXI_HOST4(GPU) ReadStart Address 035e39c0 to Address 035e39f8 Size 3 Length 00000008
33476038 ns: DDR_AXI_HOST4(GPU) ReadStart Address 035e3b80 to Address 035e3bb8 Size 3 Length 00000008
33476675 ns: DDR_AXI_HOST4(GPU) ReadStart Address 035e3bc0 to Address 035e3bf8 Size 3 Length 00000008
33490332 ns: DDR_AXI_HOST4(GPU) ReadStart Address 035e0d80 to Address 035e0db8 Size 3 Length 00000008
33491511 ns: DDR_AXI_HOST4(GPU) ReadStart Address 035e0dc0 to Address 035e0df8 Size 3 Length 00000008
33492481 ns: DDR_AXI_HOST4(GPU) ReadStart Address 035e0f80 to Address 035e0fb8 Size 3 Length 00000008
33493780 ns: DDR_AXI_HOST4(GPU) ReadStart Address 035e0fc0 to Address 035e0ff8 Size 3 Length 00000008
33507312 ns: DDR_AXI_HOST4(GPU) ReadStart Address 035e1d80 to Address 035e1db8 Size 3 Length 00000008
33508282 ns: DDR_AXI_HOST4(GPU) ReadStart Address 035e1dc0 to Address 035e1df8 Size 3 Length 00000008
33509461 ns: DDR_AXI_HOST4(GPU) ReadStart Address 035e1f80 to Address 035e1fb8 Size 3 Length 00000008
33510432 ns: DDR_AXI_HOST4(GPU) ReadStart Address 035e1fc0 to Address 035e1ff8 Size 3 Length 00000008
33524297 ns: DDR_AXI_HOST4(GPU) ReadStart Address 035e2d80 to Address 035e2db8 Size 3 Length 00000008
33525263 ns: DDR_AXI_HOST4(GPU) ReadStart Address 035e2dc0 to Address 035e2df8 Size 3 Length 00000008
33526621 ns: DDR_AXI_HOST4(GPU) ReadStart Address 035e2f80 to Address 035e2fb8 Size 3 Length 00000008
33527412 ns: DDR_AXI_HOST4(GPU) ReadStart Address 035e2fc0 to Address 035e2ff8 Size 3 Length 00000008
33541069 ns: DDR_AXI_HOST4(GPU) ReadStart Address 035e3d80 to Address 035e3db8 Size 3 Length 00000008
33542248 ns: DDR_AXI_HOST4(GPU) ReadStart Address 035e3dc0 to Address 035e3df8 Size 3 Length 00000008
33543218 ns: DDR_AXI_HOST4(GPU) ReadStart Address 035e3f80 to Address 035e3fb8 Size 3 Length 00000008
33544397 ns: DDR_AXI_HOST4(GPU) ReadStart Address 035e3fc0 to Address 035e3ff8 Size 3 Length 00000008
33558049 ns: DDR_AXI_HOST4(GPU) ReadStart Address 035e4180 to Address 035e41b8 Size 3 Length 00000008
33559716 ns: DDR_AXI_HOST4(GPU) ReadStart Address 035e41c0 to Address 035e41f8 Size 3 Length 00000008
33560686 ns: DDR_AXI_HOST4(GPU) ReadStart Address 035e4380 to Address 035e43b8 Size 3 Length 00000008
33562039 ns: DDR_AXI_HOST4(GPU) ReadStart Address 035e43c0 to Address 035e43f8 Size 3 Length 00000008
33575517 ns: DDR_AXI_HOST4(GPU) ReadStart Address 035e5180 to Address 035e51b8 Size 3 Length 00000008
33576487 ns: DDR_AXI_HOST4(GPU) ReadStart Address 035e51c0 to Address 035e51f8 Size 3 Length 00000008
33577666 ns: DDR_AXI_HOST4(GPU) ReadStart Address 035e5380 to Address 035e53b8 Size 3 Length 00000008
33578636 ns: DDR_AXI_HOST4(GPU) ReadStart Address 035e53c0 to Address 035e53f8 Size 3 Length 00000008
33592502 ns: DDR_AXI_HOST4(GPU) ReadStart Address 035e6180 to Address 035e61b8 Size 3 Length 00000008
33593472 ns: DDR_AXI_HOST4(GPU) ReadStart Address 035e61c0 to Address 035e61f8 Size 3 Length 00000008
33594875 ns: DDR_AXI_HOST4(GPU) ReadStart Address 035e6380 to Address 035e63b8 Size 3 Length 00000008
33595616 ns: DDR_AXI_HOST4(GPU) ReadStart Address 035e63c0 to Address 035e63f8 Size 3 Length 00000008
33609273 ns: DDR_AXI_HOST4(GPU) ReadStart Address 035e7180 to Address 035e71b8 Size 3 Length 00000008
33610452 ns: DDR_AXI_HOST4(GPU) ReadStart Address 035e71c0 to Address 035e71f8 Size 3 Length 00000008
33611423 ns: DDR_AXI_HOST4(GPU) ReadStart Address 035e7380 to Address 035e73b8 Size 3 Length 00000008
33612617 ns: DDR_AXI_HOST4(GPU) ReadStart Address 035e73c0 to Address 035e73f8 Size 3 Length 00000008
33626253 ns: DDR_AXI_HOST4(GPU) ReadStart Address 035e4580 to Address 035e45b8 Size 3 Length 00000008
33627716 ns: DDR_AXI_HOST4(GPU) ReadStart Address 035e45c0 to Address 035e45f8 Size 3 Length 00000008
33628403 ns: DDR_AXI_HOST4(GPU) ReadStart Address 035e4780 to Address 035e47b8 Size 3 Length 00000008
33629373 ns: DDR_AXI_HOST4(GPU) ReadStart Address 035e47c0 to Address 035e47f8 Size 3 Length 00000008
33643239 ns: DDR_AXI_HOST4(GPU) ReadStart Address 035e5580 to Address 035e55b8 Size 3 Length 00000008
33644209 ns: DDR_AXI_HOST4(GPU) ReadStart Address 035e55c0 to Address 035e55f8 Size 3 Length 00000008
33645458 ns: DDR_AXI_HOST4(GPU) ReadStart Address 035e5780 to Address 035e57b8 Size 3 Length 00000008
33646358 ns: DDR_AXI_HOST4(GPU) ReadStart Address 035e57c0 to Address 035e57f8 Size 3 Length 00000008
33660552 ns: DDR_AXI_HOST4(GPU) ReadStart Address 035e6580 to Address 035e65b8 Size 3 Length 00000008
33661189 ns: DDR_AXI_HOST4(GPU) ReadStart Address 035e65c0 to Address 035e65f8 Size 3 Length 00000008
33662159 ns: DDR_AXI_HOST4(GPU) ReadStart Address 035e6780 to Address 035e67b8 Size 3 Length 00000008
33663338 ns: DDR_AXI_HOST4(GPU) ReadStart Address 035e67c0 to Address 035e67f8 Size 3 Length 00000008
33676995 ns: DDR_AXI_HOST4(GPU) ReadStart Address 035e7580 to Address 035e75b8 Size 3 Length 00000008
33678294 ns: DDR_AXI_HOST4(GPU) ReadStart Address 035e75c0 to Address 035e75f8 Size 3 Length 00000008
33679144 ns: DDR_AXI_HOST4(GPU) ReadStart Address 035e7780 to Address 035e77b8 Size 3 Length 00000008
33680110 ns: DDR_AXI_HOST4(GPU) ReadStart Address 035e77c0 to Address 035e77f8 Size 3 Length 00000008
33693975 ns: DDR_AXI_HOST4(GPU) ReadStart Address 035e4980 to Address 035e49b8 Size 3 Length 00000008
33694946 ns: DDR_AXI_HOST4(GPU) ReadStart Address 035e49c0 to Address 035e49f8 Size 3 Length 00000008
33696125 ns: DDR_AXI_HOST4(GPU) ReadStart Address 035e4b80 to Address 035e4bb8 Size 3 Length 00000008
33697095 ns: DDR_AXI_HOST4(GPU) ReadStart Address 035e4bc0 to Address 035e4bf8 Size 3 Length 00000008
33711135 ns: DDR_AXI_HOST4(GPU) ReadStart Address 035e5980 to Address 035e59b8 Size 3 Length 00000008
33711926 ns: DDR_AXI_HOST4(GPU) ReadStart Address 035e59c0 to Address 035e59f8 Size 3 Length 00000008
33712896 ns: DDR_AXI_HOST4(GPU) ReadStart Address 035e5b80 to Address 035e5bb8 Size 3 Length 00000008
33714075 ns: DDR_AXI_HOST4(GPU) ReadStart Address 035e5bc0 to Address 035e5bf8 Size 3 Length 00000008
33727732 ns: DDR_AXI_HOST4(GPU) ReadStart Address 035e6980 to Address 035e69b8 Size 3 Length 00000008
33728911 ns: DDR_AXI_HOST4(GPU) ReadStart Address 035e69c0 to Address 035e69f8 Size 3 Length 00000008
33729881 ns: DDR_AXI_HOST4(GPU) ReadStart Address 035e6b80 to Address 035e6bb8 Size 3 Length 00000008
33731339 ns: DDR_AXI_HOST4(GPU) ReadStart Address 035e6bc0 to Address 035e6bf8 Size 3 Length 00000008
33744712 ns: DDR_AXI_HOST4(GPU) ReadStart Address 035e7980 to Address 035e79b8 Size 3 Length 00000008
33745682 ns: DDR_AXI_HOST4(GPU) ReadStart Address 035e79c0 to Address 035e79f8 Size 3 Length 00000008
33746861 ns: DDR_AXI_HOST4(GPU) ReadStart Address 035e7b80 to Address 035e7bb8 Size 3 Length 00000008
33747832 ns: DDR_AXI_HOST4(GPU) ReadStart Address 035e7bc0 to Address 035e7bf8 Size 3 Length 00000008
33761712 ns: DDR_AXI_HOST4(GPU) ReadStart Address 035e4d80 to Address 035e4db8 Size 3 Length 00000008
33762667 ns: DDR_AXI_HOST4(GPU) ReadStart Address 035e4dc0 to Address 035e4df8 Size 3 Length 00000008
33763638 ns: DDR_AXI_HOST4(GPU) ReadStart Address 035e4f80 to Address 035e4fb8 Size 3 Length 00000008
33764817 ns: DDR_AXI_HOST4(GPU) ReadStart Address 035e4fc0 to Address 035e4ff8 Size 3 Length 00000008
33778469 ns: DDR_AXI_HOST4(GPU) ReadStart Address 035e5d80 to Address 035e5db8 Size 3 Length 00000008
33779648 ns: DDR_AXI_HOST4(GPU) ReadStart Address 035e5dc0 to Address 035e5df8 Size 3 Length 00000008
33780618 ns: DDR_AXI_HOST4(GPU) ReadStart Address 035e5f80 to Address 035e5fb8 Size 3 Length 00000008
33781916 ns: DDR_AXI_HOST4(GPU) ReadStart Address 035e5fc0 to Address 035e5ff8 Size 3 Length 00000008
33795454 ns: DDR_AXI_HOST4(GPU) ReadStart Address 035e6d80 to Address 035e6db8 Size 3 Length 00000008
33796419 ns: DDR_AXI_HOST4(GPU) ReadStart Address 035e6dc0 to Address 035e6df8 Size 3 Length 00000008
33797598 ns: DDR_AXI_HOST4(GPU) ReadStart Address 035e6f80 to Address 035e6fb8 Size 3 Length 00000008
33798568 ns: DDR_AXI_HOST4(GPU) ReadStart Address 035e6fc0 to Address 035e6ff8 Size 3 Length 00000008
33812434 ns: DDR_AXI_HOST4(GPU) ReadStart Address 035e7d80 to Address 035e7db8 Size 3 Length 00000008
33813404 ns: DDR_AXI_HOST4(GPU) ReadStart Address 035e7dc0 to Address 035e7df8 Size 3 Length 00000008
33814812 ns: DDR_AXI_HOST4(GPU) ReadStart Address 035e7f80 to Address 035e7fb8 Size 3 Length 00000008
33815553 ns: DDR_AXI_HOST4(GPU) ReadStart Address 035e7fc0 to Address 035e7ff8 Size 3 Length 00000008
33829205 ns: DDR_AXI_HOST4(GPU) ReadStart Address 035e8180 to Address 035e81b8 Size 3 Length 00000008
33830872 ns: DDR_AXI_HOST4(GPU) ReadStart Address 035e81c0 to Address 035e81f8 Size 3 Length 00000008
33831842 ns: DDR_AXI_HOST4(GPU) ReadStart Address 035e8380 to Address 035e83b8 Size 3 Length 00000008
33833021 ns: DDR_AXI_HOST4(GPU) ReadStart Address 035e83c0 to Address 035e83f8 Size 3 Length 00000008
33846673 ns: DDR_AXI_HOST4(GPU) ReadStart Address 035e9180 to Address 035e91b8 Size 3 Length 00000008
33847852 ns: DDR_AXI_HOST4(GPU) ReadStart Address 035e91c0 to Address 035e91f8 Size 3 Length 00000008
33848822 ns: DDR_AXI_HOST4(GPU) ReadStart Address 035e9380 to Address 035e93b8 Size 3 Length 00000008
33850176 ns: DDR_AXI_HOST4(GPU) ReadStart Address 035e93c0 to Address 035e93f8 Size 3 Length 00000008
33863658 ns: DDR_AXI_HOST4(GPU) ReadStart Address 035ea180 to Address 035ea1b8 Size 3 Length 00000008
33864628 ns: DDR_AXI_HOST4(GPU) ReadStart Address 035ea1c0 to Address 035ea1f8 Size 3 Length 00000008
33865808 ns: DDR_AXI_HOST4(GPU) ReadStart Address 035ea380 to Address 035ea3b8 Size 3 Length 00000008
33866773 ns: DDR_AXI_HOST4(GPU) ReadStart Address 035ea3c0 to Address 035ea3f8 Size 3 Length 00000008
33880639 ns: DDR_AXI_HOST4(GPU) ReadStart Address 035eb180 to Address 035eb1b8 Size 3 Length 00000008
33881609 ns: DDR_AXI_HOST4(GPU) ReadStart Address 035eb1c0 to Address 035eb1f8 Size 3 Length 00000008
33883017 ns: DDR_AXI_HOST4(GPU) ReadStart Address 035eb380 to Address 035eb3b8 Size 3 Length 00000008
33883758 ns: DDR_AXI_HOST4(GPU) ReadStart Address 035eb3c0 to Address 035eb3f8 Size 3 Length 00000008
33897410 ns: DDR_AXI_HOST4(GPU) ReadStart Address 035e8580 to Address 035e85b8 Size 3 Length 00000008
33898589 ns: DDR_AXI_HOST4(GPU) ReadStart Address 035e85c0 to Address 035e85f8 Size 3 Length 00000008
33899559 ns: DDR_AXI_HOST4(GPU) ReadStart Address 035e8780 to Address 035e87b8 Size 3 Length 00000008
33900753 ns: DDR_AXI_HOST4(GPU) ReadStart Address 035e87c0 to Address 035e87f8 Size 3 Length 00000008
33914395 ns: DDR_AXI_HOST4(GPU) ReadStart Address 035e9580 to Address 035e95b8 Size 3 Length 00000008
33915908 ns: DDR_AXI_HOST4(GPU) ReadStart Address 035e95c0 to Address 035e95f8 Size 3 Length 00000008
33916544 ns: DDR_AXI_HOST4(GPU) ReadStart Address 035e9780 to Address 035e97b8 Size 3 Length 00000008
33917514 ns: DDR_AXI_HOST4(GPU) ReadStart Address 035e97c0 to Address 035e97f8 Size 3 Length 00000008
33931375 ns: DDR_AXI_HOST4(GPU) ReadStart Address 035ea580 to Address 035ea5b8 Size 3 Length 00000008
33932345 ns: DDR_AXI_HOST4(GPU) ReadStart Address 035ea5c0 to Address 035ea5f8 Size 3 Length 00000008
33933594 ns: DDR_AXI_HOST4(GPU) ReadStart Address 035ea780 to Address 035ea7b8 Size 3 Length 00000008
33934495 ns: DDR_AXI_HOST4(GPU) ReadStart Address 035ea7c0 to Address 035ea7f8 Size 3 Length 00000008
33948152 ns: DDR_AXI_HOST4(GPU) ReadStart Address 035eb580 to Address 035eb5b8 Size 3 Length 00000008
33949331 ns: DDR_AXI_HOST4(GPU) ReadStart Address 035eb5c0 to Address 035eb5f8 Size 3 Length 00000008
33950301 ns: DDR_AXI_HOST4(GPU) ReadStart Address 035eb780 to Address 035eb7b8 Size 3 Length 00000008
33951480 ns: DDR_AXI_HOST4(GPU) ReadStart Address 035eb7c0 to Address 035eb7f8 Size 3 Length 00000008
33965132 ns: DDR_AXI_HOST4(GPU) ReadStart Address 035e8980 to Address 035e89b8 Size 3 Length 00000008
33966485 ns: DDR_AXI_HOST4(GPU) ReadStart Address 035e89c0 to Address 035e89f8 Size 3 Length 00000008
33967281 ns: DDR_AXI_HOST4(GPU) ReadStart Address 035e8b80 to Address 035e8bb8 Size 3 Length 00000008
33968251 ns: DDR_AXI_HOST4(GPU) ReadStart Address 035e8bc0 to Address 035e8bf8 Size 3 Length 00000008
33982112 ns: DDR_AXI_HOST4(GPU) ReadStart Address 035e9980 to Address 035e99b8 Size 3 Length 00000008
33983082 ns: DDR_AXI_HOST4(GPU) ReadStart Address 035e99c0 to Address 035e99f8 Size 3 Length 00000008
33984261 ns: DDR_AXI_HOST4(GPU) ReadStart Address 035e9b80 to Address 035e9bb8 Size 3 Length 00000008
33985231 ns: DDR_AXI_HOST4(GPU) ReadStart Address 035e9bc0 to Address 035e9bf8 Size 3 Length 00000008
33999326 ns: DDR_AXI_HOST4(GPU) ReadStart Address 035ea980 to Address 035ea9b8 Size 3 Length 00000008
34000067 ns: DDR_AXI_HOST4(GPU) ReadStart Address 035ea9c0 to Address 035ea9f8 Size 3 Length 00000008
34001038 ns: DDR_AXI_HOST4(GPU) ReadStart Address 035eab80 to Address 035eabb8 Size 3 Length 00000008
34002217 ns: DDR_AXI_HOST4(GPU) ReadStart Address 035eabc0 to Address 035eabf8 Size 3 Length 00000008
34015869 ns: DDR_AXI_HOST4(GPU) ReadStart Address 035eb980 to Address 035eb9b8 Size 3 Length 00000008
34017063 ns: DDR_AXI_HOST4(GPU) ReadStart Address 035eb9c0 to Address 035eb9f8 Size 3 Length 00000008
34018018 ns: DDR_AXI_HOST4(GPU) ReadStart Address 035ebb80 to Address 035ebbb8 Size 3 Length 00000008
34019530 ns: DDR_AXI_HOST4(GPU) ReadStart Address 035ebbc0 to Address 035ebbf8 Size 3 Length 00000008
34032854 ns: DDR_AXI_HOST4(GPU) ReadStart Address 035e8d80 to Address 035e8db8 Size 3 Length 00000008
34033824 ns: DDR_AXI_HOST4(GPU) ReadStart Address 035e8dc0 to Address 035e8df8 Size 3 Length 00000008
34035003 ns: DDR_AXI_HOST4(GPU) ReadStart Address 035e8f80 to Address 035e8fb8 Size 3 Length 00000008
34035973 ns: DDR_AXI_HOST4(GPU) ReadStart Address 035e8fc0 to Address 035e8ff8 Size 3 Length 00000008
34049904 ns: DDR_AXI_HOST4(GPU) ReadStart Address 035e9d80 to Address 035e9db8 Size 3 Length 00000008
34050804 ns: DDR_AXI_HOST4(GPU) ReadStart Address 035e9dc0 to Address 035e9df8 Size 3 Length 00000008
34051774 ns: DDR_AXI_HOST4(GPU) ReadStart Address 035e9f80 to Address 035e9fb8 Size 3 Length 00000008
34052953 ns: DDR_AXI_HOST4(GPU) ReadStart Address 035e9fc0 to Address 035e9ff8 Size 3 Length 00000008
34066605 ns: DDR_AXI_HOST4(GPU) ReadStart Address 035ead80 to Address 035eadb8 Size 3 Length 00000008
34067784 ns: DDR_AXI_HOST4(GPU) ReadStart Address 035eadc0 to Address 035eadf8 Size 3 Length 00000008
34068755 ns: DDR_AXI_HOST4(GPU) ReadStart Address 035eaf80 to Address 035eafb8 Size 3 Length 00000008
34070108 ns: DDR_AXI_HOST4(GPU) ReadStart Address 035eafc0 to Address 035eaff8 Size 3 Length 00000008
34083590 ns: DDR_AXI_HOST4(GPU) ReadStart Address 035ebd80 to Address 035ebdb8 Size 3 Length 00000008
34084561 ns: DDR_AXI_HOST4(GPU) ReadStart Address 035ebdc0 to Address 035ebdf8 Size 3 Length 00000008
34085740 ns: DDR_AXI_HOST4(GPU) ReadStart Address 035ebf80 to Address 035ebfb8 Size 3 Length 00000008
34086710 ns: DDR_AXI_HOST4(GPU) ReadStart Address 035ebfc0 to Address 035ebff8 Size 3 Length 00000008
34916901 ns: DDR_AXI_HOST4(GPU) ReadStart Address 03604180 to Address 036041b8 Size 3 Length 00000008
34918289 ns: DDR_AXI_HOST4(GPU) ReadStart Address 036041c0 to Address 036041f8 Size 3 Length 00000008
34919483 ns: DDR_AXI_HOST4(GPU) ReadStart Address 03604380 to Address 036043b8 Size 3 Length 00000008
34920438 ns: DDR_AXI_HOST4(GPU) ReadStart Address 036043c0 to Address 036043f8 Size 3 Length 00000008
34959896 ns: DDR_AXI_HOST4(GPU) ReadStart Address 03604580 to Address 036045b8 Size 3 Length 00000008
34960642 ns: DDR_AXI_HOST4(GPU) ReadStart Address 036045c0 to Address 036045f8 Size 3 Length 00000008
34961607 ns: DDR_AXI_HOST4(GPU) ReadStart Address 03604780 to Address 036047b8 Size 3 Length 00000008
34962787 ns: DDR_AXI_HOST4(GPU) ReadStart Address 036047c0 to Address 036047f8 Size 3 Length 00000008
35001812 ns: DDR_AXI_HOST4(GPU) ReadStart Address 03604980 to Address 036049b8 Size 3 Length 00000008
35002991 ns: DDR_AXI_HOST4(GPU) ReadStart Address 036049c0 to Address 036049f8 Size 3 Length 00000008
35003961 ns: DDR_AXI_HOST4(GPU) ReadStart Address 03604b80 to Address 03604bb8 Size 3 Length 00000008
35005369 ns: DDR_AXI_HOST4(GPU) ReadStart Address 03604bc0 to Address 03604bf8 Size 3 Length 00000008
35044165 ns: DDR_AXI_HOST4(GPU) ReadStart Address 03604d80 to Address 03604db8 Size 3 Length 00000008
35045135 ns: DDR_AXI_HOST4(GPU) ReadStart Address 03604dc0 to Address 03604df8 Size 3 Length 00000008
35046315 ns: DDR_AXI_HOST4(GPU) ReadStart Address 03604f80 to Address 03604fb8 Size 3 Length 00000008
35047280 ns: DDR_AXI_HOST4(GPU) ReadStart Address 03604fc0 to Address 03604ff8 Size 3 Length 00000008
35086514 ns: DDR_AXI_HOST4(GPU) ReadStart Address 03608180 to Address 036081b8 Size 3 Length 00000008
35087972 ns: DDR_AXI_HOST4(GPU) ReadStart Address 036081c0 to Address 036081f8 Size 3 Length 00000008
35089151 ns: DDR_AXI_HOST4(GPU) ReadStart Address 03608380 to Address 036083b8 Size 3 Length 00000008
35090116 ns: DDR_AXI_HOST4(GPU) ReadStart Address 036083c0 to Address 036083f8 Size 3 Length 00000008
35129350 ns: DDR_AXI_HOST4(GPU) ReadStart Address 03608580 to Address 036085b8 Size 3 Length 00000008
35130320 ns: DDR_AXI_HOST4(GPU) ReadStart Address 036085c0 to Address 036085f8 Size 3 Length 00000008
35131778 ns: DDR_AXI_HOST4(GPU) ReadStart Address 03608780 to Address 036087b8 Size 3 Length 00000008
35132469 ns: DDR_AXI_HOST4(GPU) ReadStart Address 036087c0 to Address 036087f8 Size 3 Length 00000008
35171495 ns: DDR_AXI_HOST4(GPU) ReadStart Address 03608980 to Address 036089b8 Size 3 Length 00000008
35172674 ns: DDR_AXI_HOST4(GPU) ReadStart Address 036089c0 to Address 036089f8 Size 3 Length 00000008
35173644 ns: DDR_AXI_HOST4(GPU) ReadStart Address 03608b80 to Address 03608bb8 Size 3 Length 00000008
35174823 ns: DDR_AXI_HOST4(GPU) ReadStart Address 03608bc0 to Address 03608bf8 Size 3 Length 00000008
35213843 ns: DDR_AXI_HOST4(GPU) ReadStart Address 03608d80 to Address 03608db8 Size 3 Length 00000008
35215196 ns: DDR_AXI_HOST4(GPU) ReadStart Address 03608dc0 to Address 03608df8 Size 3 Length 00000008
35215993 ns: DDR_AXI_HOST4(GPU) ReadStart Address 03608f80 to Address 03608fb8 Size 3 Length 00000008
35216963 ns: DDR_AXI_HOST4(GPU) ReadStart Address 03608fc0 to Address 03608ff8 Size 3 Length 00000008
35256679 ns: DDR_AXI_HOST4(GPU) ReadStart Address 0360c180 to Address 0360c1b8 Size 3 Length 00000008
35258142 ns: DDR_AXI_HOST4(GPU) ReadStart Address 0360c1c0 to Address 0360c1f8 Size 3 Length 00000008
35258829 ns: DDR_AXI_HOST4(GPU) ReadStart Address 0360c380 to Address 0360c3b8 Size 3 Length 00000008
35259799 ns: DDR_AXI_HOST4(GPU) ReadStart Address 0360c3c0 to Address 0360c3f8 Size 3 Length 00000008
35299033 ns: DDR_AXI_HOST4(GPU) ReadStart Address 0360c580 to Address 0360c5b8 Size 3 Length 00000008
35300003 ns: DDR_AXI_HOST4(GPU) ReadStart Address 0360c5c0 to Address 0360c5f8 Size 3 Length 00000008
35301182 ns: DDR_AXI_HOST4(GPU) ReadStart Address 0360c780 to Address 0360c7b8 Size 3 Length 00000008
35302152 ns: DDR_AXI_HOST4(GPU) ReadStart Address 0360c7c0 to Address 0360c7f8 Size 3 Length 00000008
35341556 ns: DDR_AXI_HOST4(GPU) ReadStart Address 0360c980 to Address 0360c9b8 Size 3 Length 00000008
35342352 ns: DDR_AXI_HOST4(GPU) ReadStart Address 0360c9c0 to Address 0360c9f8 Size 3 Length 00000008
35343322 ns: DDR_AXI_HOST4(GPU) ReadStart Address 0360cb80 to Address 0360cbb8 Size 3 Length 00000008
35344501 ns: DDR_AXI_HOST4(GPU) ReadStart Address 0360cbc0 to Address 0360cbf8 Size 3 Length 00000008
35383526 ns: DDR_AXI_HOST4(GPU) ReadStart Address 0360cd80 to Address 0360cdb8 Size 3 Length 00000008
35384705 ns: DDR_AXI_HOST4(GPU) ReadStart Address 0360cdc0 to Address 0360cdf8 Size 3 Length 00000008
35385675 ns: DDR_AXI_HOST4(GPU) ReadStart Address 0360cf80 to Address 0360cfb8 Size 3 Length 00000008
35387078 ns: DDR_AXI_HOST4(GPU) ReadStart Address 0360cfc0 to Address 0360cff8 Size 3 Length 00000008
35425875 ns: DDR_AXI_HOST4(GPU) ReadStart Address 03610180 to Address 036101b8 Size 3 Length 00000008
35427556 ns: DDR_AXI_HOST4(GPU) ReadStart Address 036101c0 to Address 036101f8 Size 3 Length 00000008
35428512 ns: DDR_AXI_HOST4(GPU) ReadStart Address 03610380 to Address 036103b8 Size 3 Length 00000008
35430024 ns: DDR_AXI_HOST4(GPU) ReadStart Address 036103c0 to Address 036103f8 Size 3 Length 00000008
35468711 ns: DDR_AXI_HOST4(GPU) ReadStart Address 03610580 to Address 036105b8 Size 3 Length 00000008
35469681 ns: DDR_AXI_HOST4(GPU) ReadStart Address 036105c0 to Address 036105f8 Size 3 Length 00000008
35470860 ns: DDR_AXI_HOST4(GPU) ReadStart Address 03610780 to Address 036107b8 Size 3 Length 00000008
35471830 ns: DDR_AXI_HOST4(GPU) ReadStart Address 036107c0 to Address 036107f8 Size 3 Length 00000008
35511065 ns: DDR_AXI_HOST4(GPU) ReadStart Address 03610980 to Address 036109b8 Size 3 Length 00000008
35512035 ns: DDR_AXI_HOST4(GPU) ReadStart Address 036109c0 to Address 036109f8 Size 3 Length 00000008
35513438 ns: DDR_AXI_HOST4(GPU) ReadStart Address 03610b80 to Address 03610bb8 Size 3 Length 00000008
35514184 ns: DDR_AXI_HOST4(GPU) ReadStart Address 03610bc0 to Address 03610bf8 Size 3 Length 00000008
35553204 ns: DDR_AXI_HOST4(GPU) ReadStart Address 03610d80 to Address 03610db8 Size 3 Length 00000008
35554383 ns: DDR_AXI_HOST4(GPU) ReadStart Address 03610dc0 to Address 03610df8 Size 3 Length 00000008
35555353 ns: DDR_AXI_HOST4(GPU) ReadStart Address 03610f80 to Address 03610fb8 Size 3 Length 00000008
35556533 ns: DDR_AXI_HOST4(GPU) ReadStart Address 03610fc0 to Address 03610ff8 Size 3 Length 00000008
