3822911 ns: DDR_AXI_HOST4(GPU) ReadStart Address 0358e100 to Address 0358e138 Size 3 Length 00000008
3823398 ns: DDR_AXI_HOST4(GPU) ReadStart Address 0358e140 to Address 0358e178 Size 3 Length 00000008
3826274 ns: DDR_AXI_HOST4(GPU) ReadStart Address 0358e300 to Address 0358e338 Size 3 Length 00000008
3826393 ns: DDR_AXI_HOST4(GPU) ReadStart Address 0358e340 to Address 0358e378 Size 3 Length 00000008
3828662 ns: DDR_AXI_HOST4(GPU) ReadStart Address 0358e500 to Address 0358e538 Size 3 Length 00000008
3831662 ns: DDR_AXI_HOST4(GPU) ReadStart Address 0358e540 to Address 0358e578 Size 3 Length 00000008
3833324 ns: DDR_AXI_HOST4(GPU) ReadStart Address 0358e700 to Address 0358e738 Size 3 Length 00000008
3833811 ns: DDR_AXI_HOST4(GPU) ReadStart Address 0358e740 to Address 0358e778 Size 3 Length 00000008
3835597 ns: DDR_AXI_HOST4(GPU) ReadStart Address 0358e900 to Address 0358e938 Size 3 Length 00000008
3838955 ns: DDR_AXI_HOST4(GPU) ReadStart Address 0358e940 to Address 0358e978 Size 3 Length 00000008
3840259 ns: DDR_AXI_HOST4(GPU) ReadStart Address 0358eb00 to Address 0358eb38 Size 3 Length 00000008
3840742 ns: DDR_AXI_HOST4(GPU) ReadStart Address 0358eb40 to Address 0358eb78 Size 3 Length 00000008
3842702 ns: DDR_AXI_HOST4(GPU) ReadStart Address 0358ed00 to Address 0358ed38 Size 3 Length 00000008
3846010 ns: DDR_AXI_HOST4(GPU) ReadStart Address 0358ed40 to Address 0358ed78 Size 3 Length 00000008
3847742 ns: DDR_AXI_HOST4(GPU) ReadStart Address 0358ef00 to Address 0358ef38 Size 3 Length 00000008
3848160 ns: DDR_AXI_HOST4(GPU) ReadStart Address 0358ef40 to Address 0358ef78 Size 3 Length 00000008
3850279 ns: DDR_AXI_HOST4(GPU) ReadStart Address 03592100 to Address 03592138 Size 3 Length 00000008
3852125 ns: DDR_AXI_HOST4(GPU) ReadStart Address 03592140 to Address 03592178 Size 3 Length 00000008
3855304 ns: DDR_AXI_HOST4(GPU) ReadStart Address 03592300 to Address 03592338 Size 3 Length 00000008
3855319 ns: DDR_AXI_HOST4(GPU) ReadStart Address 03592340 to Address 03592378 Size 3 Length 00000008
3857966 ns: DDR_AXI_HOST4(GPU) ReadStart Address 03592500 to Address 03592538 Size 3 Length 00000008
3859662 ns: DDR_AXI_HOST4(GPU) ReadStart Address 03592540 to Address 03592578 Size 3 Length 00000008
3860841 ns: DDR_AXI_HOST4(GPU) ReadStart Address 03592700 to Address 03592738 Size 3 Length 00000008
3863234 ns: DDR_AXI_HOST4(GPU) ReadStart Address 03592740 to Address 03592778 Size 3 Length 00000008
3864204 ns: DDR_AXI_HOST4(GPU) ReadStart Address 03592900 to Address 03592938 Size 3 Length 00000008
3865453 ns: DDR_AXI_HOST4(GPU) ReadStart Address 03592940 to Address 03592978 Size 3 Length 00000008
3868747 ns: DDR_AXI_HOST4(GPU) ReadStart Address 03592b00 to Address 03592b38 Size 3 Length 00000008
3870548 ns: DDR_AXI_HOST4(GPU) ReadStart Address 03592b40 to Address 03592b78 Size 3 Length 00000008
3871135 ns: DDR_AXI_HOST4(GPU) ReadStart Address 03592d00 to Address 03592d38 Size 3 Length 00000008
3874011 ns: DDR_AXI_HOST4(GPU) ReadStart Address 03592d40 to Address 03592d78 Size 3 Length 00000008
3876160 ns: DDR_AXI_HOST4(GPU) ReadStart Address 03592f00 to Address 03592f38 Size 3 Length 00000008
3877254 ns: DDR_AXI_HOST4(GPU) ReadStart Address 03592f40 to Address 03592f78 Size 3 Length 00000008
3883145 ns: DDR_AXI_HOST4(GPU) ReadStart Address 03596100 to Address 03596138 Size 3 Length 00000008
3885846 ns: DDR_AXI_HOST4(GPU) ReadStart Address 03596140 to Address 03596178 Size 3 Length 00000008
3889090 ns: DDR_AXI_HOST4(GPU) ReadStart Address 03596300 to Address 03596338 Size 3 Length 00000008
3890722 ns: DDR_AXI_HOST4(GPU) ReadStart Address 03596340 to Address 03596378 Size 3 Length 00000008
3894115 ns: DDR_AXI_HOST4(GPU) ReadStart Address 03596500 to Address 03596538 Size 3 Length 00000008
3896021 ns: DDR_AXI_HOST4(GPU) ReadStart Address 03596540 to Address 03596578 Size 3 Length 00000008
3896991 ns: DDR_AXI_HOST4(GPU) ReadStart Address 03596700 to Address 03596738 Size 3 Length 00000008
3900230 ns: DDR_AXI_HOST4(GPU) ReadStart Address 03596740 to Address 03596778 Size 3 Length 00000008
3901046 ns: DDR_AXI_HOST4(GPU) ReadStart Address 03596900 to Address 03596938 Size 3 Length 00000008
3904439 ns: DDR_AXI_HOST4(GPU) ReadStart Address 03596940 to Address 03596978 Size 3 Length 00000008
3909309 ns: DDR_AXI_HOST4(GPU) ReadStart Address 03596b00 to Address 03596b38 Size 3 Length 00000008
3910279 ns: DDR_AXI_HOST4(GPU) ReadStart Address 03596b40 to Address 03596b78 Size 3 Length 00000008
3911095 ns: DDR_AXI_HOST4(GPU) ReadStart Address 03596d00 to Address 03596d38 Size 3 Length 00000008
3914334 ns: DDR_AXI_HOST4(GPU) ReadStart Address 03596d40 to Address 03596d78 Size 3 Length 00000008
3915971 ns: DDR_AXI_HOST4(GPU) ReadStart Address 03596f00 to Address 03596f38 Size 3 Length 00000008
3918996 ns: DDR_AXI_HOST4(GPU) ReadStart Address 03596f40 to Address 03596f78 Size 3 Length 00000008
3921145 ns: DDR_AXI_HOST4(GPU) ReadStart Address 0359a100 to Address 0359a138 Size 3 Length 00000008
3924021 ns: DDR_AXI_HOST4(GPU) ReadStart Address 0359a140 to Address 0359a178 Size 3 Length 00000008
3926777 ns: DDR_AXI_HOST4(GPU) ReadStart Address 0359a300 to Address 0359a338 Size 3 Length 00000008
3928633 ns: DDR_AXI_HOST4(GPU) ReadStart Address 0359a340 to Address 0359a378 Size 3 Length 00000008
3930016 ns: DDR_AXI_HOST4(GPU) ReadStart Address 0359a500 to Address 0359a538 Size 3 Length 00000008
3933707 ns: DDR_AXI_HOST4(GPU) ReadStart Address 0359a540 to Address 0359a578 Size 3 Length 00000008
3935041 ns: DDR_AXI_HOST4(GPU) ReadStart Address 0359a700 to Address 0359a738 Size 3 Length 00000008
3936464 ns: DDR_AXI_HOST4(GPU) ReadStart Address 0359a740 to Address 0359a778 Size 3 Length 00000008
3940553 ns: DDR_AXI_HOST4(GPU) ReadStart Address 0359a900 to Address 0359a938 Size 3 Length 00000008
3940673 ns: DDR_AXI_HOST4(GPU) ReadStart Address 0359a940 to Address 0359a978 Size 3 Length 00000008
3944125 ns: DDR_AXI_HOST4(GPU) ReadStart Address 0359ab00 to Address 0359ab38 Size 3 Length 00000008
3946678 ns: DDR_AXI_HOST4(GPU) ReadStart Address 0359ab40 to Address 0359ab78 Size 3 Length 00000008
3949757 ns: DDR_AXI_HOST4(GPU) ReadStart Address 0359ad00 to Address 0359ad38 Size 3 Length 00000008
3950240 ns: DDR_AXI_HOST4(GPU) ReadStart Address 0359ad40 to Address 0359ad78 Size 3 Length 00000008
3953917 ns: DDR_AXI_HOST4(GPU) ReadStart Address 0359af00 to Address 0359af38 Size 3 Length 00000008
3956414 ns: DDR_AXI_HOST4(GPU) ReadStart Address 0359af40 to Address 0359af78 Size 3 Length 00000008
3959683 ns: DDR_AXI_HOST4(GPU) ReadStart Address 0358e100 to Address 0358e138 Size 3 Length 00000008
3959807 ns: DDR_AXI_HOST4(GPU) ReadStart Address 0358e140 to Address 0358e178 Size 3 Length 00000008
3963046 ns: DDR_AXI_HOST4(GPU) ReadStart Address 0358e300 to Address 0358e338 Size 3 Length 00000008
3965573 ns: DDR_AXI_HOST4(GPU) ReadStart Address 0358e340 to Address 0358e378 Size 3 Length 00000008
3969046 ns: DDR_AXI_HOST4(GPU) ReadStart Address 0358e500 to Address 0358e538 Size 3 Length 00000008
3969369 ns: DDR_AXI_HOST4(GPU) ReadStart Address 0358e540 to Address 0358e578 Size 3 Length 00000008
3973096 ns: DDR_AXI_HOST4(GPU) ReadStart Address 0358e700 to Address 0358e738 Size 3 Length 00000008
3974952 ns: DDR_AXI_HOST4(GPU) ReadStart Address 0358e740 to Address 0358e778 Size 3 Length 00000008
3977151 ns: DDR_AXI_HOST4(GPU) ReadStart Address 0358e900 to Address 0358e938 Size 3 Length 00000008
3979165 ns: DDR_AXI_HOST4(GPU) ReadStart Address 0358e940 to Address 0358e978 Size 3 Length 00000008
3979544 ns: DDR_AXI_HOST4(GPU) ReadStart Address 0358eb00 to Address 0358eb38 Size 3 Length 00000008
3983270 ns: DDR_AXI_HOST4(GPU) ReadStart Address 0358eb40 to Address 0358eb78 Size 3 Length 00000008
3986146 ns: DDR_AXI_HOST4(GPU) ReadStart Address 0358ed00 to Address 0358ed38 Size 3 Length 00000008
3988414 ns: DDR_AXI_HOST4(GPU) ReadStart Address 0358ed40 to Address 0358ed78 Size 3 Length 00000008
3989593 ns: DDR_AXI_HOST4(GPU) ReadStart Address 0358ef00 to Address 0358ef38 Size 3 Length 00000008
3992469 ns: DDR_AXI_HOST4(GPU) ReadStart Address 0358ef40 to Address 0358ef78 Size 3 Length 00000008
3995708 ns: DDR_AXI_HOST4(GPU) ReadStart Address 03592100 to Address 03592138 Size 3 Length 00000008
3997982 ns: DDR_AXI_HOST4(GPU) ReadStart Address 03592140 to Address 03592178 Size 3 Length 00000008
3999390 ns: DDR_AXI_HOST4(GPU) ReadStart Address 03592300 to Address 03592338 Size 3 Length 00000008
4002036 ns: DDR_AXI_HOST4(GPU) ReadStart Address 03592340 to Address 03592378 Size 3 Length 00000008
4005275 ns: DDR_AXI_HOST4(GPU) ReadStart Address 03592500 to Address 03592538 Size 3 Length 00000008
4007061 ns: DDR_AXI_HOST4(GPU) ReadStart Address 03592540 to Address 03592578 Size 3 Length 00000008
4008514 ns: DDR_AXI_HOST4(GPU) ReadStart Address 03592700 to Address 03592738 Size 3 Length 00000008
4011395 ns: DDR_AXI_HOST4(GPU) ReadStart Address 03592740 to Address 03592778 Size 3 Length 00000008
4014842 ns: DDR_AXI_HOST4(GPU) ReadStart Address 03592900 to Address 03592938 Size 3 Length 00000008
4015932 ns: DDR_AXI_HOST4(GPU) ReadStart Address 03592940 to Address 03592978 Size 3 Length 00000008
4018081 ns: DDR_AXI_HOST4(GPU) ReadStart Address 03592b00 to Address 03592b38 Size 3 Length 00000008
4018569 ns: DDR_AXI_HOST4(GPU) ReadStart Address 03592b40 to Address 03592b78 Size 3 Length 00000008
4022624 ns: DDR_AXI_HOST4(GPU) ReadStart Address 03592d00 to Address 03592d38 Size 3 Length 00000008
4025012 ns: DDR_AXI_HOST4(GPU) ReadStart Address 03592d40 to Address 03592d78 Size 3 Length 00000008
4028255 ns: DDR_AXI_HOST4(GPU) ReadStart Address 03592f00 to Address 03592f38 Size 3 Length 00000008
4028738 ns: DDR_AXI_HOST4(GPU) ReadStart Address 03592f40 to Address 03592f78 Size 3 Length 00000008
4032673 ns: DDR_AXI_HOST4(GPU) ReadStart Address 03596100 to Address 03596138 Size 3 Length 00000008
4034952 ns: DDR_AXI_HOST4(GPU) ReadStart Address 03596140 to Address 03596178 Size 3 Length 00000008
4037698 ns: DDR_AXI_HOST4(GPU) ReadStart Address 03596300 to Address 03596338 Size 3 Length 00000008
4038305 ns: DDR_AXI_HOST4(GPU) ReadStart Address 03596340 to Address 03596378 Size 3 Length 00000008
4042415 ns: DDR_AXI_HOST4(GPU) ReadStart Address 03596500 to Address 03596538 Size 3 Length 00000008
4044081 ns: DDR_AXI_HOST4(GPU) ReadStart Address 03596540 to Address 03596578 Size 3 Length 00000008
4046086 ns: DDR_AXI_HOST4(GPU) ReadStart Address 03596700 to Address 03596738 Size 3 Length 00000008
4047868 ns: DDR_AXI_HOST4(GPU) ReadStart Address 03596740 to Address 03596778 Size 3 Length 00000008
4051594 ns: DDR_AXI_HOST4(GPU) ReadStart Address 03596900 to Address 03596938 Size 3 Length 00000008
4053435 ns: DDR_AXI_HOST4(GPU) ReadStart Address 03596940 to Address 03596978 Size 3 Length 00000008
4055012 ns: DDR_AXI_HOST4(GPU) ReadStart Address 03596b00 to Address 03596b38 Size 3 Length 00000008
4057574 ns: DDR_AXI_HOST4(GPU) ReadStart Address 03596b40 to Address 03596b78 Size 3 Length 00000008
4060037 ns: DDR_AXI_HOST4(GPU) ReadStart Address 03596d00 to Address 03596d38 Size 3 Length 00000008
4061888 ns: DDR_AXI_HOST4(GPU) ReadStart Address 03596d40 to Address 03596d78 Size 3 Length 00000008
4064519 ns: DDR_AXI_HOST4(GPU) ReadStart Address 03596f00 to Address 03596f38 Size 3 Length 00000008
4066913 ns: DDR_AXI_HOST4(GPU) ReadStart Address 03596f40 to Address 03596f78 Size 3 Length 00000008
4068579 ns: DDR_AXI_HOST4(GPU) ReadStart Address 0359a100 to Address 0359a138 Size 3 Length 00000008
4070967 ns: DDR_AXI_HOST4(GPU) ReadStart Address 0359a140 to Address 0359a178 Size 3 Length 00000008
4074206 ns: DDR_AXI_HOST4(GPU) ReadStart Address 0359a300 to Address 0359a338 Size 3 Length 00000008
4076480 ns: DDR_AXI_HOST4(GPU) ReadStart Address 0359a340 to Address 0359a378 Size 3 Length 00000008
4077778 ns: DDR_AXI_HOST4(GPU) ReadStart Address 0359a500 to Address 0359a538 Size 3 Length 00000008
4080535 ns: DDR_AXI_HOST4(GPU) ReadStart Address 0359a540 to Address 0359a578 Size 3 Length 00000008
4082858 ns: DDR_AXI_HOST4(GPU) ReadStart Address 0359a700 to Address 0359a738 Size 3 Length 00000008
4083898 ns: DDR_AXI_HOST4(GPU) ReadStart Address 0359a740 to Address 0359a778 Size 3 Length 00000008
4088191 ns: DDR_AXI_HOST4(GPU) ReadStart Address 0359a900 to Address 0359a938 Size 3 Length 00000008
4090584 ns: DDR_AXI_HOST4(GPU) ReadStart Address 0359a940 to Address 0359a978 Size 3 Length 00000008
4091554 ns: DDR_AXI_HOST4(GPU) ReadStart Address 0359ab00 to Address 0359ab38 Size 3 Length 00000008
4094022 ns: DDR_AXI_HOST4(GPU) ReadStart Address 0359ab40 to Address 0359ab78 Size 3 Length 00000008
4097987 ns: DDR_AXI_HOST4(GPU) ReadStart Address 0359ad00 to Address 0359ad38 Size 3 Length 00000008
4098002 ns: DDR_AXI_HOST4(GPU) ReadStart Address 0359ad40 to Address 0359ad78 Size 3 Length 00000008
4101122 ns: DDR_AXI_HOST4(GPU) ReadStart Address 0359af00 to Address 0359af38 Size 3 Length 00000008
4103997 ns: DDR_AXI_HOST4(GPU) ReadStart Address 0359af40 to Address 0359af78 Size 3 Length 00000008
4107117 ns: DDR_AXI_HOST4(GPU) ReadStart Address 0358e100 to Address 0358e138 Size 3 Length 00000008
4107236 ns: DDR_AXI_HOST4(GPU) ReadStart Address 0358e140 to Address 0358e178 Size 3 Length 00000008
4110684 ns: DDR_AXI_HOST4(GPU) ReadStart Address 0358e300 to Address 0358e338 Size 3 Length 00000008
4113445 ns: DDR_AXI_HOST4(GPU) ReadStart Address 0358e340 to Address 0358e378 Size 3 Length 00000008
4116316 ns: DDR_AXI_HOST4(GPU) ReadStart Address 0358e500 to Address 0358e538 Size 3 Length 00000008
4116804 ns: DDR_AXI_HOST4(GPU) ReadStart Address 0358e540 to Address 0358e578 Size 3 Length 00000008
4120042 ns: DDR_AXI_HOST4(GPU) ReadStart Address 0358e700 to Address 0358e738 Size 3 Length 00000008
4122818 ns: DDR_AXI_HOST4(GPU) ReadStart Address 0358e740 to Address 0358e778 Size 3 Length 00000008
4125828 ns: DDR_AXI_HOST4(GPU) ReadStart Address 0358e900 to Address 0358e938 Size 3 Length 00000008
4126366 ns: DDR_AXI_HOST4(GPU) ReadStart Address 0358e940 to Address 0358e978 Size 3 Length 00000008
4130092 ns: DDR_AXI_HOST4(GPU) ReadStart Address 0358eb00 to Address 0358eb38 Size 3 Length 00000008
4131953 ns: DDR_AXI_HOST4(GPU) ReadStart Address 0358eb40 to Address 0358eb78 Size 3 Length 00000008
4134147 ns: DDR_AXI_HOST4(GPU) ReadStart Address 0358ed00 to Address 0358ed38 Size 3 Length 00000008
4135948 ns: DDR_AXI_HOST4(GPU) ReadStart Address 0358ed40 to Address 0358ed78 Size 3 Length 00000008
4136540 ns: DDR_AXI_HOST4(GPU) ReadStart Address 0358ef00 to Address 0358ef38 Size 3 Length 00000008
4140266 ns: DDR_AXI_HOST4(GPU) ReadStart Address 0358ef40 to Address 0358ef78 Size 3 Length 00000008
4143525 ns: DDR_AXI_HOST4(GPU) ReadStart Address 03592100 to Address 03592138 Size 3 Length 00000008
4145411 ns: DDR_AXI_HOST4(GPU) ReadStart Address 03592140 to Address 03592178 Size 3 Length 00000008
4146590 ns: DDR_AXI_HOST4(GPU) ReadStart Address 03592300 to Address 03592338 Size 3 Length 00000008
4149465 ns: DDR_AXI_HOST4(GPU) ReadStart Address 03592340 to Address 03592378 Size 3 Length 00000008
4152704 ns: DDR_AXI_HOST4(GPU) ReadStart Address 03592500 to Address 03592538 Size 3 Length 00000008
4154978 ns: DDR_AXI_HOST4(GPU) ReadStart Address 03592540 to Address 03592578 Size 3 Length 00000008
4156172 ns: DDR_AXI_HOST4(GPU) ReadStart Address 03592700 to Address 03592738 Size 3 Length 00000008
4159033 ns: DDR_AXI_HOST4(GPU) ReadStart Address 03592740 to Address 03592778 Size 3 Length 00000008
4162271 ns: DDR_AXI_HOST4(GPU) ReadStart Address 03592900 to Address 03592938 Size 3 Length 00000008
4164058 ns: DDR_AXI_HOST4(GPU) ReadStart Address 03592940 to Address 03592978 Size 3 Length 00000008
4165510 ns: DDR_AXI_HOST4(GPU) ReadStart Address 03592b00 to Address 03592b38 Size 3 Length 00000008
4168774 ns: DDR_AXI_HOST4(GPU) ReadStart Address 03592b40 to Address 03592b78 Size 3 Length 00000008
4171839 ns: DDR_AXI_HOST4(GPU) ReadStart Address 03592d00 to Address 03592d38 Size 3 Length 00000008
4172809 ns: DDR_AXI_HOST4(GPU) ReadStart Address 03592d40 to Address 03592d78 Size 3 Length 00000008
4175078 ns: DDR_AXI_HOST4(GPU) ReadStart Address 03592f00 to Address 03592f38 Size 3 Length 00000008
4175565 ns: DDR_AXI_HOST4(GPU) ReadStart Address 03592f40 to Address 03592f78 Size 3 Length 00000008
4179620 ns: DDR_AXI_HOST4(GPU) ReadStart Address 03596100 to Address 03596138 Size 3 Length 00000008
4182008 ns: DDR_AXI_HOST4(GPU) ReadStart Address 03596140 to Address 03596178 Size 3 Length 00000008
4185252 ns: DDR_AXI_HOST4(GPU) ReadStart Address 03596300 to Address 03596338 Size 3 Length 00000008
4185734 ns: DDR_AXI_HOST4(GPU) ReadStart Address 03596340 to Address 03596378 Size 3 Length 00000008
4189670 ns: DDR_AXI_HOST4(GPU) ReadStart Address 03596500 to Address 03596538 Size 3 Length 00000008
4191953 ns: DDR_AXI_HOST4(GPU) ReadStart Address 03596540 to Address 03596578 Size 3 Length 00000008
4194695 ns: DDR_AXI_HOST4(GPU) ReadStart Address 03596700 to Address 03596738 Size 3 Length 00000008
4195302 ns: DDR_AXI_HOST4(GPU) ReadStart Address 03596740 to Address 03596778 Size 3 Length 00000008
4199237 ns: DDR_AXI_HOST4(GPU) ReadStart Address 03596900 to Address 03596938 Size 3 Length 00000008
4201307 ns: DDR_AXI_HOST4(GPU) ReadStart Address 03596940 to Address 03596978 Size 3 Length 00000008
4203565 ns: DDR_AXI_HOST4(GPU) ReadStart Address 03596b00 to Address 03596b38 Size 3 Length 00000008
4204864 ns: DDR_AXI_HOST4(GPU) ReadStart Address 03596b40 to Address 03596b78 Size 3 Length 00000008
4208590 ns: DDR_AXI_HOST4(GPU) ReadStart Address 03596d00 to Address 03596d38 Size 3 Length 00000008
4210456 ns: DDR_AXI_HOST4(GPU) ReadStart Address 03596d40 to Address 03596d78 Size 3 Length 00000008
4212162 ns: DDR_AXI_HOST4(GPU) ReadStart Address 03596f00 to Address 03596f38 Size 3 Length 00000008
4214431 ns: DDR_AXI_HOST4(GPU) ReadStart Address 03596f40 to Address 03596f78 Size 3 Length 00000008
4215038 ns: DDR_AXI_HOST4(GPU) ReadStart Address 0359a100 to Address 0359a138 Size 3 Length 00000008
4218401 ns: DDR_AXI_HOST4(GPU) ReadStart Address 0359a140 to Address 0359a178 Size 3 Length 00000008
4221864 ns: DDR_AXI_HOST4(GPU) ReadStart Address 0359a300 to Address 0359a338 Size 3 Length 00000008
4224401 ns: DDR_AXI_HOST4(GPU) ReadStart Address 0359a340 to Address 0359a378 Size 3 Length 00000008
4225088 ns: DDR_AXI_HOST4(GPU) ReadStart Address 0359a500 to Address 0359a538 Size 3 Length 00000008
4227964 ns: DDR_AXI_HOST4(GPU) ReadStart Address 0359a540 to Address 0359a578 Size 3 Length 00000008
4231202 ns: DDR_AXI_HOST4(GPU) ReadStart Address 0359a700 to Address 0359a738 Size 3 Length 00000008
4232988 ns: DDR_AXI_HOST4(GPU) ReadStart Address 0359a740 to Address 0359a778 Size 3 Length 00000008
4234655 ns: DDR_AXI_HOST4(GPU) ReadStart Address 0359a900 to Address 0359a938 Size 3 Length 00000008
4238013 ns: DDR_AXI_HOST4(GPU) ReadStart Address 0359a940 to Address 0359a978 Size 3 Length 00000008
4240287 ns: DDR_AXI_HOST4(GPU) ReadStart Address 0359ab00 to Address 0359ab38 Size 3 Length 00000008
4241377 ns: DDR_AXI_HOST4(GPU) ReadStart Address 0359ab40 to Address 0359ab78 Size 3 Length 00000008
4244008 ns: DDR_AXI_HOST4(GPU) ReadStart Address 0359ad00 to Address 0359ad38 Size 3 Length 00000008
4247581 ns: DDR_AXI_HOST4(GPU) ReadStart Address 0359ad40 to Address 0359ad78 Size 3 Length 00000008
4249033 ns: DDR_AXI_HOST4(GPU) ReadStart Address 0359af00 to Address 0359af38 Size 3 Length 00000008
4252188 ns: DDR_AXI_HOST4(GPU) ReadStart Address 0359af40 to Address 0359af78 Size 3 Length 00000008
5966052 ns: DDR_AXI_HOST4(GPU) ReadStart Address 0358f100 to Address 0358f138 Size 3 Length 00000008
5966863 ns: DDR_AXI_HOST4(GPU) ReadStart Address 0358f140 to Address 0358f178 Size 3 Length 00000008
5967470 ns: DDR_AXI_HOST4(GPU) ReadStart Address 0358f300 to Address 0358f338 Size 3 Length 00000008
5967953 ns: DDR_AXI_HOST4(GPU) ReadStart Address 0358f340 to Address 0358f378 Size 3 Length 00000008
5968769 ns: DDR_AXI_HOST4(GPU) ReadStart Address 0358f500 to Address 0358f538 Size 3 Length 00000008
5969256 ns: DDR_AXI_HOST4(GPU) ReadStart Address 0358f540 to Address 0358f578 Size 3 Length 00000008
5974281 ns: DDR_AXI_HOST4(GPU) ReadStart Address 0358f700 to Address 0358f738 Size 3 Length 00000008
5975251 ns: DDR_AXI_HOST4(GPU) ReadStart Address 0358f740 to Address 0358f778 Size 3 Length 00000008
5978669 ns: DDR_AXI_HOST4(GPU) ReadStart Address 0358f900 to Address 0358f938 Size 3 Length 00000008
5981226 ns: DDR_AXI_HOST4(GPU) ReadStart Address 0358f940 to Address 0358f978 Size 3 Length 00000008
5981818 ns: DDR_AXI_HOST4(GPU) ReadStart Address 0358fb00 to Address 0358fb38 Size 3 Length 00000008
5982818 ns: DDR_AXI_HOST4(GPU) ReadStart Address 0358fb40 to Address 0358fb78 Size 3 Length 00000008
5983724 ns: DDR_AXI_HOST4(GPU) ReadStart Address 0358fd00 to Address 0358fd38 Size 3 Length 00000008
5987450 ns: DDR_AXI_HOST4(GPU) ReadStart Address 0358fd40 to Address 0358fd78 Size 3 Length 00000008
5989112 ns: DDR_AXI_HOST4(GPU) ReadStart Address 0358ff00 to Address 0358ff38 Size 3 Length 00000008
5990082 ns: DDR_AXI_HOST4(GPU) ReadStart Address 0358ff40 to Address 0358ff78 Size 3 Length 00000008
5991381 ns: DDR_AXI_HOST4(GPU) ReadStart Address 03593100 to Address 03593138 Size 3 Length 00000008
5992112 ns: DDR_AXI_HOST4(GPU) ReadStart Address 03593140 to Address 03593178 Size 3 Length 00000008
5996425 ns: DDR_AXI_HOST4(GPU) ReadStart Address 03593300 to Address 03593338 Size 3 Length 00000008
5996530 ns: DDR_AXI_HOST4(GPU) ReadStart Address 03593340 to Address 03593378 Size 3 Length 00000008
5998107 ns: DDR_AXI_HOST4(GPU) ReadStart Address 03593500 to Address 03593538 Size 3 Length 00000008
6001420 ns: DDR_AXI_HOST4(GPU) ReadStart Address 03593540 to Address 03593578 Size 3 Length 00000008
6003963 ns: DDR_AXI_HOST4(GPU) ReadStart Address 03593700 to Address 03593738 Size 3 Length 00000008
6004550 ns: DDR_AXI_HOST4(GPU) ReadStart Address 03593740 to Address 03593778 Size 3 Length 00000008
6005644 ns: DDR_AXI_HOST4(GPU) ReadStart Address 03593900 to Address 03593938 Size 3 Length 00000008
6006510 ns: DDR_AXI_HOST4(GPU) ReadStart Address 03593940 to Address 03593978 Size 3 Length 00000008
6010182 ns: DDR_AXI_HOST4(GPU) ReadStart Address 03593b00 to Address 03593b38 Size 3 Length 00000008
6011550 ns: DDR_AXI_HOST4(GPU) ReadStart Address 03593b40 to Address 03593b78 Size 3 Length 00000008
6012092 ns: DDR_AXI_HOST4(GPU) ReadStart Address 03593d00 to Address 03593d38 Size 3 Length 00000008
6014480 ns: DDR_AXI_HOST4(GPU) ReadStart Address 03593d40 to Address 03593d78 Size 3 Length 00000008
6019112 ns: DDR_AXI_HOST4(GPU) ReadStart Address 03593f00 to Address 03593f38 Size 3 Length 00000008
6019386 ns: DDR_AXI_HOST4(GPU) ReadStart Address 03593f40 to Address 03593f78 Size 3 Length 00000008
6024898 ns: DDR_AXI_HOST4(GPU) ReadStart Address 03597100 to Address 03597138 Size 3 Length 00000008
6027774 ns: DDR_AXI_HOST4(GPU) ReadStart Address 03597140 to Address 03597178 Size 3 Length 00000008
6031013 ns: DDR_AXI_HOST4(GPU) ReadStart Address 03597300 to Address 03597338 Size 3 Length 00000008
6032192 ns: DDR_AXI_HOST4(GPU) ReadStart Address 03597340 to Address 03597378 Size 3 Length 00000008
6032918 ns: DDR_AXI_HOST4(GPU) ReadStart Address 03597500 to Address 03597538 Size 3 Length 00000008
6035675 ns: DDR_AXI_HOST4(GPU) ReadStart Address 03597540 to Address 03597578 Size 3 Length 00000008
6039764 ns: DDR_AXI_HOST4(GPU) ReadStart Address 03597700 to Address 03597738 Size 3 Length 00000008
6041998 ns: DDR_AXI_HOST4(GPU) ReadStart Address 03597740 to Address 03597778 Size 3 Length 00000008
6042968 ns: DDR_AXI_HOST4(GPU) ReadStart Address 03597900 to Address 03597938 Size 3 Length 00000008
6045844 ns: DDR_AXI_HOST4(GPU) ReadStart Address 03597940 to Address 03597978 Size 3 Length 00000008
6049471 ns: DDR_AXI_HOST4(GPU) ReadStart Address 03597b00 to Address 03597b38 Size 3 Length 00000008
6050267 ns: DDR_AXI_HOST4(GPU) ReadStart Address 03597b40 to Address 03597b78 Size 3 Length 00000008
6052535 ns: DDR_AXI_HOST4(GPU) ReadStart Address 03597d00 to Address 03597d38 Size 3 Length 00000008
6055894 ns: DDR_AXI_HOST4(GPU) ReadStart Address 03597d40 to Address 03597d78 Size 3 Length 00000008
6057560 ns: DDR_AXI_HOST4(GPU) ReadStart Address 03597f00 to Address 03597f38 Size 3 Length 00000008
6058774 ns: DDR_AXI_HOST4(GPU) ReadStart Address 03597f40 to Address 03597f78 Size 3 Length 00000008
6063073 ns: DDR_AXI_HOST4(GPU) ReadStart Address 0359b100 to Address 0359b138 Size 3 Length 00000008
6065461 ns: DDR_AXI_HOST4(GPU) ReadStart Address 0359b140 to Address 0359b178 Size 3 Length 00000008
6066431 ns: DDR_AXI_HOST4(GPU) ReadStart Address 0359b300 to Address 0359b338 Size 3 Length 00000008
6068695 ns: DDR_AXI_HOST4(GPU) ReadStart Address 0359b340 to Address 0359b378 Size 3 Length 00000008
6072635 ns: DDR_AXI_HOST4(GPU) ReadStart Address 0359b500 to Address 0359b538 Size 3 Length 00000008
6072759 ns: DDR_AXI_HOST4(GPU) ReadStart Address 0359b540 to Address 0359b578 Size 3 Length 00000008
6075998 ns: DDR_AXI_HOST4(GPU) ReadStart Address 0359b700 to Address 0359b738 Size 3 Length 00000008
6078550 ns: DDR_AXI_HOST4(GPU) ReadStart Address 0359b740 to Address 0359b778 Size 3 Length 00000008
6081630 ns: DDR_AXI_HOST4(GPU) ReadStart Address 0359b900 to Address 0359b938 Size 3 Length 00000008
6082337 ns: DDR_AXI_HOST4(GPU) ReadStart Address 0359b940 to Address 0359b978 Size 3 Length 00000008
6086048 ns: DDR_AXI_HOST4(GPU) ReadStart Address 0359bb00 to Address 0359bb38 Size 3 Length 00000008
6087954 ns: DDR_AXI_HOST4(GPU) ReadStart Address 0359bb40 to Address 0359bb78 Size 3 Length 00000008
6089899 ns: DDR_AXI_HOST4(GPU) ReadStart Address 0359bd00 to Address 0359bd38 Size 3 Length 00000008
6091317 ns: DDR_AXI_HOST4(GPU) ReadStart Address 0359bd40 to Address 0359bd78 Size 3 Length 00000008
6095735 ns: DDR_AXI_HOST4(GPU) ReadStart Address 0359bf00 to Address 0359bf38 Size 3 Length 00000008
6098003 ns: DDR_AXI_HOST4(GPU) ReadStart Address 0359bf40 to Address 0359bf78 Size 3 Length 00000008
6100003 ns: DDR_AXI_HOST4(GPU) ReadStart Address 0358f100 to Address 0358f138 Size 3 Length 00000008
6100760 ns: DDR_AXI_HOST4(GPU) ReadStart Address 0358f140 to Address 0358f178 Size 3 Length 00000008
6105028 ns: DDR_AXI_HOST4(GPU) ReadStart Address 0358f300 to Address 0358f338 Size 3 Length 00000008
6106392 ns: DDR_AXI_HOST4(GPU) ReadStart Address 0358f340 to Address 0358f378 Size 3 Length 00000008
6108541 ns: DDR_AXI_HOST4(GPU) ReadStart Address 0358f500 to Address 0358f538 Size 3 Length 00000008
6110327 ns: DDR_AXI_HOST4(GPU) ReadStart Address 0358f540 to Address 0358f578 Size 3 Length 00000008
6110934 ns: DDR_AXI_HOST4(GPU) ReadStart Address 0358f700 to Address 0358f738 Size 3 Length 00000008
6115148 ns: DDR_AXI_HOST4(GPU) ReadStart Address 0358f740 to Address 0358f778 Size 3 Length 00000008
6117760 ns: DDR_AXI_HOST4(GPU) ReadStart Address 0358f900 to Address 0358f938 Size 3 Length 00000008
6120242 ns: DDR_AXI_HOST4(GPU) ReadStart Address 0358f940 to Address 0358f978 Size 3 Length 00000008
6120984 ns: DDR_AXI_HOST4(GPU) ReadStart Address 0358fb00 to Address 0358fb38 Size 3 Length 00000008
6123859 ns: DDR_AXI_HOST4(GPU) ReadStart Address 0358fb40 to Address 0358fb78 Size 3 Length 00000008
6127098 ns: DDR_AXI_HOST4(GPU) ReadStart Address 0358fd00 to Address 0358fd38 Size 3 Length 00000008
6129367 ns: DDR_AXI_HOST4(GPU) ReadStart Address 0358fd40 to Address 0358fd78 Size 3 Length 00000008
6130546 ns: DDR_AXI_HOST4(GPU) ReadStart Address 0358ff00 to Address 0358ff38 Size 3 Length 00000008
6133427 ns: DDR_AXI_HOST4(GPU) ReadStart Address 0358ff40 to Address 0358ff78 Size 3 Length 00000008
6136665 ns: DDR_AXI_HOST4(GPU) ReadStart Address 03593100 to Address 03593138 Size 3 Length 00000008
6138452 ns: DDR_AXI_HOST4(GPU) ReadStart Address 03593140 to Address 03593178 Size 3 Length 00000008
6140446 ns: DDR_AXI_HOST4(GPU) ReadStart Address 03593300 to Address 03593338 Size 3 Length 00000008
6143476 ns: DDR_AXI_HOST4(GPU) ReadStart Address 03593340 to Address 03593378 Size 3 Length 00000008
6145825 ns: DDR_AXI_HOST4(GPU) ReadStart Address 03593500 to Address 03593538 Size 3 Length 00000008
6147322 ns: DDR_AXI_HOST4(GPU) ReadStart Address 03593540 to Address 03593578 Size 3 Length 00000008
6149471 ns: DDR_AXI_HOST4(GPU) ReadStart Address 03593700 to Address 03593738 Size 3 Length 00000008
6150651 ns: DDR_AXI_HOST4(GPU) ReadStart Address 03593740 to Address 03593778 Size 3 Length 00000008
6154009 ns: DDR_AXI_HOST4(GPU) ReadStart Address 03593900 to Address 03593938 Size 3 Length 00000008
6156725 ns: DDR_AXI_HOST4(GPU) ReadStart Address 03593940 to Address 03593978 Size 3 Length 00000008
6159641 ns: DDR_AXI_HOST4(GPU) ReadStart Address 03593b00 to Address 03593b38 Size 3 Length 00000008
6160671 ns: DDR_AXI_HOST4(GPU) ReadStart Address 03593b40 to Address 03593b78 Size 3 Length 00000008
6164059 ns: DDR_AXI_HOST4(GPU) ReadStart Address 03593d00 to Address 03593d38 Size 3 Length 00000008
6166342 ns: DDR_AXI_HOST4(GPU) ReadStart Address 03593d40 to Address 03593d78 Size 3 Length 00000008
6169089 ns: DDR_AXI_HOST4(GPU) ReadStart Address 03593f00 to Address 03593f38 Size 3 Length 00000008
6169691 ns: DDR_AXI_HOST4(GPU) ReadStart Address 03593f40 to Address 03593f78 Size 3 Length 00000008
6173626 ns: DDR_AXI_HOST4(GPU) ReadStart Address 03597100 to Address 03597138 Size 3 Length 00000008
6175815 ns: DDR_AXI_HOST4(GPU) ReadStart Address 03597140 to Address 03597178 Size 3 Length 00000008
6178397 ns: DDR_AXI_HOST4(GPU) ReadStart Address 03597300 to Address 03597338 Size 3 Length 00000008
6179258 ns: DDR_AXI_HOST4(GPU) ReadStart Address 03597340 to Address 03597378 Size 3 Length 00000008
6183422 ns: DDR_AXI_HOST4(GPU) ReadStart Address 03597500 to Address 03597538 Size 3 Length 00000008
6184825 ns: DDR_AXI_HOST4(GPU) ReadStart Address 03597540 to Address 03597578 Size 3 Length 00000008
6187039 ns: DDR_AXI_HOST4(GPU) ReadStart Address 03597700 to Address 03597738 Size 3 Length 00000008
6188825 ns: DDR_AXI_HOST4(GPU) ReadStart Address 03597740 to Address 03597778 Size 3 Length 00000008
6189432 ns: DDR_AXI_HOST4(GPU) ReadStart Address 03597900 to Address 03597938 Size 3 Length 00000008
6193536 ns: DDR_AXI_HOST4(GPU) ReadStart Address 03597940 to Address 03597978 Size 3 Length 00000008
6196243 ns: DDR_AXI_HOST4(GPU) ReadStart Address 03597b00 to Address 03597b38 Size 3 Length 00000008
6198631 ns: DDR_AXI_HOST4(GPU) ReadStart Address 03597b40 to Address 03597b78 Size 3 Length 00000008
6199482 ns: DDR_AXI_HOST4(GPU) ReadStart Address 03597d00 to Address 03597d38 Size 3 Length 00000008
6202357 ns: DDR_AXI_HOST4(GPU) ReadStart Address 03597d40 to Address 03597d78 Size 3 Length 00000008
6204989 ns: DDR_AXI_HOST4(GPU) ReadStart Address 03597f00 to Address 03597f38 Size 3 Length 00000008
6206895 ns: DDR_AXI_HOST4(GPU) ReadStart Address 03597f40 to Address 03597f78 Size 3 Length 00000008
6209532 ns: DDR_AXI_HOST4(GPU) ReadStart Address 0359b100 to Address 0359b138 Size 3 Length 00000008
6212407 ns: DDR_AXI_HOST4(GPU) ReadStart Address 0359b140 to Address 0359b178 Size 3 Length 00000008
6215258 ns: DDR_AXI_HOST4(GPU) ReadStart Address 0359b300 to Address 0359b338 Size 3 Length 00000008
6216462 ns: DDR_AXI_HOST4(GPU) ReadStart Address 0359b340 to Address 0359b378 Size 3 Length 00000008
6218840 ns: DDR_AXI_HOST4(GPU) ReadStart Address 0359b500 to Address 0359b538 Size 3 Length 00000008
6221975 ns: DDR_AXI_HOST4(GPU) ReadStart Address 0359b540 to Address 0359b578 Size 3 Length 00000008
6222945 ns: DDR_AXI_HOST4(GPU) ReadStart Address 0359b700 to Address 0359b738 Size 3 Length 00000008
6224850 ns: DDR_AXI_HOST4(GPU) ReadStart Address 0359b740 to Address 0359b778 Size 3 Length 00000008
6229149 ns: DDR_AXI_HOST4(GPU) ReadStart Address 0359b900 to Address 0359b938 Size 3 Length 00000008
6229268 ns: DDR_AXI_HOST4(GPU) ReadStart Address 0359b940 to Address 0359b978 Size 3 Length 00000008
6232507 ns: DDR_AXI_HOST4(GPU) ReadStart Address 0359bb00 to Address 0359bb38 Size 3 Length 00000008
6235029 ns: DDR_AXI_HOST4(GPU) ReadStart Address 0359bb40 to Address 0359bb78 Size 3 Length 00000008
6238139 ns: DDR_AXI_HOST4(GPU) ReadStart Address 0359bd00 to Address 0359bd38 Size 3 Length 00000008
6239059 ns: DDR_AXI_HOST4(GPU) ReadStart Address 0359bd40 to Address 0359bd78 Size 3 Length 00000008
6242557 ns: DDR_AXI_HOST4(GPU) ReadStart Address 0359bf00 to Address 0359bf38 Size 3 Length 00000008
6244602 ns: DDR_AXI_HOST4(GPU) ReadStart Address 0359bf40 to Address 0359bf78 Size 3 Length 00000008
