0
1940
5841
4209
3572
6115
4418
5029
2876
5025
5025
4055
6114
2756
5513
4537
4055
5995
3801
5766
3364
6049
4000
4538
1910
6597
3453
6114
3732
5836
3238
6812
2756
6607
3925
4543
5024
4229
5095
3602
5149
4901
3363
3209
6478
3622
5945
3239
6328
3239
5025
5507
3587
5617
4488
4383
4906
3572
2875
6986
3064
6115
3467
6617
2239
6339
3223
6120
3448
5512
4388
4483
5637
3925
5025
5025
4060
2184
7622
2482
5841
3184
5145
4905
4537
5025
4543
5512
4279
5283
3364
5507
2881
5144
3448
7313
