14814974 ns: DDR_AXI_HOST4(GPU) ReadStart Address 035b7100 to Address 035b7138 Size 3 Length 00000008
14818392 ns: DDR_AXI_HOST4(GPU) ReadStart Address 035b7140 to Address 035b7178 Size 3 Length 00000008
14819516 ns: DDR_AXI_HOST4(GPU) ReadStart Address 035b7300 to Address 035b7338 Size 3 Length 00000008
14821904 ns: DDR_AXI_HOST4(GPU) ReadStart Address 035b7340 to Address 035b7378 Size 3 Length 00000008
14825148 ns: DDR_AXI_HOST4(GPU) ReadStart Address 035b7500 to Address 035b7538 Size 3 Length 00000008
14827416 ns: DDR_AXI_HOST4(GPU) ReadStart Address 035b7540 to Address 035b7578 Size 3 Length 00000008
14828596 ns: DDR_AXI_HOST4(GPU) ReadStart Address 035b7700 to Address 035b7738 Size 3 Length 00000008
14831471 ns: DDR_AXI_HOST4(GPU) ReadStart Address 035b7740 to Address 035b7778 Size 3 Length 00000008
14833620 ns: DDR_AXI_HOST4(GPU) ReadStart Address 035b7900 to Address 035b7938 Size 3 Length 00000008
14834834 ns: DDR_AXI_HOST4(GPU) ReadStart Address 035b7940 to Address 035b7978 Size 3 Length 00000008
14838660 ns: DDR_AXI_HOST4(GPU) ReadStart Address 035b7b00 to Address 035b7b38 Size 3 Length 00000008
14839252 ns: DDR_AXI_HOST4(GPU) ReadStart Address 035b7b40 to Address 035b7b78 Size 3 Length 00000008
14842979 ns: DDR_AXI_HOST4(GPU) ReadStart Address 035b7d00 to Address 035b7d38 Size 3 Length 00000008
14845228 ns: DDR_AXI_HOST4(GPU) ReadStart Address 035b7d40 to Address 035b7d78 Size 3 Length 00000008
14848123 ns: DDR_AXI_HOST4(GPU) ReadStart Address 035b7f00 to Address 035b7f38 Size 3 Length 00000008
14848820 ns: DDR_AXI_HOST4(GPU) ReadStart Address 035b7f40 to Address 035b7f78 Size 3 Length 00000008
14852541 ns: DDR_AXI_HOST4(GPU) ReadStart Address 035bb100 to Address 035bb138 Size 3 Length 00000008
14854825 ns: DDR_AXI_HOST4(GPU) ReadStart Address 035bb140 to Address 035bb178 Size 3 Length 00000008
14857566 ns: DDR_AXI_HOST4(GPU) ReadStart Address 035bb300 to Address 035bb338 Size 3 Length 00000008
14858173 ns: DDR_AXI_HOST4(GPU) ReadStart Address 035bb340 to Address 035bb378 Size 3 Length 00000008
14862108 ns: DDR_AXI_HOST4(GPU) ReadStart Address 035bb500 to Address 035bb538 Size 3 Length 00000008
14864198 ns: DDR_AXI_HOST4(GPU) ReadStart Address 035bb540 to Address 035bb578 Size 3 Length 00000008
14866392 ns: DDR_AXI_HOST4(GPU) ReadStart Address 035bb700 to Address 035bb738 Size 3 Length 00000008
14867740 ns: DDR_AXI_HOST4(GPU) ReadStart Address 035bb740 to Address 035bb778 Size 3 Length 00000008
14871676 ns: DDR_AXI_HOST4(GPU) ReadStart Address 035bb900 to Address 035bb938 Size 3 Length 00000008
14873531 ns: DDR_AXI_HOST4(GPU) ReadStart Address 035bb940 to Address 035bb978 Size 3 Length 00000008
14874551 ns: DDR_AXI_HOST4(GPU) ReadStart Address 035bbb00 to Address 035bbb38 Size 3 Length 00000008
14877427 ns: DDR_AXI_HOST4(GPU) ReadStart Address 035bbb40 to Address 035bbb78 Size 3 Length 00000008
14879576 ns: DDR_AXI_HOST4(GPU) ReadStart Address 035bbd00 to Address 035bbd38 Size 3 Length 00000008
14882452 ns: DDR_AXI_HOST4(GPU) ReadStart Address 035bbd40 to Address 035bbd78 Size 3 Length 00000008
14884601 ns: DDR_AXI_HOST4(GPU) ReadStart Address 035bbf00 to Address 035bbf38 Size 3 Length 00000008
14886994 ns: DDR_AXI_HOST4(GPU) ReadStart Address 035bbf40 to Address 035bbf78 Size 3 Length 00000008
14888447 ns: DDR_AXI_HOST4(GPU) ReadStart Address 035bf100 to Address 035bf138 Size 3 Length 00000008
14890840 ns: DDR_AXI_HOST4(GPU) ReadStart Address 035bf140 to Address 035bf178 Size 3 Length 00000008
14894288 ns: DDR_AXI_HOST4(GPU) ReadStart Address 035bf300 to Address 035bf338 Size 3 Length 00000008
14896730 ns: DDR_AXI_HOST4(GPU) ReadStart Address 035bf340 to Address 035bf378 Size 3 Length 00000008
14897527 ns: DDR_AXI_HOST4(GPU) ReadStart Address 035bf500 to Address 035bf538 Size 3 Length 00000008
14900402 ns: DDR_AXI_HOST4(GPU) ReadStart Address 035bf540 to Address 035bf578 Size 3 Length 00000008
14903158 ns: DDR_AXI_HOST4(GPU) ReadStart Address 035bf700 to Address 035bf738 Size 3 Length 00000008
14904457 ns: DDR_AXI_HOST4(GPU) ReadStart Address 035bf740 to Address 035bf778 Size 3 Length 00000008
14907094 ns: DDR_AXI_HOST4(GPU) ReadStart Address 035bf900 to Address 035bf938 Size 3 Length 00000008
14910452 ns: DDR_AXI_HOST4(GPU) ReadStart Address 035bf940 to Address 035bf978 Size 3 Length 00000008
14911915 ns: DDR_AXI_HOST4(GPU) ReadStart Address 035bfb00 to Address 035bfb38 Size 3 Length 00000008
14913915 ns: DDR_AXI_HOST4(GPU) ReadStart Address 035bfb40 to Address 035bfb78 Size 3 Length 00000008
14917626 ns: DDR_AXI_HOST4(GPU) ReadStart Address 035bfd00 to Address 035bfd38 Size 3 Length 00000008
14917751 ns: DDR_AXI_HOST4(GPU) ReadStart Address 035bfd40 to Address 035bfd78 Size 3 Length 00000008
14920989 ns: DDR_AXI_HOST4(GPU) ReadStart Address 035bff00 to Address 035bff38 Size 3 Length 00000008
14923512 ns: DDR_AXI_HOST4(GPU) ReadStart Address 035bff40 to Address 035bff78 Size 3 Length 00000008
14927059 ns: DDR_AXI_HOST4(GPU) ReadStart Address 035c3100 to Address 035c3138 Size 3 Length 00000008
14927318 ns: DDR_AXI_HOST4(GPU) ReadStart Address 035c3140 to Address 035c3178 Size 3 Length 00000008
14931039 ns: DDR_AXI_HOST4(GPU) ReadStart Address 035c3300 to Address 035c3338 Size 3 Length 00000008
14933129 ns: DDR_AXI_HOST4(GPU) ReadStart Address 035c3340 to Address 035c3378 Size 3 Length 00000008
14936064 ns: DDR_AXI_HOST4(GPU) ReadStart Address 035c3500 to Address 035c3538 Size 3 Length 00000008
14937164 ns: DDR_AXI_HOST4(GPU) ReadStart Address 035c3540 to Address 035c3578 Size 3 Length 00000008
14940606 ns: DDR_AXI_HOST4(GPU) ReadStart Address 035c3700 to Address 035c3738 Size 3 Length 00000008
14942462 ns: DDR_AXI_HOST4(GPU) ReadStart Address 035c3740 to Address 035c3778 Size 3 Length 00000008
14944781 ns: DDR_AXI_HOST4(GPU) ReadStart Address 035c3900 to Address 035c3938 Size 3 Length 00000008
14946238 ns: DDR_AXI_HOST4(GPU) ReadStart Address 035c3940 to Address 035c3978 Size 3 Length 00000008
14947278 ns: DDR_AXI_HOST4(GPU) ReadStart Address 035c3b00 to Address 035c3b38 Size 3 Length 00000008
14950776 ns: DDR_AXI_HOST4(GPU) ReadStart Address 035c3b40 to Address 035c3b78 Size 3 Length 00000008
14953656 ns: DDR_AXI_HOST4(GPU) ReadStart Address 035c3d00 to Address 035c3d38 Size 3 Length 00000008
14956408 ns: DDR_AXI_HOST4(GPU) ReadStart Address 035c3d40 to Address 035c3d78 Size 3 Length 00000008
14957587 ns: DDR_AXI_HOST4(GPU) ReadStart Address 035c3f00 to Address 035c3f38 Size 3 Length 00000008
14960462 ns: DDR_AXI_HOST4(GPU) ReadStart Address 035c3f40 to Address 035c3f78 Size 3 Length 00000008
16682605 ns: DDR_AXI_HOST4(GPU) ReadStart Address 035dc100 to Address 035dc138 Size 3 Length 00000008
16683879 ns: DDR_AXI_HOST4(GPU) ReadStart Address 035dc140 to Address 035dc178 Size 3 Length 00000008
16688237 ns: DDR_AXI_HOST4(GPU) ReadStart Address 035dc300 to Address 035dc338 Size 3 Length 00000008
16689004 ns: DDR_AXI_HOST4(GPU) ReadStart Address 035dc340 to Address 035dc378 Size 3 Length 00000008
16690023 ns: DDR_AXI_HOST4(GPU) ReadStart Address 035dc500 to Address 035dc538 Size 3 Length 00000008
16691486 ns: DDR_AXI_HOST4(GPU) ReadStart Address 035dc540 to Address 035dc578 Size 3 Length 00000008
16693262 ns: DDR_AXI_HOST4(GPU) ReadStart Address 035dc700 to Address 035dc738 Size 3 Length 00000008
16694566 ns: DDR_AXI_HOST4(GPU) ReadStart Address 035dc740 to Address 035dc778 Size 3 Length 00000008
16696834 ns: DDR_AXI_HOST4(GPU) ReadStart Address 035dc900 to Address 035dc938 Size 3 Length 00000008
16697322 ns: DDR_AXI_HOST4(GPU) ReadStart Address 035dc940 to Address 035dc978 Size 3 Length 00000008
16698412 ns: DDR_AXI_HOST4(GPU) ReadStart Address 035dcb00 to Address 035dcb38 Size 3 Length 00000008
16699118 ns: DDR_AXI_HOST4(GPU) ReadStart Address 035dcb40 to Address 035dcb78 Size 3 Length 00000008
16702466 ns: DDR_AXI_HOST4(GPU) ReadStart Address 035dcd00 to Address 035dcd38 Size 3 Length 00000008
16704098 ns: DDR_AXI_HOST4(GPU) ReadStart Address 035dcd40 to Address 035dcd78 Size 3 Length 00000008
16704372 ns: DDR_AXI_HOST4(GPU) ReadStart Address 035dcf00 to Address 035dcf38 Size 3 Length 00000008
16707247 ns: DDR_AXI_HOST4(GPU) ReadStart Address 035dcf40 to Address 035dcf78 Size 3 Length 00000008
16709884 ns: DDR_AXI_HOST4(GPU) ReadStart Address 035e0100 to Address 035e0138 Size 3 Length 00000008
16710611 ns: DDR_AXI_HOST4(GPU) ReadStart Address 035e0140 to Address 035e0178 Size 3 Length 00000008
16711705 ns: DDR_AXI_HOST4(GPU) ReadStart Address 035e0300 to Address 035e0338 Size 3 Length 00000008
16715272 ns: DDR_AXI_HOST4(GPU) ReadStart Address 035e0340 to Address 035e0378 Size 3 Length 00000008
16717422 ns: DDR_AXI_HOST4(GPU) ReadStart Address 035e0500 to Address 035e0538 Size 3 Length 00000008
16717541 ns: DDR_AXI_HOST4(GPU) ReadStart Address 035e0540 to Address 035e0578 Size 3 Length 00000008
16718631 ns: DDR_AXI_HOST4(GPU) ReadStart Address 035e0700 to Address 035e0738 Size 3 Length 00000008
16722566 ns: DDR_AXI_HOST4(GPU) ReadStart Address 035e0740 to Address 035e0778 Size 3 Length 00000008
16723661 ns: DDR_AXI_HOST4(GPU) ReadStart Address 035e0900 to Address 035e0938 Size 3 Length 00000008
16724959 ns: DDR_AXI_HOST4(GPU) ReadStart Address 035e0940 to Address 035e0978 Size 3 Length 00000008
16727228 ns: DDR_AXI_HOST4(GPU) ReadStart Address 035e0b00 to Address 035e0b38 Size 3 Length 00000008
16728198 ns: DDR_AXI_HOST4(GPU) ReadStart Address 035e0b40 to Address 035e0b78 Size 3 Length 00000008
16730954 ns: DDR_AXI_HOST4(GPU) ReadStart Address 035e0d00 to Address 035e0d38 Size 3 Length 00000008
16732377 ns: DDR_AXI_HOST4(GPU) ReadStart Address 035e0d40 to Address 035e0d78 Size 3 Length 00000008
16733467 ns: DDR_AXI_HOST4(GPU) ReadStart Address 035e0f00 to Address 035e0f38 Size 3 Length 00000008
16735372 ns: DDR_AXI_HOST4(GPU) ReadStart Address 035e0f40 to Address 035e0f78 Size 3 Length 00000008
16739536 ns: DDR_AXI_HOST4(GPU) ReadStart Address 035e4100 to Address 035e4138 Size 3 Length 00000008
16740278 ns: DDR_AXI_HOST4(GPU) ReadStart Address 035e4140 to Address 035e4178 Size 3 Length 00000008
16745909 ns: DDR_AXI_HOST4(GPU) ReadStart Address 035e4300 to Address 035e4338 Size 3 Length 00000008
16749964 ns: DDR_AXI_HOST4(GPU) ReadStart Address 035e4340 to Address 035e4378 Size 3 Length 00000008
16751417 ns: DDR_AXI_HOST4(GPU) ReadStart Address 035e4500 to Address 035e4538 Size 3 Length 00000008
16752720 ns: DDR_AXI_HOST4(GPU) ReadStart Address 035e4540 to Address 035e4578 Size 3 Length 00000008
16757208 ns: DDR_AXI_HOST4(GPU) ReadStart Address 035e4700 to Address 035e4738 Size 3 Length 00000008
16758835 ns: DDR_AXI_HOST4(GPU) ReadStart Address 035e4740 to Address 035e4778 Size 3 Length 00000008
16760502 ns: DDR_AXI_HOST4(GPU) ReadStart Address 035e4900 to Address 035e4938 Size 3 Length 00000008
16762298 ns: DDR_AXI_HOST4(GPU) ReadStart Address 035e4940 to Address 035e4978 Size 3 Length 00000008
16766616 ns: DDR_AXI_HOST4(GPU) ReadStart Address 035e4b00 to Address 035e4b38 Size 3 Length 00000008
16767795 ns: DDR_AXI_HOST4(GPU) ReadStart Address 035e4b40 to Address 035e4b78 Size 3 Length 00000008
16769860 ns: DDR_AXI_HOST4(GPU) ReadStart Address 035e4d00 to Address 035e4d38 Size 3 Length 00000008
16771760 ns: DDR_AXI_HOST4(GPU) ReadStart Address 035e4d40 to Address 035e4d78 Size 3 Length 00000008
16773910 ns: DDR_AXI_HOST4(GPU) ReadStart Address 035e4f00 to Address 035e4f38 Size 3 Length 00000008
16776785 ns: DDR_AXI_HOST4(GPU) ReadStart Address 035e4f40 to Address 035e4f78 Size 3 Length 00000008
16779979 ns: DDR_AXI_HOST4(GPU) ReadStart Address 035e8100 to Address 035e8138 Size 3 Length 00000008
16781611 ns: DDR_AXI_HOST4(GPU) ReadStart Address 035e8140 to Address 035e8178 Size 3 Length 00000008
16783477 ns: DDR_AXI_HOST4(GPU) ReadStart Address 035e8300 to Address 035e8338 Size 3 Length 00000008
16786353 ns: DDR_AXI_HOST4(GPU) ReadStart Address 035e8340 to Address 035e8378 Size 3 Length 00000008
16788502 ns: DDR_AXI_HOST4(GPU) ReadStart Address 035e8500 to Address 035e8538 Size 3 Length 00000008
16790945 ns: DDR_AXI_HOST4(GPU) ReadStart Address 035e8540 to Address 035e8578 Size 3 Length 00000008
16792626 ns: DDR_AXI_HOST4(GPU) ReadStart Address 035e8700 to Address 035e8738 Size 3 Length 00000008
16796402 ns: DDR_AXI_HOST4(GPU) ReadStart Address 035e8740 to Address 035e8778 Size 3 Length 00000008
16798676 ns: DDR_AXI_HOST4(GPU) ReadStart Address 035e8900 to Address 035e8938 Size 3 Length 00000008
16800203 ns: DDR_AXI_HOST4(GPU) ReadStart Address 035e8940 to Address 035e8978 Size 3 Length 00000008
16801427 ns: DDR_AXI_HOST4(GPU) ReadStart Address 035e8b00 to Address 035e8b38 Size 3 Length 00000008
16805487 ns: DDR_AXI_HOST4(GPU) ReadStart Address 035e8b40 to Address 035e8b78 Size 3 Length 00000008
16807756 ns: DDR_AXI_HOST4(GPU) ReadStart Address 035e8d00 to Address 035e8d38 Size 3 Length 00000008
16808363 ns: DDR_AXI_HOST4(GPU) ReadStart Address 035e8d40 to Address 035e8d78 Size 3 Length 00000008
16811965 ns: DDR_AXI_HOST4(GPU) ReadStart Address 035e8f00 to Address 035e8f38 Size 3 Length 00000008
16812850 ns: DDR_AXI_HOST4(GPU) ReadStart Address 035e8f40 to Address 035e8f78 Size 3 Length 00000008
16816990 ns: DDR_AXI_HOST4(GPU) ReadStart Address 035dc100 to Address 035dc138 Size 3 Length 00000008
16817875 ns: DDR_AXI_HOST4(GPU) ReadStart Address 035dc140 to Address 035dc178 Size 3 Length 00000008
16821532 ns: DDR_AXI_HOST4(GPU) ReadStart Address 035dc300 to Address 035dc338 Size 3 Length 00000008
16821651 ns: DDR_AXI_HOST4(GPU) ReadStart Address 035dc340 to Address 035dc378 Size 3 Length 00000008
16825587 ns: DDR_AXI_HOST4(GPU) ReadStart Address 035dc500 to Address 035dc538 Size 3 Length 00000008
16829432 ns: DDR_AXI_HOST4(GPU) ReadStart Address 035dc540 to Address 035dc578 Size 3 Length 00000008
16830731 ns: DDR_AXI_HOST4(GPU) ReadStart Address 035dc700 to Address 035dc738 Size 3 Length 00000008
16831219 ns: DDR_AXI_HOST4(GPU) ReadStart Address 035dc740 to Address 035dc778 Size 3 Length 00000008
16834457 ns: DDR_AXI_HOST4(GPU) ReadStart Address 035dc900 to Address 035dc938 Size 3 Length 00000008
16838094 ns: DDR_AXI_HOST4(GPU) ReadStart Address 035dc940 to Address 035dc978 Size 3 Length 00000008
16839965 ns: DDR_AXI_HOST4(GPU) ReadStart Address 035dcb00 to Address 035dcb38 Size 3 Length 00000008
16840781 ns: DDR_AXI_HOST4(GPU) ReadStart Address 035dcb40 to Address 035dcb78 Size 3 Length 00000008
16844507 ns: DDR_AXI_HOST4(GPU) ReadStart Address 035dcd00 to Address 035dcd38 Size 3 Length 00000008
16846567 ns: DDR_AXI_HOST4(GPU) ReadStart Address 035dcd40 to Address 035dcd78 Size 3 Length 00000008
16848562 ns: DDR_AXI_HOST4(GPU) ReadStart Address 035dcf00 to Address 035dcf38 Size 3 Length 00000008
16850139 ns: DDR_AXI_HOST4(GPU) ReadStart Address 035dcf40 to Address 035dcf78 Size 3 Length 00000008
16854075 ns: DDR_AXI_HOST4(GPU) ReadStart Address 035e0100 to Address 035e0138 Size 3 Length 00000008
16855980 ns: DDR_AXI_HOST4(GPU) ReadStart Address 035e0140 to Address 035e0178 Size 3 Length 00000008
16856950 ns: DDR_AXI_HOST4(GPU) ReadStart Address 035e0300 to Address 035e0338 Size 3 Length 00000008
16859826 ns: DDR_AXI_HOST4(GPU) ReadStart Address 035e0340 to Address 035e0378 Size 3 Length 00000008
16861975 ns: DDR_AXI_HOST4(GPU) ReadStart Address 035e0500 to Address 035e0538 Size 3 Length 00000008
16864851 ns: DDR_AXI_HOST4(GPU) ReadStart Address 035e0540 to Address 035e0578 Size 3 Length 00000008
16867000 ns: DDR_AXI_HOST4(GPU) ReadStart Address 035e0700 to Address 035e0738 Size 3 Length 00000008
16868910 ns: DDR_AXI_HOST4(GPU) ReadStart Address 035e0740 to Address 035e0778 Size 3 Length 00000008
16871055 ns: DDR_AXI_HOST4(GPU) ReadStart Address 035e0900 to Address 035e0938 Size 3 Length 00000008
16873930 ns: DDR_AXI_HOST4(GPU) ReadStart Address 035e0940 to Address 035e0978 Size 3 Length 00000008
16876687 ns: DDR_AXI_HOST4(GPU) ReadStart Address 035e0b00 to Address 035e0b38 Size 3 Length 00000008
16878542 ns: DDR_AXI_HOST4(GPU) ReadStart Address 035e0b40 to Address 035e0b78 Size 3 Length 00000008
16879925 ns: DDR_AXI_HOST4(GPU) ReadStart Address 035e0d00 to Address 035e0d38 Size 3 Length 00000008
16883617 ns: DDR_AXI_HOST4(GPU) ReadStart Address 035e0d40 to Address 035e0d78 Size 3 Length 00000008
16885438 ns: DDR_AXI_HOST4(GPU) ReadStart Address 035e0f00 to Address 035e0f38 Size 3 Length 00000008
16886373 ns: DDR_AXI_HOST4(GPU) ReadStart Address 035e0f40 to Address 035e0f78 Size 3 Length 00000008
16889975 ns: DDR_AXI_HOST4(GPU) ReadStart Address 035e4100 to Address 035e4138 Size 3 Length 00000008
16892856 ns: DDR_AXI_HOST4(GPU) ReadStart Address 035e4140 to Address 035e4178 Size 3 Length 00000008
16894518 ns: DDR_AXI_HOST4(GPU) ReadStart Address 035e4300 to Address 035e4338 Size 3 Length 00000008
16896911 ns: DDR_AXI_HOST4(GPU) ReadStart Address 035e4340 to Address 035e4378 Size 3 Length 00000008
16900030 ns: DDR_AXI_HOST4(GPU) ReadStart Address 035e4500 to Address 035e4538 Size 3 Length 00000008
16900150 ns: DDR_AXI_HOST4(GPU) ReadStart Address 035e4540 to Address 035e4578 Size 3 Length 00000008
16903826 ns: DDR_AXI_HOST4(GPU) ReadStart Address 035e4700 to Address 035e4738 Size 3 Length 00000008
16906324 ns: DDR_AXI_HOST4(GPU) ReadStart Address 035e4740 to Address 035e4778 Size 3 Length 00000008
16909592 ns: DDR_AXI_HOST4(GPU) ReadStart Address 035e4900 to Address 035e4938 Size 3 Length 00000008
16909717 ns: DDR_AXI_HOST4(GPU) ReadStart Address 035e4940 to Address 035e4978 Size 3 Length 00000008
16912956 ns: DDR_AXI_HOST4(GPU) ReadStart Address 035e4b00 to Address 035e4b38 Size 3 Length 00000008
16915498 ns: DDR_AXI_HOST4(GPU) ReadStart Address 035e4b40 to Address 035e4b78 Size 3 Length 00000008
16918956 ns: DDR_AXI_HOST4(GPU) ReadStart Address 035e4d00 to Address 035e4d38 Size 3 Length 00000008
16919279 ns: DDR_AXI_HOST4(GPU) ReadStart Address 035e4d40 to Address 035e4d78 Size 3 Length 00000008
16923005 ns: DDR_AXI_HOST4(GPU) ReadStart Address 035e4f00 to Address 035e4f38 Size 3 Length 00000008
16924851 ns: DDR_AXI_HOST4(GPU) ReadStart Address 035e4f40 to Address 035e4f78 Size 3 Length 00000008
16927060 ns: DDR_AXI_HOST4(GPU) ReadStart Address 035e8100 to Address 035e8138 Size 3 Length 00000008
16929075 ns: DDR_AXI_HOST4(GPU) ReadStart Address 035e8140 to Address 035e8178 Size 3 Length 00000008
16929453 ns: DDR_AXI_HOST4(GPU) ReadStart Address 035e8300 to Address 035e8338 Size 3 Length 00000008
16933180 ns: DDR_AXI_HOST4(GPU) ReadStart Address 035e8340 to Address 035e8378 Size 3 Length 00000008
16936055 ns: DDR_AXI_HOST4(GPU) ReadStart Address 035e8500 to Address 035e8538 Size 3 Length 00000008
16938324 ns: DDR_AXI_HOST4(GPU) ReadStart Address 035e8540 to Address 035e8578 Size 3 Length 00000008
16939503 ns: DDR_AXI_HOST4(GPU) ReadStart Address 035e8700 to Address 035e8738 Size 3 Length 00000008
16942379 ns: DDR_AXI_HOST4(GPU) ReadStart Address 035e8740 to Address 035e8778 Size 3 Length 00000008
16945264 ns: DDR_AXI_HOST4(GPU) ReadStart Address 035e8900 to Address 035e8938 Size 3 Length 00000008
16947891 ns: DDR_AXI_HOST4(GPU) ReadStart Address 035e8940 to Address 035e8978 Size 3 Length 00000008
16949294 ns: DDR_AXI_HOST4(GPU) ReadStart Address 035e8b00 to Address 035e8b38 Size 3 Length 00000008
16951946 ns: DDR_AXI_HOST4(GPU) ReadStart Address 035e8b40 to Address 035e8b78 Size 3 Length 00000008
16955185 ns: DDR_AXI_HOST4(GPU) ReadStart Address 035e8d00 to Address 035e8d38 Size 3 Length 00000008
16957941 ns: DDR_AXI_HOST4(GPU) ReadStart Address 035e8d40 to Address 035e8d78 Size 3 Length 00000008
16959399 ns: DDR_AXI_HOST4(GPU) ReadStart Address 035e8f00 to Address 035e8f38 Size 3 Length 00000008
16961299 ns: DDR_AXI_HOST4(GPU) ReadStart Address 035e8f40 to Address 035e8f78 Size 3 Length 00000008
16964478 ns: DDR_AXI_HOST4(GPU) ReadStart Address 035dc100 to Address 035dc138 Size 3 Length 00000008
16964752 ns: DDR_AXI_HOST4(GPU) ReadStart Address 035dc140 to Address 035dc178 Size 3 Length 00000008
16968473 ns: DDR_AXI_HOST4(GPU) ReadStart Address 035dc300 to Address 035dc338 Size 3 Length 00000008
16971354 ns: DDR_AXI_HOST4(GPU) ReadStart Address 035dc340 to Address 035dc378 Size 3 Length 00000008
16974598 ns: DDR_AXI_HOST4(GPU) ReadStart Address 035dc500 to Address 035dc538 Size 3 Length 00000008
16976379 ns: DDR_AXI_HOST4(GPU) ReadStart Address 035dc540 to Address 035dc578 Size 3 Length 00000008
16977558 ns: DDR_AXI_HOST4(GPU) ReadStart Address 035dc700 to Address 035dc738 Size 3 Length 00000008
16978648 ns: DDR_AXI_HOST4(GPU) ReadStart Address 035dc740 to Address 035dc778 Size 3 Length 00000008
16982583 ns: DDR_AXI_HOST4(GPU) ReadStart Address 035dc900 to Address 035dc938 Size 3 Length 00000008
16983792 ns: DDR_AXI_HOST4(GPU) ReadStart Address 035dc940 to Address 035dc978 Size 3 Length 00000008
16988090 ns: DDR_AXI_HOST4(GPU) ReadStart Address 035dcb00 to Address 035dcb38 Size 3 Length 00000008
16988215 ns: DDR_AXI_HOST4(GPU) ReadStart Address 035dcb40 to Address 035dcb78 Size 3 Length 00000008
16992324 ns: DDR_AXI_HOST4(GPU) ReadStart Address 035dcd00 to Address 035dcd38 Size 3 Length 00000008
16995508 ns: DDR_AXI_HOST4(GPU) ReadStart Address 035dcd40 to Address 035dcd78 Size 3 Length 00000008
16996598 ns: DDR_AXI_HOST4(GPU) ReadStart Address 035dcf00 to Address 035dcf38 Size 3 Length 00000008
16997777 ns: DDR_AXI_HOST4(GPU) ReadStart Address 035dcf40 to Address 035dcf78 Size 3 Length 00000008
17001504 ns: DDR_AXI_HOST4(GPU) ReadStart Address 035e0100 to Address 035e0138 Size 3 Length 00000008
17003588 ns: DDR_AXI_HOST4(GPU) ReadStart Address 035e0140 to Address 035e0178 Size 3 Length 00000008
17005558 ns: DDR_AXI_HOST4(GPU) ReadStart Address 035e0300 to Address 035e0338 Size 3 Length 00000008
17007464 ns: DDR_AXI_HOST4(GPU) ReadStart Address 035e0340 to Address 035e0378 Size 3 Length 00000008
17011190 ns: DDR_AXI_HOST4(GPU) ReadStart Address 035e0500 to Address 035e0538 Size 3 Length 00000008
17012922 ns: DDR_AXI_HOST4(GPU) ReadStart Address 035e0540 to Address 035e0578 Size 3 Length 00000008
17013946 ns: DDR_AXI_HOST4(GPU) ReadStart Address 035e0700 to Address 035e0738 Size 3 Length 00000008
17016339 ns: DDR_AXI_HOST4(GPU) ReadStart Address 035e0740 to Address 035e0778 Size 3 Length 00000008
17018484 ns: DDR_AXI_HOST4(GPU) ReadStart Address 035e0900 to Address 035e0938 Size 3 Length 00000008
17021364 ns: DDR_AXI_HOST4(GPU) ReadStart Address 035e0940 to Address 035e0978 Size 3 Length 00000008
17023996 ns: DDR_AXI_HOST4(GPU) ReadStart Address 035e0b00 to Address 035e0b38 Size 3 Length 00000008
17026389 ns: DDR_AXI_HOST4(GPU) ReadStart Address 035e0b40 to Address 035e0b78 Size 3 Length 00000008
17028051 ns: DDR_AXI_HOST4(GPU) ReadStart Address 035e0d00 to Address 035e0d38 Size 3 Length 00000008
17030444 ns: DDR_AXI_HOST4(GPU) ReadStart Address 035e0d40 to Address 035e0d78 Size 3 Length 00000008
17033683 ns: DDR_AXI_HOST4(GPU) ReadStart Address 035e0f00 to Address 035e0f38 Size 3 Length 00000008
17035952 ns: DDR_AXI_HOST4(GPU) ReadStart Address 035e0f40 to Address 035e0f78 Size 3 Length 00000008
17036922 ns: DDR_AXI_HOST4(GPU) ReadStart Address 035e4100 to Address 035e4138 Size 3 Length 00000008
17040290 ns: DDR_AXI_HOST4(GPU) ReadStart Address 035e4140 to Address 035e4178 Size 3 Length 00000008
17041947 ns: DDR_AXI_HOST4(GPU) ReadStart Address 035e4300 to Address 035e4338 Size 3 Length 00000008
17043370 ns: DDR_AXI_HOST4(GPU) ReadStart Address 035e4340 to Address 035e4378 Size 3 Length 00000008
17047897 ns: DDR_AXI_HOST4(GPU) ReadStart Address 035e4500 to Address 035e4538 Size 3 Length 00000008
17050395 ns: DDR_AXI_HOST4(GPU) ReadStart Address 035e4540 to Address 035e4578 Size 3 Length 00000008
17051031 ns: DDR_AXI_HOST4(GPU) ReadStart Address 035e4700 to Address 035e4738 Size 3 Length 00000008
17053509 ns: DDR_AXI_HOST4(GPU) ReadStart Address 035e4740 to Address 035e4778 Size 3 Length 00000008
17057026 ns: DDR_AXI_HOST4(GPU) ReadStart Address 035e4900 to Address 035e4938 Size 3 Length 00000008
17057146 ns: DDR_AXI_HOST4(GPU) ReadStart Address 035e4940 to Address 035e4978 Size 3 Length 00000008
17060594 ns: DDR_AXI_HOST4(GPU) ReadStart Address 035e4b00 to Address 035e4b38 Size 3 Length 00000008
17063126 ns: DDR_AXI_HOST4(GPU) ReadStart Address 035e4b40 to Address 035e4b78 Size 3 Length 00000008
17066225 ns: DDR_AXI_HOST4(GPU) ReadStart Address 035e4d00 to Address 035e4d38 Size 3 Length 00000008
17066713 ns: DDR_AXI_HOST4(GPU) ReadStart Address 035e4d40 to Address 035e4d78 Size 3 Length 00000008
17069952 ns: DDR_AXI_HOST4(GPU) ReadStart Address 035e4f00 to Address 035e4f38 Size 3 Length 00000008
17072723 ns: DDR_AXI_HOST4(GPU) ReadStart Address 035e4f40 to Address 035e4f78 Size 3 Length 00000008
17075738 ns: DDR_AXI_HOST4(GPU) ReadStart Address 035e8100 to Address 035e8138 Size 3 Length 00000008
17076275 ns: DDR_AXI_HOST4(GPU) ReadStart Address 035e8140 to Address 035e8178 Size 3 Length 00000008
17080002 ns: DDR_AXI_HOST4(GPU) ReadStart Address 035e8300 to Address 035e8338 Size 3 Length 00000008
17081852 ns: DDR_AXI_HOST4(GPU) ReadStart Address 035e8340 to Address 035e8378 Size 3 Length 00000008
17084057 ns: DDR_AXI_HOST4(GPU) ReadStart Address 035e8500 to Address 035e8538 Size 3 Length 00000008
17085857 ns: DDR_AXI_HOST4(GPU) ReadStart Address 035e8540 to Address 035e8578 Size 3 Length 00000008
17086450 ns: DDR_AXI_HOST4(GPU) ReadStart Address 035e8700 to Address 035e8738 Size 3 Length 00000008
17090176 ns: DDR_AXI_HOST4(GPU) ReadStart Address 035e8740 to Address 035e8778 Size 3 Length 00000008
17093435 ns: DDR_AXI_HOST4(GPU) ReadStart Address 035e8900 to Address 035e8938 Size 3 Length 00000008
17095320 ns: DDR_AXI_HOST4(GPU) ReadStart Address 035e8940 to Address 035e8978 Size 3 Length 00000008
17096499 ns: DDR_AXI_HOST4(GPU) ReadStart Address 035e8b00 to Address 035e8b38 Size 3 Length 00000008
17099375 ns: DDR_AXI_HOST4(GPU) ReadStart Address 035e8b40 to Address 035e8b78 Size 3 Length 00000008
17102614 ns: DDR_AXI_HOST4(GPU) ReadStart Address 035e8d00 to Address 035e8d38 Size 3 Length 00000008
17105370 ns: DDR_AXI_HOST4(GPU) ReadStart Address 035e8d40 to Address 035e8d78 Size 3 Length 00000008
17106549 ns: DDR_AXI_HOST4(GPU) ReadStart Address 035e8f00 to Address 035e8f38 Size 3 Length 00000008
17109425 ns: DDR_AXI_HOST4(GPU) ReadStart Address 035e8f40 to Address 035e8f78 Size 3 Length 00000008
