23385097 ns: DDR_AXI_HOST4(GPU) ReadStart Address 035df100 to Address 035df138 Size 3 Length 00000008
23386565 ns: DDR_AXI_HOST4(GPU) ReadStart Address 035df140 to Address 035df178 Size 3 Length 00000008
23387744 ns: DDR_AXI_HOST4(GPU) ReadStart Address 035df300 to Address 035df338 Size 3 Length 00000008
23390983 ns: DDR_AXI_HOST4(GPU) ReadStart Address 035df340 to Address 035df378 Size 3 Length 00000008
23395216 ns: DDR_AXI_HOST4(GPU) ReadStart Address 035df500 to Address 035df538 Size 3 Length 00000008
23397659 ns: DDR_AXI_HOST4(GPU) ReadStart Address 035df540 to Address 035df578 Size 3 Length 00000008
23400226 ns: DDR_AXI_HOST4(GPU) ReadStart Address 035df700 to Address 035df738 Size 3 Length 00000008
23400550 ns: DDR_AXI_HOST4(GPU) ReadStart Address 035df740 to Address 035df778 Size 3 Length 00000008
23404276 ns: DDR_AXI_HOST4(GPU) ReadStart Address 035df900 to Address 035df938 Size 3 Length 00000008
23405316 ns: DDR_AXI_HOST4(GPU) ReadStart Address 035df940 to Address 035df978 Size 3 Length 00000008
23407152 ns: DDR_AXI_HOST4(GPU) ReadStart Address 035dfb00 to Address 035dfb38 Size 3 Length 00000008
23410341 ns: DDR_AXI_HOST4(GPU) ReadStart Address 035dfb40 to Address 035dfb78 Size 3 Length 00000008
23411207 ns: DDR_AXI_HOST4(GPU) ReadStart Address 035dfd00 to Address 035dfd38 Size 3 Length 00000008
23414082 ns: DDR_AXI_HOST4(GPU) ReadStart Address 035dfd40 to Address 035dfd78 Size 3 Length 00000008
23417321 ns: DDR_AXI_HOST4(GPU) ReadStart Address 035dff00 to Address 035dff38 Size 3 Length 00000008
23419595 ns: DDR_AXI_HOST4(GPU) ReadStart Address 035dff40 to Address 035dff78 Size 3 Length 00000008
23421256 ns: DDR_AXI_HOST4(GPU) ReadStart Address 035e3100 to Address 035e3138 Size 3 Length 00000008
23423649 ns: DDR_AXI_HOST4(GPU) ReadStart Address 035e3140 to Address 035e3178 Size 3 Length 00000008
23426888 ns: DDR_AXI_HOST4(GPU) ReadStart Address 035e3300 to Address 035e3338 Size 3 Length 00000008
23428674 ns: DDR_AXI_HOST4(GPU) ReadStart Address 035e3340 to Address 035e3378 Size 3 Length 00000008
23430565 ns: DDR_AXI_HOST4(GPU) ReadStart Address 035e3500 to Address 035e3538 Size 3 Length 00000008
23433699 ns: DDR_AXI_HOST4(GPU) ReadStart Address 035e3540 to Address 035e3578 Size 3 Length 00000008
23435968 ns: DDR_AXI_HOST4(GPU) ReadStart Address 035e3700 to Address 035e3738 Size 3 Length 00000008
23437063 ns: DDR_AXI_HOST4(GPU) ReadStart Address 035e3740 to Address 035e3778 Size 3 Length 00000008
23439694 ns: DDR_AXI_HOST4(GPU) ReadStart Address 035e3900 to Address 035e3938 Size 3 Length 00000008
23443281 ns: DDR_AXI_HOST4(GPU) ReadStart Address 035e3940 to Address 035e3978 Size 3 Length 00000008
23444237 ns: DDR_AXI_HOST4(GPU) ReadStart Address 035e3b00 to Address 035e3b38 Size 3 Length 00000008
23446709 ns: DDR_AXI_HOST4(GPU) ReadStart Address 035e3b40 to Address 035e3b78 Size 3 Length 00000008
23450774 ns: DDR_AXI_HOST4(GPU) ReadStart Address 035e3d00 to Address 035e3d38 Size 3 Length 00000008
23450789 ns: DDR_AXI_HOST4(GPU) ReadStart Address 035e3d40 to Address 035e3d78 Size 3 Length 00000008
23453799 ns: DDR_AXI_HOST4(GPU) ReadStart Address 035e3f00 to Address 035e3f38 Size 3 Length 00000008
23456326 ns: DDR_AXI_HOST4(GPU) ReadStart Address 035e3f40 to Address 035e3f78 Size 3 Length 00000008
23459431 ns: DDR_AXI_HOST4(GPU) ReadStart Address 035e7100 to Address 035e7138 Size 3 Length 00000008
23459918 ns: DDR_AXI_HOST4(GPU) ReadStart Address 035e7140 to Address 035e7178 Size 3 Length 00000008
23463486 ns: DDR_AXI_HOST4(GPU) ReadStart Address 035e7300 to Address 035e7338 Size 3 Length 00000008
23465983 ns: DDR_AXI_HOST4(GPU) ReadStart Address 035e7340 to Address 035e7378 Size 3 Length 00000008
23468525 ns: DDR_AXI_HOST4(GPU) ReadStart Address 035e7500 to Address 035e7538 Size 3 Length 00000008
23469481 ns: DDR_AXI_HOST4(GPU) ReadStart Address 035e7540 to Address 035e7578 Size 3 Length 00000008
23473590 ns: DDR_AXI_HOST4(GPU) ReadStart Address 035e7700 to Address 035e7738 Size 3 Length 00000008
23475073 ns: DDR_AXI_HOST4(GPU) ReadStart Address 035e7740 to Address 035e7778 Size 3 Length 00000008
23476779 ns: DDR_AXI_HOST4(GPU) ReadStart Address 035e7900 to Address 035e7938 Size 3 Length 00000008
23479048 ns: DDR_AXI_HOST4(GPU) ReadStart Address 035e7940 to Address 035e7978 Size 3 Length 00000008
23479655 ns: DDR_AXI_HOST4(GPU) ReadStart Address 035e7b00 to Address 035e7b38 Size 3 Length 00000008
23483013 ns: DDR_AXI_HOST4(GPU) ReadStart Address 035e7b40 to Address 035e7b78 Size 3 Length 00000008
23486466 ns: DDR_AXI_HOST4(GPU) ReadStart Address 035e7d00 to Address 035e7d38 Size 3 Length 00000008
23488750 ns: DDR_AXI_HOST4(GPU) ReadStart Address 035e7d40 to Address 035e7d78 Size 3 Length 00000008
23489705 ns: DDR_AXI_HOST4(GPU) ReadStart Address 035e7f00 to Address 035e7f38 Size 3 Length 00000008
23492580 ns: DDR_AXI_HOST4(GPU) ReadStart Address 035e7f40 to Address 035e7f78 Size 3 Length 00000008
23495471 ns: DDR_AXI_HOST4(GPU) ReadStart Address 035eb100 to Address 035eb138 Size 3 Length 00000008
23498093 ns: DDR_AXI_HOST4(GPU) ReadStart Address 035eb140 to Address 035eb178 Size 3 Length 00000008
23499272 ns: DDR_AXI_HOST4(GPU) ReadStart Address 035eb300 to Address 035eb338 Size 3 Length 00000008
23502148 ns: DDR_AXI_HOST4(GPU) ReadStart Address 035eb340 to Address 035eb378 Size 3 Length 00000008
23505386 ns: DDR_AXI_HOST4(GPU) ReadStart Address 035eb500 to Address 035eb538 Size 3 Length 00000008
23507655 ns: DDR_AXI_HOST4(GPU) ReadStart Address 035eb540 to Address 035eb578 Size 3 Length 00000008
23508959 ns: DDR_AXI_HOST4(GPU) ReadStart Address 035eb700 to Address 035eb738 Size 3 Length 00000008
23511715 ns: DDR_AXI_HOST4(GPU) ReadStart Address 035eb740 to Address 035eb778 Size 3 Length 00000008
23514038 ns: DDR_AXI_HOST4(GPU) ReadStart Address 035eb900 to Address 035eb938 Size 3 Length 00000008
23515073 ns: DDR_AXI_HOST4(GPU) ReadStart Address 035eb940 to Address 035eb978 Size 3 Length 00000008
23519063 ns: DDR_AXI_HOST4(GPU) ReadStart Address 035ebb00 to Address 035ebb38 Size 3 Length 00000008
23519491 ns: DDR_AXI_HOST4(GPU) ReadStart Address 035ebb40 to Address 035ebb78 Size 3 Length 00000008
23523217 ns: DDR_AXI_HOST4(GPU) ReadStart Address 035ebd00 to Address 035ebd38 Size 3 Length 00000008
23525481 ns: DDR_AXI_HOST4(GPU) ReadStart Address 035ebd40 to Address 035ebd78 Size 3 Length 00000008
23529178 ns: DDR_AXI_HOST4(GPU) ReadStart Address 035ebf00 to Address 035ebf38 Size 3 Length 00000008
23529546 ns: DDR_AXI_HOST4(GPU) ReadStart Address 035ebf40 to Address 035ebf78 Size 3 Length 00000008
25253127 ns: DDR_AXI_HOST4(GPU) ReadStart Address 03604100 to Address 03604138 Size 3 Length 00000008
25254097 ns: DDR_AXI_HOST4(GPU) ReadStart Address 03604140 to Address 03604178 Size 3 Length 00000008
25255067 ns: DDR_AXI_HOST4(GPU) ReadStart Address 03604300 to Address 03604338 Size 3 Length 00000008
25255679 ns: DDR_AXI_HOST4(GPU) ReadStart Address 03604340 to Address 03604378 Size 3 Length 00000008
25256002 ns: DDR_AXI_HOST4(GPU) ReadStart Address 03604500 to Address 03604538 Size 3 Length 00000008
25260908 ns: DDR_AXI_HOST4(GPU) ReadStart Address 03604540 to Address 03604578 Size 3 Length 00000008
25263231 ns: DDR_AXI_HOST4(GPU) ReadStart Address 03604700 to Address 03604738 Size 3 Length 00000008
25264147 ns: DDR_AXI_HOST4(GPU) ReadStart Address 03604740 to Address 03604778 Size 3 Length 00000008
25264754 ns: DDR_AXI_HOST4(GPU) ReadStart Address 03604900 to Address 03604938 Size 3 Length 00000008
25268808 ns: DDR_AXI_HOST4(GPU) ReadStart Address 03604940 to Address 03604978 Size 3 Length 00000008
25269903 ns: DDR_AXI_HOST4(GPU) ReadStart Address 03604b00 to Address 03604b38 Size 3 Length 00000008
25270823 ns: DDR_AXI_HOST4(GPU) ReadStart Address 03604b40 to Address 03604b78 Size 3 Length 00000008
25271202 ns: DDR_AXI_HOST4(GPU) ReadStart Address 03604d00 to Address 03604d38 Size 3 Length 00000008
25272172 ns: DDR_AXI_HOST4(GPU) ReadStart Address 03604d40 to Address 03604d78 Size 3 Length 00000008
25276709 ns: DDR_AXI_HOST4(GPU) ReadStart Address 03604f00 to Address 03604f38 Size 3 Length 00000008
25277804 ns: DDR_AXI_HOST4(GPU) ReadStart Address 03604f40 to Address 03604f78 Size 3 Length 00000008
25279102 ns: DDR_AXI_HOST4(GPU) ReadStart Address 03608100 to Address 03608138 Size 3 Length 00000008
25279590 ns: DDR_AXI_HOST4(GPU) ReadStart Address 03608140 to Address 03608178 Size 3 Length 00000008
25280958 ns: DDR_AXI_HOST4(GPU) ReadStart Address 03608300 to Address 03608338 Size 3 Length 00000008
25284734 ns: DDR_AXI_HOST4(GPU) ReadStart Address 03608340 to Address 03608378 Size 3 Length 00000008
25286052 ns: DDR_AXI_HOST4(GPU) ReadStart Address 03608500 to Address 03608538 Size 3 Length 00000008
25286555 ns: DDR_AXI_HOST4(GPU) ReadStart Address 03608540 to Address 03608578 Size 3 Length 00000008
25288530 ns: DDR_AXI_HOST4(GPU) ReadStart Address 03608700 to Address 03608738 Size 3 Length 00000008
25292152 ns: DDR_AXI_HOST4(GPU) ReadStart Address 03608740 to Address 03608778 Size 3 Length 00000008
25293575 ns: DDR_AXI_HOST4(GPU) ReadStart Address 03608900 to Address 03608938 Size 3 Length 00000008
25293938 ns: DDR_AXI_HOST4(GPU) ReadStart Address 03608940 to Address 03608978 Size 3 Length 00000008
25295510 ns: DDR_AXI_HOST4(GPU) ReadStart Address 03608b00 to Address 03608b38 Size 3 Length 00000008
25299082 ns: DDR_AXI_HOST4(GPU) ReadStart Address 03608b40 to Address 03608b78 Size 3 Length 00000008
25301147 ns: DDR_AXI_HOST4(GPU) ReadStart Address 03608d00 to Address 03608d38 Size 3 Length 00000008
25301162 ns: DDR_AXI_HOST4(GPU) ReadStart Address 03608d40 to Address 03608d78 Size 3 Length 00000008
25302082 ns: DDR_AXI_HOST4(GPU) ReadStart Address 03608f00 to Address 03608f38 Size 3 Length 00000008
25306257 ns: DDR_AXI_HOST4(GPU) ReadStart Address 03608f40 to Address 03608f78 Size 3 Length 00000008
25307590 ns: DDR_AXI_HOST4(GPU) ReadStart Address 0360c100 to Address 0360c138 Size 3 Length 00000008
25308893 ns: DDR_AXI_HOST4(GPU) ReadStart Address 0360c140 to Address 0360c178 Size 3 Length 00000008
25309495 ns: DDR_AXI_HOST4(GPU) ReadStart Address 0360c300 to Address 0360c338 Size 3 Length 00000008
25314038 ns: DDR_AXI_HOST4(GPU) ReadStart Address 0360c340 to Address 0360c378 Size 3 Length 00000008
25320152 ns: DDR_AXI_HOST4(GPU) ReadStart Address 0360c500 to Address 0360c538 Size 3 Length 00000008
25321938 ns: DDR_AXI_HOST4(GPU) ReadStart Address 0360c540 to Address 0360c578 Size 3 Length 00000008
25323884 ns: DDR_AXI_HOST4(GPU) ReadStart Address 0360c700 to Address 0360c738 Size 3 Length 00000008
25326481 ns: DDR_AXI_HOST4(GPU) ReadStart Address 0360c740 to Address 0360c778 Size 3 Length 00000008
25329112 ns: DDR_AXI_HOST4(GPU) ReadStart Address 0360c900 to Address 0360c938 Size 3 Length 00000008
25329839 ns: DDR_AXI_HOST4(GPU) ReadStart Address 0360c940 to Address 0360c978 Size 3 Length 00000008
25332958 ns: DDR_AXI_HOST4(GPU) ReadStart Address 0360cb00 to Address 0360cb38 Size 3 Length 00000008
25337013 ns: DDR_AXI_HOST4(GPU) ReadStart Address 0360cb40 to Address 0360cb78 Size 3 Length 00000008
25339361 ns: DDR_AXI_HOST4(GPU) ReadStart Address 0360cd00 to Address 0360cd38 Size 3 Length 00000008
25340376 ns: DDR_AXI_HOST4(GPU) ReadStart Address 0360cd40 to Address 0360cd78 Size 3 Length 00000008
25343008 ns: DDR_AXI_HOST4(GPU) ReadStart Address 0360cf00 to Address 0360cf38 Size 3 Length 00000008
25344108 ns: DDR_AXI_HOST4(GPU) ReadStart Address 0360cf40 to Address 0360cf78 Size 3 Length 00000008
25347068 ns: DDR_AXI_HOST4(GPU) ReadStart Address 03610100 to Address 03610138 Size 3 Length 00000008
25349819 ns: DDR_AXI_HOST4(GPU) ReadStart Address 03610140 to Address 03610178 Size 3 Length 00000008
25352695 ns: DDR_AXI_HOST4(GPU) ReadStart Address 03610300 to Address 03610338 Size 3 Length 00000008
25353182 ns: DDR_AXI_HOST4(GPU) ReadStart Address 03610340 to Address 03610378 Size 3 Length 00000008
25357118 ns: DDR_AXI_HOST4(GPU) ReadStart Address 03610500 to Address 03610538 Size 3 Length 00000008
25359993 ns: DDR_AXI_HOST4(GPU) ReadStart Address 03610540 to Address 03610578 Size 3 Length 00000008
25362143 ns: DDR_AXI_HOST4(GPU) ReadStart Address 03610700 to Address 03610738 Size 3 Length 00000008
25362750 ns: DDR_AXI_HOST4(GPU) ReadStart Address 03610740 to Address 03610778 Size 3 Length 00000008
25365988 ns: DDR_AXI_HOST4(GPU) ReadStart Address 03610900 to Address 03610938 Size 3 Length 00000008
25368546 ns: DDR_AXI_HOST4(GPU) ReadStart Address 03610940 to Address 03610978 Size 3 Length 00000008
25371013 ns: DDR_AXI_HOST4(GPU) ReadStart Address 03610b00 to Address 03610b38 Size 3 Length 00000008
25371964 ns: DDR_AXI_HOST4(GPU) ReadStart Address 03610b40 to Address 03610b78 Size 3 Length 00000008
25376038 ns: DDR_AXI_HOST4(GPU) ReadStart Address 03610d00 to Address 03610d38 Size 3 Length 00000008
25378431 ns: DDR_AXI_HOST4(GPU) ReadStart Address 03610d40 to Address 03610d78 Size 3 Length 00000008
25379610 ns: DDR_AXI_HOST4(GPU) ReadStart Address 03610f00 to Address 03610f38 Size 3 Length 00000008
25382068 ns: DDR_AXI_HOST4(GPU) ReadStart Address 03610f40 to Address 03610f78 Size 3 Length 00000008
25385605 ns: DDR_AXI_HOST4(GPU) ReadStart Address 03604100 to Address 03604138 Size 3 Length 00000008
25387148 ns: DDR_AXI_HOST4(GPU) ReadStart Address 03604140 to Address 03604178 Size 3 Length 00000008
25388481 ns: DDR_AXI_HOST4(GPU) ReadStart Address 03604300 to Address 03604338 Size 3 Length 00000008
25391357 ns: DDR_AXI_HOST4(GPU) ReadStart Address 03604340 to Address 03604378 Size 3 Length 00000008
25395292 ns: DDR_AXI_HOST4(GPU) ReadStart Address 03604500 to Address 03604538 Size 3 Length 00000008
25396262 ns: DDR_AXI_HOST4(GPU) ReadStart Address 03604540 to Address 03604578 Size 3 Length 00000008
25398043 ns: DDR_AXI_HOST4(GPU) ReadStart Address 03604700 to Address 03604738 Size 3 Length 00000008
25400924 ns: DDR_AXI_HOST4(GPU) ReadStart Address 03604740 to Address 03604778 Size 3 Length 00000008
25402277 ns: DDR_AXI_HOST4(GPU) ReadStart Address 03604900 to Address 03604938 Size 3 Length 00000008
25404979 ns: DDR_AXI_HOST4(GPU) ReadStart Address 03604940 to Address 03604978 Size 3 Length 00000008
25407735 ns: DDR_AXI_HOST4(GPU) ReadStart Address 03604b00 to Address 03604b38 Size 3 Length 00000008
25408825 ns: DDR_AXI_HOST4(GPU) ReadStart Address 03604b40 to Address 03604b78 Size 3 Length 00000008
25411456 ns: DDR_AXI_HOST4(GPU) ReadStart Address 03604d00 to Address 03604d38 Size 3 Length 00000008
25415029 ns: DDR_AXI_HOST4(GPU) ReadStart Address 03604d40 to Address 03604d78 Size 3 Length 00000008
25417879 ns: DDR_AXI_HOST4(GPU) ReadStart Address 03604f00 to Address 03604f38 Size 3 Length 00000008
25418874 ns: DDR_AXI_HOST4(GPU) ReadStart Address 03604f40 to Address 03604f78 Size 3 Length 00000008
25421024 ns: DDR_AXI_HOST4(GPU) ReadStart Address 03608100 to Address 03608138 Size 3 Length 00000008
25424387 ns: DDR_AXI_HOST4(GPU) ReadStart Address 03608140 to Address 03608178 Size 3 Length 00000008
25425566 ns: DDR_AXI_HOST4(GPU) ReadStart Address 03608300 to Address 03608338 Size 3 Length 00000008
25427591 ns: DDR_AXI_HOST4(GPU) ReadStart Address 03608340 to Address 03608378 Size 3 Length 00000008
25431561 ns: DDR_AXI_HOST4(GPU) ReadStart Address 03608500 to Address 03608538 Size 3 Length 00000008
25431680 ns: DDR_AXI_HOST4(GPU) ReadStart Address 03608540 to Address 03608578 Size 3 Length 00000008
25435143 ns: DDR_AXI_HOST4(GPU) ReadStart Address 03608700 to Address 03608738 Size 3 Length 00000008
25437695 ns: DDR_AXI_HOST4(GPU) ReadStart Address 03608740 to Address 03608778 Size 3 Length 00000008
25440760 ns: DDR_AXI_HOST4(GPU) ReadStart Address 03608900 to Address 03608938 Size 3 Length 00000008
25441248 ns: DDR_AXI_HOST4(GPU) ReadStart Address 03608940 to Address 03608978 Size 3 Length 00000008
25444486 ns: DDR_AXI_HOST4(GPU) ReadStart Address 03608b00 to Address 03608b38 Size 3 Length 00000008
25447019 ns: DDR_AXI_HOST4(GPU) ReadStart Address 03608b40 to Address 03608b78 Size 3 Length 00000008
25450327 ns: DDR_AXI_HOST4(GPU) ReadStart Address 03608d00 to Address 03608d38 Size 3 Length 00000008
25450810 ns: DDR_AXI_HOST4(GPU) ReadStart Address 03608d40 to Address 03608d78 Size 3 Length 00000008
25454536 ns: DDR_AXI_HOST4(GPU) ReadStart Address 03608f00 to Address 03608f38 Size 3 Length 00000008
25456392 ns: DDR_AXI_HOST4(GPU) ReadStart Address 03608f40 to Address 03608f78 Size 3 Length 00000008
25458591 ns: DDR_AXI_HOST4(GPU) ReadStart Address 0360c100 to Address 0360c138 Size 3 Length 00000008
25460447 ns: DDR_AXI_HOST4(GPU) ReadStart Address 0360c140 to Address 0360c178 Size 3 Length 00000008
25460984 ns: DDR_AXI_HOST4(GPU) ReadStart Address 0360c300 to Address 0360c338 Size 3 Length 00000008
25464706 ns: DDR_AXI_HOST4(GPU) ReadStart Address 0360c340 to Address 0360c378 Size 3 Length 00000008
25468019 ns: DDR_AXI_HOST4(GPU) ReadStart Address 0360c500 to Address 0360c538 Size 3 Length 00000008
25469855 ns: DDR_AXI_HOST4(GPU) ReadStart Address 0360c540 to Address 0360c578 Size 3 Length 00000008
25471034 ns: DDR_AXI_HOST4(GPU) ReadStart Address 0360c700 to Address 0360c738 Size 3 Length 00000008
25473910 ns: DDR_AXI_HOST4(GPU) ReadStart Address 0360c740 to Address 0360c778 Size 3 Length 00000008
25476790 ns: DDR_AXI_HOST4(GPU) ReadStart Address 0360c900 to Address 0360c938 Size 3 Length 00000008
25479422 ns: DDR_AXI_HOST4(GPU) ReadStart Address 0360c940 to Address 0360c978 Size 3 Length 00000008
25480666 ns: DDR_AXI_HOST4(GPU) ReadStart Address 0360cb00 to Address 0360cb38 Size 3 Length 00000008
25483477 ns: DDR_AXI_HOST4(GPU) ReadStart Address 0360cb40 to Address 0360cb78 Size 3 Length 00000008
25486716 ns: DDR_AXI_HOST4(GPU) ReadStart Address 0360cd00 to Address 0360cd38 Size 3 Length 00000008
25488984 ns: DDR_AXI_HOST4(GPU) ReadStart Address 0360cd40 to Address 0360cd78 Size 3 Length 00000008
25489955 ns: DDR_AXI_HOST4(GPU) ReadStart Address 0360cf00 to Address 0360cf38 Size 3 Length 00000008
25493268 ns: DDR_AXI_HOST4(GPU) ReadStart Address 0360cf40 to Address 0360cf78 Size 3 Length 00000008
25494980 ns: DDR_AXI_HOST4(GPU) ReadStart Address 03610100 to Address 03610138 Size 3 Length 00000008
25496402 ns: DDR_AXI_HOST4(GPU) ReadStart Address 03610140 to Address 03610178 Size 3 Length 00000008
25500875 ns: DDR_AXI_HOST4(GPU) ReadStart Address 03610300 to Address 03610338 Size 3 Length 00000008
25500890 ns: DDR_AXI_HOST4(GPU) ReadStart Address 03610340 to Address 03610378 Size 3 Length 00000008
25504064 ns: DDR_AXI_HOST4(GPU) ReadStart Address 03610500 to Address 03610538 Size 3 Length 00000008
25506781 ns: DDR_AXI_HOST4(GPU) ReadStart Address 03610540 to Address 03610578 Size 3 Length 00000008
25509691 ns: DDR_AXI_HOST4(GPU) ReadStart Address 03610700 to Address 03610738 Size 3 Length 00000008
25510179 ns: DDR_AXI_HOST4(GPU) ReadStart Address 03610740 to Address 03610778 Size 3 Length 00000008
25514114 ns: DDR_AXI_HOST4(GPU) ReadStart Address 03610900 to Address 03610938 Size 3 Length 00000008
25516373 ns: DDR_AXI_HOST4(GPU) ReadStart Address 03610940 to Address 03610978 Size 3 Length 00000008
25519139 ns: DDR_AXI_HOST4(GPU) ReadStart Address 03610b00 to Address 03610b38 Size 3 Length 00000008
25519746 ns: DDR_AXI_HOST4(GPU) ReadStart Address 03610b40 to Address 03610b78 Size 3 Length 00000008
25523676 ns: DDR_AXI_HOST4(GPU) ReadStart Address 03610d00 to Address 03610d38 Size 3 Length 00000008
25526139 ns: DDR_AXI_HOST4(GPU) ReadStart Address 03610d40 to Address 03610d78 Size 3 Length 00000008
25529189 ns: DDR_AXI_HOST4(GPU) ReadStart Address 03610f00 to Address 03610f38 Size 3 Length 00000008
25529796 ns: DDR_AXI_HOST4(GPU) ReadStart Address 03610f40 to Address 03610f78 Size 3 Length 00000008
25532547 ns: DDR_AXI_HOST4(GPU) ReadStart Address 03604100 to Address 03604138 Size 3 Length 00000008
25534457 ns: DDR_AXI_HOST4(GPU) ReadStart Address 03604140 to Address 03604178 Size 3 Length 00000008
25535428 ns: DDR_AXI_HOST4(GPU) ReadStart Address 03604300 to Address 03604338 Size 3 Length 00000008
25538791 ns: DDR_AXI_HOST4(GPU) ReadStart Address 03604340 to Address 03604378 Size 3 Length 00000008
25542721 ns: DDR_AXI_HOST4(GPU) ReadStart Address 03604500 to Address 03604538 Size 3 Length 00000008
25545234 ns: DDR_AXI_HOST4(GPU) ReadStart Address 03604540 to Address 03604578 Size 3 Length 00000008
25547263 ns: DDR_AXI_HOST4(GPU) ReadStart Address 03604700 to Address 03604738 Size 3 Length 00000008
25548234 ns: DDR_AXI_HOST4(GPU) ReadStart Address 03604740 to Address 03604778 Size 3 Length 00000008
25549532 ns: DDR_AXI_HOST4(GPU) ReadStart Address 03604900 to Address 03604938 Size 3 Length 00000008
25552771 ns: DDR_AXI_HOST4(GPU) ReadStart Address 03604940 to Address 03604978 Size 3 Length 00000008
25555164 ns: DDR_AXI_HOST4(GPU) ReadStart Address 03604b00 to Address 03604b38 Size 3 Length 00000008
25557920 ns: DDR_AXI_HOST4(GPU) ReadStart Address 03604b40 to Address 03604b78 Size 3 Length 00000008
25559099 ns: DDR_AXI_HOST4(GPU) ReadStart Address 03604d00 to Address 03604d38 Size 3 Length 00000008
25561975 ns: DDR_AXI_HOST4(GPU) ReadStart Address 03604d40 to Address 03604d78 Size 3 Length 00000008
25565214 ns: DDR_AXI_HOST4(GPU) ReadStart Address 03604f00 to Address 03604f38 Size 3 Length 00000008
25567483 ns: DDR_AXI_HOST4(GPU) ReadStart Address 03604f40 to Address 03604f78 Size 3 Length 00000008
25568453 ns: DDR_AXI_HOST4(GPU) ReadStart Address 03608100 to Address 03608138 Size 3 Length 00000008
25571662 ns: DDR_AXI_HOST4(GPU) ReadStart Address 03608140 to Address 03608178 Size 3 Length 00000008
25573478 ns: DDR_AXI_HOST4(GPU) ReadStart Address 03608300 to Address 03608338 Size 3 Length 00000008
25574900 ns: DDR_AXI_HOST4(GPU) ReadStart Address 03608340 to Address 03608378 Size 3 Length 00000008
25579269 ns: DDR_AXI_HOST4(GPU) ReadStart Address 03608500 to Address 03608538 Size 3 Length 00000008
25581766 ns: DDR_AXI_HOST4(GPU) ReadStart Address 03608540 to Address 03608578 Size 3 Length 00000008
25582562 ns: DDR_AXI_HOST4(GPU) ReadStart Address 03608700 to Address 03608738 Size 3 Length 00000008
25585050 ns: DDR_AXI_HOST4(GPU) ReadStart Address 03608740 to Address 03608778 Size 3 Length 00000008
25588557 ns: DDR_AXI_HOST4(GPU) ReadStart Address 03608900 to Address 03608938 Size 3 Length 00000008
25588677 ns: DDR_AXI_HOST4(GPU) ReadStart Address 03608940 to Address 03608978 Size 3 Length 00000008
25592124 ns: DDR_AXI_HOST4(GPU) ReadStart Address 03608b00 to Address 03608b38 Size 3 Length 00000008
25594647 ns: DDR_AXI_HOST4(GPU) ReadStart Address 03608b40 to Address 03608b78 Size 3 Length 00000008
25597756 ns: DDR_AXI_HOST4(GPU) ReadStart Address 03608d00 to Address 03608d38 Size 3 Length 00000008
25598244 ns: DDR_AXI_HOST4(GPU) ReadStart Address 03608d40 to Address 03608d78 Size 3 Length 00000008
25601970 ns: DDR_AXI_HOST4(GPU) ReadStart Address 03608f00 to Address 03608f38 Size 3 Length 00000008
25604264 ns: DDR_AXI_HOST4(GPU) ReadStart Address 03608f40 to Address 03608f78 Size 3 Length 00000008
25607010 ns: DDR_AXI_HOST4(GPU) ReadStart Address 0360c100 to Address 0360c138 Size 3 Length 00000008
25607806 ns: DDR_AXI_HOST4(GPU) ReadStart Address 0360c140 to Address 0360c178 Size 3 Length 00000008
25612075 ns: DDR_AXI_HOST4(GPU) ReadStart Address 0360c300 to Address 0360c338 Size 3 Length 00000008
25613393 ns: DDR_AXI_HOST4(GPU) ReadStart Address 0360c340 to Address 0360c378 Size 3 Length 00000008
25615587 ns: DDR_AXI_HOST4(GPU) ReadStart Address 0360c500 to Address 0360c538 Size 3 Length 00000008
25617373 ns: DDR_AXI_HOST4(GPU) ReadStart Address 0360c540 to Address 0360c578 Size 3 Length 00000008
25617980 ns: DDR_AXI_HOST4(GPU) ReadStart Address 0360c700 to Address 0360c738 Size 3 Length 00000008
25622194 ns: DDR_AXI_HOST4(GPU) ReadStart Address 0360c740 to Address 0360c778 Size 3 Length 00000008
25624791 ns: DDR_AXI_HOST4(GPU) ReadStart Address 0360c900 to Address 0360c938 Size 3 Length 00000008
25627234 ns: DDR_AXI_HOST4(GPU) ReadStart Address 0360c940 to Address 0360c978 Size 3 Length 00000008
25628030 ns: DDR_AXI_HOST4(GPU) ReadStart Address 0360cb00 to Address 0360cb38 Size 3 Length 00000008
25630906 ns: DDR_AXI_HOST4(GPU) ReadStart Address 0360cb40 to Address 0360cb78 Size 3 Length 00000008
25634145 ns: DDR_AXI_HOST4(GPU) ReadStart Address 0360cd00 to Address 0360cd38 Size 3 Length 00000008
25636418 ns: DDR_AXI_HOST4(GPU) ReadStart Address 0360cd40 to Address 0360cd78 Size 3 Length 00000008
25637597 ns: DDR_AXI_HOST4(GPU) ReadStart Address 0360cf00 to Address 0360cf38 Size 3 Length 00000008
25640473 ns: DDR_AXI_HOST4(GPU) ReadStart Address 0360cf40 to Address 0360cf78 Size 3 Length 00000008
25643712 ns: DDR_AXI_HOST4(GPU) ReadStart Address 03610100 to Address 03610138 Size 3 Length 00000008
25645498 ns: DDR_AXI_HOST4(GPU) ReadStart Address 03610140 to Address 03610178 Size 3 Length 00000008
25647443 ns: DDR_AXI_HOST4(GPU) ReadStart Address 03610300 to Address 03610338 Size 3 Length 00000008
25650523 ns: DDR_AXI_HOST4(GPU) ReadStart Address 03610340 to Address 03610378 Size 3 Length 00000008
25652792 ns: DDR_AXI_HOST4(GPU) ReadStart Address 03610500 to Address 03610538 Size 3 Length 00000008
25653881 ns: DDR_AXI_HOST4(GPU) ReadStart Address 03610540 to Address 03610578 Size 3 Length 00000008
25656518 ns: DDR_AXI_HOST4(GPU) ReadStart Address 03610700 to Address 03610738 Size 3 Length 00000008
25657697 ns: DDR_AXI_HOST4(GPU) ReadStart Address 03610740 to Address 03610778 Size 3 Length 00000008
25661060 ns: DDR_AXI_HOST4(GPU) ReadStart Address 03610900 to Address 03610938 Size 3 Length 00000008
25663802 ns: DDR_AXI_HOST4(GPU) ReadStart Address 03610940 to Address 03610978 Size 3 Length 00000008
25666687 ns: DDR_AXI_HOST4(GPU) ReadStart Address 03610b00 to Address 03610b38 Size 3 Length 00000008
25667662 ns: DDR_AXI_HOST4(GPU) ReadStart Address 03610b40 to Address 03610b78 Size 3 Length 00000008
25671110 ns: DDR_AXI_HOST4(GPU) ReadStart Address 03610d00 to Address 03610d38 Size 3 Length 00000008
25673498 ns: DDR_AXI_HOST4(GPU) ReadStart Address 03610d40 to Address 03610d78 Size 3 Length 00000008
25676618 ns: DDR_AXI_HOST4(GPU) ReadStart Address 03610f00 to Address 03610f38 Size 3 Length 00000008
25677767 ns: DDR_AXI_HOST4(GPU) ReadStart Address 03610f40 to Address 03610f78 Size 3 Length 00000008
