0
2647
10119
15129
19179
22055
26110
32224
36159
41791
45468
50871
54597
59140
65677
68702
74334
78389
83428
88493
91682
94558
101369
104608
110374
114175
120289
123862
128941
133966
138120
144081
1868030
1869970
1870905
1878134
1879657
1884806
1886105
1891612
1894005
1895861
1900955
1903433
1908478
1910413
1916050
1916985
1922493
1924398
1935055
1938787
1944015
1947861
1954264
1957911
1961971
1967598
1972021
1977046
1980891
1985916
1990941
1994513
2000508
2003384
2010195
2012946
2017180
2022638
2026359
2032782
2035927
2040469
2046464
2050046
2055663
2059389
2065230
2069439
2073494
2075887
2082922
2085937
2091693
2095569
2101619
2104858
2109883
2115778
2118967
2124594
2129017
2134042
2138579
2144092
2147450
2150331
2157624
2162166
2164435
2170067
2174002
2180117
2183356
2188381
2194172
2197465
2203460
2207027
2212659
2216873
2221913
2226978
2230490
2232883
2239694
2242933
2249048
2252500
2258615
2262346
2267695
2271421
2275963
2281590
2286013
2291521
