29349383 ns: DDR_AXI_HOST4(GPU) ReadStart Address 0358d080 to Address 0358d0b8 Size 3 Length 00000008
29350682 ns: DDR_AXI_HOST4(GPU) ReadStart Address 0358d0c0 to Address 0358d0f8 Size 3 Length 00000008
29351533 ns: DDR_AXI_HOST4(GPU) ReadStart Address 0358d280 to Address 0358d2b8 Size 3 Length 00000008
29352503 ns: DDR_AXI_HOST4(GPU) ReadStart Address 0358d2c0 to Address 0358d2f8 Size 3 Length 00000008
29366364 ns: DDR_AXI_HOST4(GPU) ReadStart Address 0358e080 to Address 0358e0b8 Size 3 Length 00000008
29367334 ns: DDR_AXI_HOST4(GPU) ReadStart Address 0358e0c0 to Address 0358e0f8 Size 3 Length 00000008
29368513 ns: DDR_AXI_HOST4(GPU) ReadStart Address 0358e280 to Address 0358e2b8 Size 3 Length 00000008
29369483 ns: DDR_AXI_HOST4(GPU) ReadStart Address 0358e2c0 to Address 0358e2f8 Size 3 Length 00000008
29383573 ns: DDR_AXI_HOST4(GPU) ReadStart Address 0358f080 to Address 0358f0b8 Size 3 Length 00000008
29384319 ns: DDR_AXI_HOST4(GPU) ReadStart Address 0358f0c0 to Address 0358f0f8 Size 3 Length 00000008
29385289 ns: DDR_AXI_HOST4(GPU) ReadStart Address 0358f280 to Address 0358f2b8 Size 3 Length 00000008
29386468 ns: DDR_AXI_HOST4(GPU) ReadStart Address 0358f2c0 to Address 0358f2f8 Size 3 Length 00000008
29408837 ns: DDR_AXI_HOST4(GPU) ReadStart Address 0358d480 to Address 0358d4b8 Size 3 Length 00000008
29409687 ns: DDR_AXI_HOST4(GPU) ReadStart Address 0358d4c0 to Address 0358d4f8 Size 3 Length 00000008
29410658 ns: DDR_AXI_HOST4(GPU) ReadStart Address 0358d680 to Address 0358d6b8 Size 3 Length 00000008
29411837 ns: DDR_AXI_HOST4(GPU) ReadStart Address 0358d6c0 to Address 0358d6f8 Size 3 Length 00000008
29425489 ns: DDR_AXI_HOST4(GPU) ReadStart Address 0358e480 to Address 0358e4b8 Size 3 Length 00000008
29426668 ns: DDR_AXI_HOST4(GPU) ReadStart Address 0358e4c0 to Address 0358e4f8 Size 3 Length 00000008
29427638 ns: DDR_AXI_HOST4(GPU) ReadStart Address 0358e680 to Address 0358e6b8 Size 3 Length 00000008
29429046 ns: DDR_AXI_HOST4(GPU) ReadStart Address 0358e6c0 to Address 0358e6f8 Size 3 Length 00000008
29442474 ns: DDR_AXI_HOST4(GPU) ReadStart Address 0358f480 to Address 0358f4b8 Size 3 Length 00000008
29443444 ns: DDR_AXI_HOST4(GPU) ReadStart Address 0358f4c0 to Address 0358f4f8 Size 3 Length 00000008
29444623 ns: DDR_AXI_HOST4(GPU) ReadStart Address 0358f680 to Address 0358f6b8 Size 3 Length 00000008
29445593 ns: DDR_AXI_HOST4(GPU) ReadStart Address 0358f6c0 to Address 0358f6f8 Size 3 Length 00000008
29467842 ns: DDR_AXI_HOST4(GPU) ReadStart Address 0358d880 to Address 0358d8b8 Size 3 Length 00000008
29468812 ns: DDR_AXI_HOST4(GPU) ReadStart Address 0358d8c0 to Address 0358d8f8 Size 3 Length 00000008
29469991 ns: DDR_AXI_HOST4(GPU) ReadStart Address 0358da80 to Address 0358dab8 Size 3 Length 00000008
29470961 ns: DDR_AXI_HOST4(GPU) ReadStart Address 0358dac0 to Address 0358daf8 Size 3 Length 00000008
29484822 ns: DDR_AXI_HOST4(GPU) ReadStart Address 0358e880 to Address 0358e8b8 Size 3 Length 00000008
29485792 ns: DDR_AXI_HOST4(GPU) ReadStart Address 0358e8c0 to Address 0358e8f8 Size 3 Length 00000008
29487200 ns: DDR_AXI_HOST4(GPU) ReadStart Address 0358ea80 to Address 0358eab8 Size 3 Length 00000008
29487942 ns: DDR_AXI_HOST4(GPU) ReadStart Address 0358eac0 to Address 0358eaf8 Size 3 Length 00000008
29501599 ns: DDR_AXI_HOST4(GPU) ReadStart Address 0358f880 to Address 0358f8b8 Size 3 Length 00000008
29502778 ns: DDR_AXI_HOST4(GPU) ReadStart Address 0358f8c0 to Address 0358f8f8 Size 3 Length 00000008
29503743 ns: DDR_AXI_HOST4(GPU) ReadStart Address 0358fa80 to Address 0358fab8 Size 3 Length 00000008
29504942 ns: DDR_AXI_HOST4(GPU) ReadStart Address 0358fac0 to Address 0358faf8 Size 3 Length 00000008
29526967 ns: DDR_AXI_HOST4(GPU) ReadStart Address 0358dc80 to Address 0358dcb8 Size 3 Length 00000008
29528146 ns: DDR_AXI_HOST4(GPU) ReadStart Address 0358dcc0 to Address 0358dcf8 Size 3 Length 00000008
29529116 ns: DDR_AXI_HOST4(GPU) ReadStart Address 0358de80 to Address 0358deb8 Size 3 Length 00000008
29530295 ns: DDR_AXI_HOST4(GPU) ReadStart Address 0358dec0 to Address 0358def8 Size 3 Length 00000008
29543947 ns: DDR_AXI_HOST4(GPU) ReadStart Address 0358ec80 to Address 0358ecb8 Size 3 Length 00000008
29545355 ns: DDR_AXI_HOST4(GPU) ReadStart Address 0358ecc0 to Address 0358ecf8 Size 3 Length 00000008
29546096 ns: DDR_AXI_HOST4(GPU) ReadStart Address 0358ee80 to Address 0358eeb8 Size 3 Length 00000008
29547067 ns: DDR_AXI_HOST4(GPU) ReadStart Address 0358eec0 to Address 0358eef8 Size 3 Length 00000008
29560932 ns: DDR_AXI_HOST4(GPU) ReadStart Address 0358fc80 to Address 0358fcb8 Size 3 Length 00000008
29561898 ns: DDR_AXI_HOST4(GPU) ReadStart Address 0358fcc0 to Address 0358fcf8 Size 3 Length 00000008
29563077 ns: DDR_AXI_HOST4(GPU) ReadStart Address 0358fe80 to Address 0358feb8 Size 3 Length 00000008
29564047 ns: DDR_AXI_HOST4(GPU) ReadStart Address 0358fec0 to Address 0358fef8 Size 3 Length 00000008
29586783 ns: DDR_AXI_HOST4(GPU) ReadStart Address 03591080 to Address 035910b8 Size 3 Length 00000008
29587271 ns: DDR_AXI_HOST4(GPU) ReadStart Address 035910c0 to Address 035910f8 Size 3 Length 00000008
29588933 ns: DDR_AXI_HOST4(GPU) ReadStart Address 03591280 to Address 035912b8 Size 3 Length 00000008
29589903 ns: DDR_AXI_HOST4(GPU) ReadStart Address 035912c0 to Address 035912f8 Size 3 Length 00000008
29603769 ns: DDR_AXI_HOST4(GPU) ReadStart Address 03592080 to Address 035920b8 Size 3 Length 00000008
29604734 ns: DDR_AXI_HOST4(GPU) ReadStart Address 035920c0 to Address 035920f8 Size 3 Length 00000008
29606037 ns: DDR_AXI_HOST4(GPU) ReadStart Address 03592280 to Address 035922b8 Size 3 Length 00000008
29606883 ns: DDR_AXI_HOST4(GPU) ReadStart Address 035922c0 to Address 035922f8 Size 3 Length 00000008
29620540 ns: DDR_AXI_HOST4(GPU) ReadStart Address 03593080 to Address 035930b8 Size 3 Length 00000008
29621719 ns: DDR_AXI_HOST4(GPU) ReadStart Address 035930c0 to Address 035930f8 Size 3 Length 00000008
29622689 ns: DDR_AXI_HOST4(GPU) ReadStart Address 03593280 to Address 035932b8 Size 3 Length 00000008
29623868 ns: DDR_AXI_HOST4(GPU) ReadStart Address 035932c0 to Address 035932f8 Size 3 Length 00000008
29646451 ns: DDR_AXI_HOST4(GPU) ReadStart Address 03591480 to Address 035914b8 Size 3 Length 00000008
29646605 ns: DDR_AXI_HOST4(GPU) ReadStart Address 035914c0 to Address 035914f8 Size 3 Length 00000008
29648057 ns: DDR_AXI_HOST4(GPU) ReadStart Address 03591680 to Address 035916b8 Size 3 Length 00000008
29649237 ns: DDR_AXI_HOST4(GPU) ReadStart Address 035916c0 to Address 035916f8 Size 3 Length 00000008
29662888 ns: DDR_AXI_HOST4(GPU) ReadStart Address 03592480 to Address 035924b8 Size 3 Length 00000008
29664137 ns: DDR_AXI_HOST4(GPU) ReadStart Address 035924c0 to Address 035924f8 Size 3 Length 00000008
29665038 ns: DDR_AXI_HOST4(GPU) ReadStart Address 03592680 to Address 035926b8 Size 3 Length 00000008
29666008 ns: DDR_AXI_HOST4(GPU) ReadStart Address 035926c0 to Address 035926f8 Size 3 Length 00000008
29679874 ns: DDR_AXI_HOST4(GPU) ReadStart Address 03593480 to Address 035934b8 Size 3 Length 00000008
29680844 ns: DDR_AXI_HOST4(GPU) ReadStart Address 035934c0 to Address 035934f8 Size 3 Length 00000008
29682023 ns: DDR_AXI_HOST4(GPU) ReadStart Address 03593680 to Address 035936b8 Size 3 Length 00000008
29682993 ns: DDR_AXI_HOST4(GPU) ReadStart Address 035936c0 to Address 035936f8 Size 3 Length 00000008
29705242 ns: DDR_AXI_HOST4(GPU) ReadStart Address 03591880 to Address 035918b8 Size 3 Length 00000008
29706212 ns: DDR_AXI_HOST4(GPU) ReadStart Address 035918c0 to Address 035918f8 Size 3 Length 00000008
29707391 ns: DDR_AXI_HOST4(GPU) ReadStart Address 03591a80 to Address 03591ab8 Size 3 Length 00000008
29708361 ns: DDR_AXI_HOST4(GPU) ReadStart Address 03591ac0 to Address 03591af8 Size 3 Length 00000008
29722292 ns: DDR_AXI_HOST4(GPU) ReadStart Address 03592880 to Address 035928b8 Size 3 Length 00000008
29723192 ns: DDR_AXI_HOST4(GPU) ReadStart Address 035928c0 to Address 035928f8 Size 3 Length 00000008
29724162 ns: DDR_AXI_HOST4(GPU) ReadStart Address 03592a80 to Address 03592ab8 Size 3 Length 00000008
29725342 ns: DDR_AXI_HOST4(GPU) ReadStart Address 03592ac0 to Address 03592af8 Size 3 Length 00000008
29738998 ns: DDR_AXI_HOST4(GPU) ReadStart Address 03593880 to Address 035938b8 Size 3 Length 00000008
29740178 ns: DDR_AXI_HOST4(GPU) ReadStart Address 035938c0 to Address 035938f8 Size 3 Length 00000008
29741148 ns: DDR_AXI_HOST4(GPU) ReadStart Address 03593a80 to Address 03593ab8 Size 3 Length 00000008
29742501 ns: DDR_AXI_HOST4(GPU) ReadStart Address 03593ac0 to Address 03593af8 Size 3 Length 00000008
29764367 ns: DDR_AXI_HOST4(GPU) ReadStart Address 03591c80 to Address 03591cb8 Size 3 Length 00000008
29765546 ns: DDR_AXI_HOST4(GPU) ReadStart Address 03591cc0 to Address 03591cf8 Size 3 Length 00000008
29766516 ns: DDR_AXI_HOST4(GPU) ReadStart Address 03591e80 to Address 03591eb8 Size 3 Length 00000008
29767815 ns: DDR_AXI_HOST4(GPU) ReadStart Address 03591ec0 to Address 03591ef8 Size 3 Length 00000008
29781347 ns: DDR_AXI_HOST4(GPU) ReadStart Address 03592c80 to Address 03592cb8 Size 3 Length 00000008
29782317 ns: DDR_AXI_HOST4(GPU) ReadStart Address 03592cc0 to Address 03592cf8 Size 3 Length 00000008
29783496 ns: DDR_AXI_HOST4(GPU) ReadStart Address 03592e80 to Address 03592eb8 Size 3 Length 00000008
29784466 ns: DDR_AXI_HOST4(GPU) ReadStart Address 03592ec0 to Address 03592ef8 Size 3 Length 00000008
29798332 ns: DDR_AXI_HOST4(GPU) ReadStart Address 03593c80 to Address 03593cb8 Size 3 Length 00000008
29799302 ns: DDR_AXI_HOST4(GPU) ReadStart Address 03593cc0 to Address 03593cf8 Size 3 Length 00000008
29800656 ns: DDR_AXI_HOST4(GPU) ReadStart Address 03593e80 to Address 03593eb8 Size 3 Length 00000008
29801452 ns: DDR_AXI_HOST4(GPU) ReadStart Address 03593ec0 to Address 03593ef8 Size 3 Length 00000008
29824183 ns: DDR_AXI_HOST4(GPU) ReadStart Address 03595080 to Address 035950b8 Size 3 Length 00000008
29825153 ns: DDR_AXI_HOST4(GPU) ReadStart Address 035950c0 to Address 035950f8 Size 3 Length 00000008
29826333 ns: DDR_AXI_HOST4(GPU) ReadStart Address 03595280 to Address 035952b8 Size 3 Length 00000008
29827303 ns: DDR_AXI_HOST4(GPU) ReadStart Address 035952c0 to Address 035952f8 Size 3 Length 00000008
29841169 ns: DDR_AXI_HOST4(GPU) ReadStart Address 03596080 to Address 035960b8 Size 3 Length 00000008
29842139 ns: DDR_AXI_HOST4(GPU) ReadStart Address 035960c0 to Address 035960f8 Size 3 Length 00000008
29843596 ns: DDR_AXI_HOST4(GPU) ReadStart Address 03596280 to Address 035962b8 Size 3 Length 00000008
29844288 ns: DDR_AXI_HOST4(GPU) ReadStart Address 035962c0 to Address 035962f8 Size 3 Length 00000008
29857940 ns: DDR_AXI_HOST4(GPU) ReadStart Address 03597080 to Address 035970b8 Size 3 Length 00000008
29859119 ns: DDR_AXI_HOST4(GPU) ReadStart Address 035970c0 to Address 035970f8 Size 3 Length 00000008
29860089 ns: DDR_AXI_HOST4(GPU) ReadStart Address 03597280 to Address 035972b8 Size 3 Length 00000008
29861338 ns: DDR_AXI_HOST4(GPU) ReadStart Address 035972c0 to Address 035972f8 Size 3 Length 00000008
29883308 ns: DDR_AXI_HOST4(GPU) ReadStart Address 03595480 to Address 035954b8 Size 3 Length 00000008
29884487 ns: DDR_AXI_HOST4(GPU) ReadStart Address 035954c0 to Address 035954f8 Size 3 Length 00000008
29885457 ns: DDR_AXI_HOST4(GPU) ReadStart Address 03595680 to Address 035956b8 Size 3 Length 00000008
29886636 ns: DDR_AXI_HOST4(GPU) ReadStart Address 035956c0 to Address 035956f8 Size 3 Length 00000008
29900293 ns: DDR_AXI_HOST4(GPU) ReadStart Address 03596480 to Address 035964b8 Size 3 Length 00000008
29901751 ns: DDR_AXI_HOST4(GPU) ReadStart Address 035964c0 to Address 035964f8 Size 3 Length 00000008
29902443 ns: DDR_AXI_HOST4(GPU) ReadStart Address 03596680 to Address 035966b8 Size 3 Length 00000008
29903408 ns: DDR_AXI_HOST4(GPU) ReadStart Address 035966c0 to Address 035966f8 Size 3 Length 00000008
29917274 ns: DDR_AXI_HOST4(GPU) ReadStart Address 03597480 to Address 035974b8 Size 3 Length 00000008
29918244 ns: DDR_AXI_HOST4(GPU) ReadStart Address 035974c0 to Address 035974f8 Size 3 Length 00000008
29919492 ns: DDR_AXI_HOST4(GPU) ReadStart Address 03597680 to Address 035976b8 Size 3 Length 00000008
29920393 ns: DDR_AXI_HOST4(GPU) ReadStart Address 035976c0 to Address 035976f8 Size 3 Length 00000008
29942642 ns: DDR_AXI_HOST4(GPU) ReadStart Address 03595880 to Address 035958b8 Size 3 Length 00000008
29943612 ns: DDR_AXI_HOST4(GPU) ReadStart Address 035958c0 to Address 035958f8 Size 3 Length 00000008
29944791 ns: DDR_AXI_HOST4(GPU) ReadStart Address 03595a80 to Address 03595ab8 Size 3 Length 00000008
29945761 ns: DDR_AXI_HOST4(GPU) ReadStart Address 03595ac0 to Address 03595af8 Size 3 Length 00000008
29959906 ns: DDR_AXI_HOST4(GPU) ReadStart Address 03596880 to Address 035968b8 Size 3 Length 00000008
29960597 ns: DDR_AXI_HOST4(GPU) ReadStart Address 035968c0 to Address 035968f8 Size 3 Length 00000008
29961562 ns: DDR_AXI_HOST4(GPU) ReadStart Address 03596a80 to Address 03596ab8 Size 3 Length 00000008
29962742 ns: DDR_AXI_HOST4(GPU) ReadStart Address 03596ac0 to Address 03596af8 Size 3 Length 00000008
29976398 ns: DDR_AXI_HOST4(GPU) ReadStart Address 03597880 to Address 035978b8 Size 3 Length 00000008
29977592 ns: DDR_AXI_HOST4(GPU) ReadStart Address 035978c0 to Address 035978f8 Size 3 Length 00000008
29978548 ns: DDR_AXI_HOST4(GPU) ReadStart Address 03597a80 to Address 03597ab8 Size 3 Length 00000008
29979518 ns: DDR_AXI_HOST4(GPU) ReadStart Address 03597ac0 to Address 03597af8 Size 3 Length 00000008
30001284 ns: DDR_AXI_HOST4(GPU) ReadStart Address 03595c80 to Address 03595cb8 Size 3 Length 00000008
30002946 ns: DDR_AXI_HOST4(GPU) ReadStart Address 03595cc0 to Address 03595cf8 Size 3 Length 00000008
30003916 ns: DDR_AXI_HOST4(GPU) ReadStart Address 03595e80 to Address 03595eb8 Size 3 Length 00000008
30005374 ns: DDR_AXI_HOST4(GPU) ReadStart Address 03595ec0 to Address 03595ef8 Size 3 Length 00000008
30018747 ns: DDR_AXI_HOST4(GPU) ReadStart Address 03596c80 to Address 03596cb8 Size 3 Length 00000008
30019717 ns: DDR_AXI_HOST4(GPU) ReadStart Address 03596cc0 to Address 03596cf8 Size 3 Length 00000008
30020896 ns: DDR_AXI_HOST4(GPU) ReadStart Address 03596e80 to Address 03596eb8 Size 3 Length 00000008
30021866 ns: DDR_AXI_HOST4(GPU) ReadStart Address 03596ec0 to Address 03596ef8 Size 3 Length 00000008
30035747 ns: DDR_AXI_HOST4(GPU) ReadStart Address 03597c80 to Address 03597cb8 Size 3 Length 00000008
30036702 ns: DDR_AXI_HOST4(GPU) ReadStart Address 03597cc0 to Address 03597cf8 Size 3 Length 00000008
30038215 ns: DDR_AXI_HOST4(GPU) ReadStart Address 03597e80 to Address 03597eb8 Size 3 Length 00000008
30038852 ns: DDR_AXI_HOST4(GPU) ReadStart Address 03597ec0 to Address 03597ef8 Size 3 Length 00000008
30061583 ns: DDR_AXI_HOST4(GPU) ReadStart Address 03599080 to Address 035990b8 Size 3 Length 00000008
30062553 ns: DDR_AXI_HOST4(GPU) ReadStart Address 035990c0 to Address 035990f8 Size 3 Length 00000008
30063732 ns: DDR_AXI_HOST4(GPU) ReadStart Address 03599280 to Address 035992b8 Size 3 Length 00000008
30064703 ns: DDR_AXI_HOST4(GPU) ReadStart Address 035992c0 to Address 035992f8 Size 3 Length 00000008
30078688 ns: DDR_AXI_HOST4(GPU) ReadStart Address 0359a080 to Address 0359a0b8 Size 3 Length 00000008
30079538 ns: DDR_AXI_HOST4(GPU) ReadStart Address 0359a0c0 to Address 0359a0f8 Size 3 Length 00000008
30080509 ns: DDR_AXI_HOST4(GPU) ReadStart Address 0359a280 to Address 0359a2b8 Size 3 Length 00000008
30081688 ns: DDR_AXI_HOST4(GPU) ReadStart Address 0359a2c0 to Address 0359a2f8 Size 3 Length 00000008
30095340 ns: DDR_AXI_HOST4(GPU) ReadStart Address 0359b080 to Address 0359b0b8 Size 3 Length 00000008
30096519 ns: DDR_AXI_HOST4(GPU) ReadStart Address 0359b0c0 to Address 0359b0f8 Size 3 Length 00000008
30097489 ns: DDR_AXI_HOST4(GPU) ReadStart Address 0359b280 to Address 0359b2b8 Size 3 Length 00000008
30098897 ns: DDR_AXI_HOST4(GPU) ReadStart Address 0359b2c0 to Address 0359b2f8 Size 3 Length 00000008
30120708 ns: DDR_AXI_HOST4(GPU) ReadStart Address 03599480 to Address 035994b8 Size 3 Length 00000008
30121887 ns: DDR_AXI_HOST4(GPU) ReadStart Address 035994c0 to Address 035994f8 Size 3 Length 00000008
30122857 ns: DDR_AXI_HOST4(GPU) ReadStart Address 03599680 to Address 035996b8 Size 3 Length 00000008
30124210 ns: DDR_AXI_HOST4(GPU) ReadStart Address 035996c0 to Address 035996f8 Size 3 Length 00000008
30137693 ns: DDR_AXI_HOST4(GPU) ReadStart Address 0359a480 to Address 0359a4b8 Size 3 Length 00000008
30138663 ns: DDR_AXI_HOST4(GPU) ReadStart Address 0359a4c0 to Address 0359a4f8 Size 3 Length 00000008
30139842 ns: DDR_AXI_HOST4(GPU) ReadStart Address 0359a680 to Address 0359a6b8 Size 3 Length 00000008
30140813 ns: DDR_AXI_HOST4(GPU) ReadStart Address 0359a6c0 to Address 0359a6f8 Size 3 Length 00000008
30154673 ns: DDR_AXI_HOST4(GPU) ReadStart Address 0359b480 to Address 0359b4b8 Size 3 Length 00000008
30155644 ns: DDR_AXI_HOST4(GPU) ReadStart Address 0359b4c0 to Address 0359b4f8 Size 3 Length 00000008
30157052 ns: DDR_AXI_HOST4(GPU) ReadStart Address 0359b680 to Address 0359b6b8 Size 3 Length 00000008
30157793 ns: DDR_AXI_HOST4(GPU) ReadStart Address 0359b6c0 to Address 0359b6f8 Size 3 Length 00000008
30180042 ns: DDR_AXI_HOST4(GPU) ReadStart Address 03599880 to Address 035998b8 Size 3 Length 00000008
30181012 ns: DDR_AXI_HOST4(GPU) ReadStart Address 035998c0 to Address 035998f8 Size 3 Length 00000008
30182365 ns: DDR_AXI_HOST4(GPU) ReadStart Address 03599a80 to Address 03599ab8 Size 3 Length 00000008
30183161 ns: DDR_AXI_HOST4(GPU) ReadStart Address 03599ac0 to Address 03599af8 Size 3 Length 00000008
30196818 ns: DDR_AXI_HOST4(GPU) ReadStart Address 0359a880 to Address 0359a8b8 Size 3 Length 00000008
30197997 ns: DDR_AXI_HOST4(GPU) ReadStart Address 0359a8c0 to Address 0359a8f8 Size 3 Length 00000008
30198967 ns: DDR_AXI_HOST4(GPU) ReadStart Address 0359aa80 to Address 0359aab8 Size 3 Length 00000008
30200146 ns: DDR_AXI_HOST4(GPU) ReadStart Address 0359aac0 to Address 0359aaf8 Size 3 Length 00000008
30213798 ns: DDR_AXI_HOST4(GPU) ReadStart Address 0359b880 to Address 0359b8b8 Size 3 Length 00000008
30215206 ns: DDR_AXI_HOST4(GPU) ReadStart Address 0359b8c0 to Address 0359b8f8 Size 3 Length 00000008
30215948 ns: DDR_AXI_HOST4(GPU) ReadStart Address 0359ba80 to Address 0359bab8 Size 3 Length 00000008
30216918 ns: DDR_AXI_HOST4(GPU) ReadStart Address 0359bac0 to Address 0359baf8 Size 3 Length 00000008
30239167 ns: DDR_AXI_HOST4(GPU) ReadStart Address 03599c80 to Address 03599cb8 Size 3 Length 00000008
30240470 ns: DDR_AXI_HOST4(GPU) ReadStart Address 03599cc0 to Address 03599cf8 Size 3 Length 00000008
30241316 ns: DDR_AXI_HOST4(GPU) ReadStart Address 03599e80 to Address 03599eb8 Size 3 Length 00000008
30242286 ns: DDR_AXI_HOST4(GPU) ReadStart Address 03599ec0 to Address 03599ef8 Size 3 Length 00000008
30256152 ns: DDR_AXI_HOST4(GPU) ReadStart Address 0359ac80 to Address 0359acb8 Size 3 Length 00000008
30257122 ns: DDR_AXI_HOST4(GPU) ReadStart Address 0359acc0 to Address 0359acf8 Size 3 Length 00000008
30258301 ns: DDR_AXI_HOST4(GPU) ReadStart Address 0359ae80 to Address 0359aeb8 Size 3 Length 00000008
30259271 ns: DDR_AXI_HOST4(GPU) ReadStart Address 0359aec0 to Address 0359aef8 Size 3 Length 00000008
30273361 ns: DDR_AXI_HOST4(GPU) ReadStart Address 0359bc80 to Address 0359bcb8 Size 3 Length 00000008
30274102 ns: DDR_AXI_HOST4(GPU) ReadStart Address 0359bcc0 to Address 0359bcf8 Size 3 Length 00000008
30275072 ns: DDR_AXI_HOST4(GPU) ReadStart Address 0359be80 to Address 0359beb8 Size 3 Length 00000008
30276252 ns: DDR_AXI_HOST4(GPU) ReadStart Address 0359bec0 to Address 0359bef8 Size 3 Length 00000008
31108308 ns: DDR_AXI_HOST4(GPU) ReadStart Address 035b4080 to Address 035b40b8 Size 3 Length 00000008
31108761 ns: DDR_AXI_HOST4(GPU) ReadStart Address 035b40c0 to Address 035b40f8 Size 3 Length 00000008
31109243 ns: DDR_AXI_HOST4(GPU) ReadStart Address 035b4280 to Address 035b42b8 Size 3 Length 00000008
31110059 ns: DDR_AXI_HOST4(GPU) ReadStart Address 035b42c0 to Address 035b42f8 Size 3 Length 00000008
31123592 ns: DDR_AXI_HOST4(GPU) ReadStart Address 035b5080 to Address 035b50b8 Size 3 Length 00000008
31124562 ns: DDR_AXI_HOST4(GPU) ReadStart Address 035b50c0 to Address 035b50f8 Size 3 Length 00000008
31125741 ns: DDR_AXI_HOST4(GPU) ReadStart Address 035b5280 to Address 035b52b8 Size 3 Length 00000008
31126711 ns: DDR_AXI_HOST4(GPU) ReadStart Address 035b52c0 to Address 035b52f8 Size 3 Length 00000008
31140577 ns: DDR_AXI_HOST4(GPU) ReadStart Address 035b6080 to Address 035b60b8 Size 3 Length 00000008
31141547 ns: DDR_AXI_HOST4(GPU) ReadStart Address 035b60c0 to Address 035b60f8 Size 3 Length 00000008
31142900 ns: DDR_AXI_HOST4(GPU) ReadStart Address 035b6280 to Address 035b62b8 Size 3 Length 00000008
31143696 ns: DDR_AXI_HOST4(GPU) ReadStart Address 035b62c0 to Address 035b62f8 Size 3 Length 00000008
31157348 ns: DDR_AXI_HOST4(GPU) ReadStart Address 035b7080 to Address 035b70b8 Size 3 Length 00000008
31158527 ns: DDR_AXI_HOST4(GPU) ReadStart Address 035b70c0 to Address 035b70f8 Size 3 Length 00000008
31159497 ns: DDR_AXI_HOST4(GPU) ReadStart Address 035b7280 to Address 035b72b8 Size 3 Length 00000008
31160677 ns: DDR_AXI_HOST4(GPU) ReadStart Address 035b72c0 to Address 035b72f8 Size 3 Length 00000008
31174333 ns: DDR_AXI_HOST4(GPU) ReadStart Address 035b4480 to Address 035b44b8 Size 3 Length 00000008
31175736 ns: DDR_AXI_HOST4(GPU) ReadStart Address 035b44c0 to Address 035b44f8 Size 3 Length 00000008
31176483 ns: DDR_AXI_HOST4(GPU) ReadStart Address 035b4680 to Address 035b46b8 Size 3 Length 00000008
31177453 ns: DDR_AXI_HOST4(GPU) ReadStart Address 035b46c0 to Address 035b46f8 Size 3 Length 00000008
31191314 ns: DDR_AXI_HOST4(GPU) ReadStart Address 035b5480 to Address 035b54b8 Size 3 Length 00000008
31192284 ns: DDR_AXI_HOST4(GPU) ReadStart Address 035b54c0 to Address 035b54f8 Size 3 Length 00000008
31193478 ns: DDR_AXI_HOST4(GPU) ReadStart Address 035b5680 to Address 035b56b8 Size 3 Length 00000008
31194433 ns: DDR_AXI_HOST4(GPU) ReadStart Address 035b56c0 to Address 035b56f8 Size 3 Length 00000008
31208632 ns: DDR_AXI_HOST4(GPU) ReadStart Address 035b6480 to Address 035b64b8 Size 3 Length 00000008
31209269 ns: DDR_AXI_HOST4(GPU) ReadStart Address 035b64c0 to Address 035b64f8 Size 3 Length 00000008
31210234 ns: DDR_AXI_HOST4(GPU) ReadStart Address 035b6680 to Address 035b66b8 Size 3 Length 00000008
31211413 ns: DDR_AXI_HOST4(GPU) ReadStart Address 035b66c0 to Address 035b66f8 Size 3 Length 00000008
31225070 ns: DDR_AXI_HOST4(GPU) ReadStart Address 035b7480 to Address 035b74b8 Size 3 Length 00000008
31226319 ns: DDR_AXI_HOST4(GPU) ReadStart Address 035b74c0 to Address 035b74f8 Size 3 Length 00000008
31227219 ns: DDR_AXI_HOST4(GPU) ReadStart Address 035b7680 to Address 035b76b8 Size 3 Length 00000008
31228189 ns: DDR_AXI_HOST4(GPU) ReadStart Address 035b76c0 to Address 035b76f8 Size 3 Length 00000008
31242050 ns: DDR_AXI_HOST4(GPU) ReadStart Address 035b4880 to Address 035b48b8 Size 3 Length 00000008
31243020 ns: DDR_AXI_HOST4(GPU) ReadStart Address 035b48c0 to Address 035b48f8 Size 3 Length 00000008
31244200 ns: DDR_AXI_HOST4(GPU) ReadStart Address 035b4a80 to Address 035b4ab8 Size 3 Length 00000008
31245170 ns: DDR_AXI_HOST4(GPU) ReadStart Address 035b4ac0 to Address 035b4af8 Size 3 Length 00000008
31259210 ns: DDR_AXI_HOST4(GPU) ReadStart Address 035b5880 to Address 035b58b8 Size 3 Length 00000008
31260006 ns: DDR_AXI_HOST4(GPU) ReadStart Address 035b58c0 to Address 035b58f8 Size 3 Length 00000008
31260976 ns: DDR_AXI_HOST4(GPU) ReadStart Address 035b5a80 to Address 035b5ab8 Size 3 Length 00000008
31262155 ns: DDR_AXI_HOST4(GPU) ReadStart Address 035b5ac0 to Address 035b5af8 Size 3 Length 00000008
31275807 ns: DDR_AXI_HOST4(GPU) ReadStart Address 035b6880 to Address 035b68b8 Size 3 Length 00000008
31276986 ns: DDR_AXI_HOST4(GPU) ReadStart Address 035b68c0 to Address 035b68f8 Size 3 Length 00000008
31277956 ns: DDR_AXI_HOST4(GPU) ReadStart Address 035b6a80 to Address 035b6ab8 Size 3 Length 00000008
31279414 ns: DDR_AXI_HOST4(GPU) ReadStart Address 035b6ac0 to Address 035b6af8 Size 3 Length 00000008
31292792 ns: DDR_AXI_HOST4(GPU) ReadStart Address 035b7880 to Address 035b78b8 Size 3 Length 00000008
31293757 ns: DDR_AXI_HOST4(GPU) ReadStart Address 035b78c0 to Address 035b78f8 Size 3 Length 00000008
31294941 ns: DDR_AXI_HOST4(GPU) ReadStart Address 035b7a80 to Address 035b7ab8 Size 3 Length 00000008
31295906 ns: DDR_AXI_HOST4(GPU) ReadStart Address 035b7ac0 to Address 035b7af8 Size 3 Length 00000008
31309787 ns: DDR_AXI_HOST4(GPU) ReadStart Address 035b4c80 to Address 035b4cb8 Size 3 Length 00000008
31310742 ns: DDR_AXI_HOST4(GPU) ReadStart Address 035b4cc0 to Address 035b4cf8 Size 3 Length 00000008
31312255 ns: DDR_AXI_HOST4(GPU) ReadStart Address 035b4e80 to Address 035b4eb8 Size 3 Length 00000008
31312892 ns: DDR_AXI_HOST4(GPU) ReadStart Address 035b4ec0 to Address 035b4ef8 Size 3 Length 00000008
31326543 ns: DDR_AXI_HOST4(GPU) ReadStart Address 035b5c80 to Address 035b5cb8 Size 3 Length 00000008
31327723 ns: DDR_AXI_HOST4(GPU) ReadStart Address 035b5cc0 to Address 035b5cf8 Size 3 Length 00000008
31328693 ns: DDR_AXI_HOST4(GPU) ReadStart Address 035b5e80 to Address 035b5eb8 Size 3 Length 00000008
31329996 ns: DDR_AXI_HOST4(GPU) ReadStart Address 035b5ec0 to Address 035b5ef8 Size 3 Length 00000008
31343529 ns: DDR_AXI_HOST4(GPU) ReadStart Address 035b6c80 to Address 035b6cb8 Size 3 Length 00000008
31344499 ns: DDR_AXI_HOST4(GPU) ReadStart Address 035b6cc0 to Address 035b6cf8 Size 3 Length 00000008
31345678 ns: DDR_AXI_HOST4(GPU) ReadStart Address 035b6e80 to Address 035b6eb8 Size 3 Length 00000008
31346648 ns: DDR_AXI_HOST4(GPU) ReadStart Address 035b6ec0 to Address 035b6ef8 Size 3 Length 00000008
31360509 ns: DDR_AXI_HOST4(GPU) ReadStart Address 035b7c80 to Address 035b7cb8 Size 3 Length 00000008
31361479 ns: DDR_AXI_HOST4(GPU) ReadStart Address 035b7cc0 to Address 035b7cf8 Size 3 Length 00000008
31362832 ns: DDR_AXI_HOST4(GPU) ReadStart Address 035b7e80 to Address 035b7eb8 Size 3 Length 00000008
31363628 ns: DDR_AXI_HOST4(GPU) ReadStart Address 035b7ec0 to Address 035b7ef8 Size 3 Length 00000008
