542088 ns: DDR_AXI_HOST4(GPU) ReadStart Address 00186e80 to Address 00186eb8 Size 3 Length 00000008
559775 ns: DDR_AXI_HOST4(GPU) ReadStart Address 00186c00 to Address 00186c38 Size 3 Length 00000008
620059 ns: DDR_AXI_HOST4(GPU) ReadStart Address 00186c40 to Address 00186c78 Size 3 Length 00000008
775145 ns: DDR_AXI_HOST4(GPU) ReadStart Address 00186bc0 to Address 00186bf8 Size 3 Length 00000008
1059804 ns: DDR_AXI_HOST4(GPU) WriteStart Address 00186e80 to Address 00186eb8 Size 3 Length 00000008
1083142 ns: DDR_AXI_HOST4(GPU) ReadStart Address 00186940 to Address 00186978 Size 3 Length 00000008
1085779 ns: DDR_AXI_HOST4(GPU) ReadStart Address 00186980 to Address 001869b8 Size 3 Length 00000008
1085899 ns: DDR_AXI_HOST4(GPU) WriteStart Address 00186c00 to Address 00186c38 Size 3 Length 00000008
1097476 ns: DDR_AXI_HOST4(GPU) WriteStart Address 00186bc0 to Address 00186bf8 Size 3 Length 00000008
1097491 ns: DDR_AXI_HOST4(GPU) ReadStart Address 00186c00 to Address 00186c38 Size 3 Length 00000008
1116053 ns: DDR_AXI_HOST4(GPU) ReadStart Address 001869c0 to Address 001869f8 Size 3 Length 00000008
1127919 ns: DDR_AXI_HOST4(GPU) WriteStart Address 00186c40 to Address 00186c78 Size 3 Length 00000008
1128043 ns: DDR_AXI_HOST4(GPU) ReadStart Address 00186bc0 to Address 00186bf8 Size 3 Length 00000008
1135411 ns: DDR_AXI_HOST4(GPU) ReadStart Address 00186940 to Address 00186978 Size 3 Length 00000008
1140934 ns: DDR_AXI_HOST4(GPU) WriteStart Address 00186c00 to Address 00186c38 Size 3 Length 00000008
1141421 ns: DDR_AXI_HOST4(GPU) ReadStart Address 00186980 to Address 001869b8 Size 3 Length 00000008
1151591 ns: DDR_AXI_HOST4(GPU) WriteStart Address 00186bc0 to Address 00186bf8 Size 3 Length 00000008
1152078 ns: DDR_AXI_HOST4(GPU) ReadStart Address 00186a00 to Address 00186a38 Size 3 Length 00000008
1974647 ns: DDR_AXI_HOST4(GPU) ReadStart Address 00186a40 to Address 00186a78 Size 3 Length 00000008
1974955 ns: DDR_AXI_HOST4(GPU) WriteStart Address 00186940 to Address 00186978 Size 3 Length 00000008
2051304 ns: DDR_AXI_HOST4(GPU) ReadStart Address 00186940 to Address 00186978 Size 3 Length 00000008
2051792 ns: DDR_AXI_HOST4(GPU) WriteStart Address 00186a40 to Address 00186a78 Size 3 Length 00000008
2140823 ns: DDR_AXI_HOST4(GPU) ReadStart Address 00186a40 to Address 00186a78 Size 3 Length 00000008
2141534 ns: DDR_AXI_HOST4(GPU) WriteStart Address 00186940 to Address 00186978 Size 3 Length 00000008
2233306 ns: DDR_AXI_HOST4(GPU) WriteStart Address 00186a40 to Address 00186a78 Size 3 Length 00000008
2255231 ns: DDR_AXI_HOST4(GPU) WriteStart Address 00186a00 to Address 00186a38 Size 3 Length 00000008
2255435 ns: DDR_AXI_HOST4(GPU) ReadStart Address 00186940 to Address 00186978 Size 3 Length 00000008
2261067 ns: DDR_AXI_HOST4(GPU) ReadStart Address 001866c0 to Address 001866f8 Size 3 Length 00000008
2269212 ns: DDR_AXI_HOST4(GPU) ReadStart Address 00186700 to Address 00186738 Size 3 Length 00000008
2269729 ns: DDR_AXI_HOST4(GPU) WriteStart Address 00186980 to Address 001869b8 Size 3 Length 00000008
2275485 ns: DDR_AXI_HOST4(GPU) ReadStart Address 00186980 to Address 001869b8 Size 3 Length 00000008
2296247 ns: DDR_AXI_HOST4(GPU) ReadStart Address 00186740 to Address 00186778 Size 3 Length 00000008
2298515 ns: DDR_AXI_HOST4(GPU) WriteStart Address 001869c0 to Address 001869f8 Size 3 Length 00000008
2298998 ns: DDR_AXI_HOST4(GPU) ReadStart Address 00186940 to Address 00186978 Size 3 Length 00000008
2309416 ns: DDR_AXI_HOST4(GPU) ReadStart Address 001866c0 to Address 001866f8 Size 3 Length 00000008
2318769 ns: DDR_AXI_HOST4(GPU) WriteStart Address 00186980 to Address 001869b8 Size 3 Length 00000008
2319709 ns: DDR_AXI_HOST4(GPU) ReadStart Address 00186700 to Address 00186738 Size 3 Length 00000008
2331043 ns: DDR_AXI_HOST4(GPU) ReadStart Address 00186780 to Address 001867b8 Size 3 Length 00000008
2331331 ns: DDR_AXI_HOST4(GPU) WriteStart Address 00186940 to Address 00186978 Size 3 Length 00000008
2358869 ns: DDR_AXI_HOST4(GPU) ReadStart Address 001867c0 to Address 001867f8 Size 3 Length 00000008
2359182 ns: DDR_AXI_HOST4(GPU) WriteStart Address 001866c0 to Address 001866f8 Size 3 Length 00000008
2452377 ns: DDR_AXI_HOST4(GPU) ReadStart Address 001866c0 to Address 001866f8 Size 3 Length 00000008
2452636 ns: DDR_AXI_HOST4(GPU) WriteStart Address 001867c0 to Address 001867f8 Size 3 Length 00000008
2543577 ns: DDR_AXI_HOST4(GPU) ReadStart Address 001867c0 to Address 001867f8 Size 3 Length 00000008
2544059 ns: DDR_AXI_HOST4(GPU) WriteStart Address 001866c0 to Address 001866f8 Size 3 Length 00000008
2645414 ns: DDR_AXI_HOST4(GPU) ReadStart Address 001866c0 to Address 001866f8 Size 3 Length 00000008
2645533 ns: DDR_AXI_HOST4(GPU) WriteStart Address 001867c0 to Address 001867f8 Size 3 Length 00000008
2736474 ns: DDR_AXI_HOST4(GPU) ReadStart Address 001867c0 to Address 001867f8 Size 3 Length 00000008
2736962 ns: DDR_AXI_HOST4(GPU) WriteStart Address 001866c0 to Address 001866f8 Size 3 Length 00000008
2845002 ns: DDR_AXI_HOST4(GPU) ReadStart Address 001866c0 to Address 001866f8 Size 3 Length 00000008
2845490 ns: DDR_AXI_HOST4(GPU) WriteStart Address 001867c0 to Address 001867f8 Size 3 Length 00000008
2936670 ns: DDR_AXI_HOST4(GPU) ReadStart Address 001867c0 to Address 001867f8 Size 3 Length 00000008
2937699 ns: DDR_AXI_HOST4(GPU) WriteStart Address 001866c0 to Address 001866f8 Size 3 Length 00000008
3054521 ns: DDR_AXI_HOST4(GPU) ReadStart Address 001866c0 to Address 001866f8 Size 3 Length 00000008
3055009 ns: DDR_AXI_HOST4(GPU) WriteStart Address 001867c0 to Address 001867f8 Size 3 Length 00000008
3146676 ns: DDR_AXI_HOST4(GPU) ReadStart Address 001867c0 to Address 001867f8 Size 3 Length 00000008
3147547 ns: DDR_AXI_HOST4(GPU) WriteStart Address 001866c0 to Address 001866f8 Size 3 Length 00000008
3175617 ns: DDR_AXI_HOST4(GPU) ReadStart Address 00186800 to Address 00186838 Size 3 Length 00000008
3176099 ns: DDR_AXI_HOST4(GPU) WriteStart Address 00186700 to Address 00186738 Size 3 Length 00000008
3249090 ns: DDR_AXI_HOST4(GPU) ReadStart Address 00186700 to Address 00186738 Size 3 Length 00000008
3249573 ns: DDR_AXI_HOST4(GPU) WriteStart Address 00186800 to Address 00186838 Size 3 Length 00000008
3277215 ns: DDR_AXI_HOST4(GPU) ReadStart Address 001866c0 to Address 001866f8 Size 3 Length 00000008
3277697 ns: DDR_AXI_HOST4(GPU) WriteStart Address 001867c0 to Address 001867f8 Size 3 Length 00000008
3368758 ns: DDR_AXI_HOST4(GPU) ReadStart Address 001867c0 to Address 001867f8 Size 3 Length 00000008
3368882 ns: DDR_AXI_HOST4(GPU) WriteStart Address 001866c0 to Address 001866f8 Size 3 Length 00000008
3395793 ns: DDR_AXI_HOST4(GPU) ReadStart Address 00186800 to Address 00186838 Size 3 Length 00000008
3396275 ns: DDR_AXI_HOST4(GPU) WriteStart Address 00186700 to Address 00186738 Size 3 Length 00000008
3479072 ns: DDR_AXI_HOST4(GPU) ReadStart Address 00186700 to Address 00186738 Size 3 Length 00000008
3479191 ns: DDR_AXI_HOST4(GPU) WriteStart Address 00186800 to Address 00186838 Size 3 Length 00000008
3505898 ns: DDR_AXI_HOST4(GPU) ReadStart Address 001866c0 to Address 001866f8 Size 3 Length 00000008
3506505 ns: DDR_AXI_HOST4(GPU) WriteStart Address 001867c0 to Address 001867f8 Size 3 Length 00000008
3600058 ns: DDR_AXI_HOST4(GPU) ReadStart Address 001867c0 to Address 001867f8 Size 3 Length 00000008
3600526 ns: DDR_AXI_HOST4(GPU) WriteStart Address 001866c0 to Address 001866f8 Size 3 Length 00000008
3627232 ns: DDR_AXI_HOST4(GPU) ReadStart Address 00186800 to Address 00186838 Size 3 Length 00000008
3627924 ns: DDR_AXI_HOST4(GPU) WriteStart Address 00186700 to Address 00186738 Size 3 Length 00000008
3717079 ns: DDR_AXI_HOST4(GPU) ReadStart Address 00186700 to Address 00186738 Size 3 Length 00000008
3717566 ns: DDR_AXI_HOST4(GPU) WriteStart Address 00186800 to Address 00186838 Size 3 Length 00000008
3744114 ns: DDR_AXI_HOST4(GPU) ReadStart Address 001866c0 to Address 001866f8 Size 3 Length 00000008
3744129 ns: DDR_AXI_HOST4(GPU) WriteStart Address 001867c0 to Address 001867f8 Size 3 Length 00000008
3815313 ns: DDR_AXI_HOST4(GPU) ReadStart Address 001867c0 to Address 001867f8 Size 3 Length 00000008
3815801 ns: DDR_AXI_HOST4(GPU) WriteStart Address 001866c0 to Address 001866f8 Size 3 Length 00000008
3827637 ns: DDR_AXI_HOST4(GPU) WriteStart Address 00186700 to Address 00186738 Size 3 Length 00000008
3835294 ns: DDR_AXI_HOST4(GPU) ReadStart Address 00186800 to Address 00186838 Size 3 Length 00000008
3841413 ns: DDR_AXI_HOST4(GPU) WriteStart Address 00186740 to Address 00186778 Size 3 Length 00000008
3842727 ns: DDR_AXI_HOST4(GPU) ReadStart Address 00186e80 to Address 00186eb8 Size 3 Length 00000008
3851383 ns: DDR_AXI_HOST4(GPU) WriteStart Address 00186780 to Address 001867b8 Size 3 Length 00000008
3859160 ns: DDR_AXI_HOST4(GPU) ReadStart Address 00186ec0 to Address 00186ef8 Size 3 Length 00000008
3863946 ns: DDR_AXI_HOST4(GPU) ReadStart Address 00186800 to Address 00186838 Size 3 Length 00000008
3871757 ns: DDR_AXI_HOST4(GPU) WriteStart Address 001867c0 to Address 001867f8 Size 3 Length 00000008
3872239 ns: DDR_AXI_HOST4(GPU) ReadStart Address 00186e80 to Address 00186eb8 Size 3 Length 00000008
3878170 ns: DDR_AXI_HOST4(GPU) ReadStart Address 00186f00 to Address 00186f38 Size 3 Length 00000008
3893976 ns: DDR_AXI_HOST4(GPU) ReadStart Address 00186f40 to Address 00186f78 Size 3 Length 00000008
3894458 ns: DDR_AXI_HOST4(GPU) WriteStart Address 00186800 to Address 00186838 Size 3 Length 00000008
4220555 ns: DDR_AXI_HOST4(GPU) WriteStart Address 00186e80 to Address 00186eb8 Size 3 Length 00000008
4225750 ns: DDR_AXI_HOST4(GPU) ReadStart Address 00186e80 to Address 00186eb8 Size 3 Length 00000008
4227571 ns: DDR_AXI_HOST4(GPU) WriteStart Address 00186f40 to Address 00186f78 Size 3 Length 00000008
4234814 ns: DDR_AXI_HOST4(GPU) ReadStart Address 00186c00 to Address 00186c38 Size 3 Length 00000008
4242197 ns: DDR_AXI_HOST4(GPU) ReadStart Address 00186c40 to Address 00186c78 Size 3 Length 00000008
4242247 ns: DDR_AXI_HOST4(GPU) WriteStart Address 00186f00 to Address 00186f38 Size 3 Length 00000008
4249705 ns: DDR_AXI_HOST4(GPU) ReadStart Address 00186e80 to Address 00186eb8 Size 3 Length 00000008
4256203 ns: DDR_AXI_HOST4(GPU) ReadStart Address 00186c80 to Address 00186cb8 Size 3 Length 00000008
4259795 ns: DDR_AXI_HOST4(GPU) ReadStart Address 00186c00 to Address 00186c38 Size 3 Length 00000008
4259810 ns: DDR_AXI_HOST4(GPU) WriteStart Address 00186ec0 to Address 00186ef8 Size 3 Length 00000008
4267919 ns: DDR_AXI_HOST4(GPU) ReadStart Address 00186c40 to Address 00186c78 Size 3 Length 00000008
4276272 ns: DDR_AXI_HOST4(GPU) ReadStart Address 00186cc0 to Address 00186cf8 Size 3 Length 00000008
4276397 ns: DDR_AXI_HOST4(GPU) WriteStart Address 00186e80 to Address 00186eb8 Size 3 Length 00000008
4837929 ns: DDR_AXI_HOST4(GPU) ReadStart Address 00186d00 to Address 00186d38 Size 3 Length 00000008
4838640 ns: DDR_AXI_HOST4(GPU) WriteStart Address 00186c00 to Address 00186c38 Size 3 Length 00000008
5322296 ns: DDR_AXI_HOST4(GPU) WriteStart Address 00186c40 to Address 00186c78 Size 3 Length 00000008
5330564 ns: DDR_AXI_HOST4(GPU) WriteStart Address 00186d00 to Address 00186d38 Size 3 Length 00000008
5336629 ns: DDR_AXI_HOST4(GPU) ReadStart Address 00186d00 to Address 00186d38 Size 3 Length 00000008
5350784 ns: DDR_AXI_HOST4(GPU) ReadStart Address 00186c40 to Address 00186c78 Size 3 Length 00000008
5354301 ns: DDR_AXI_HOST4(GPU) WriteStart Address 00186d00 to Address 00186d38 Size 3 Length 00000008
5354749 ns: DDR_AXI_HOST4(GPU) ReadStart Address 001869c0 to Address 001869f8 Size 3 Length 00000008
5359987 ns: DDR_AXI_HOST4(GPU) ReadStart Address 00186a00 to Address 00186a38 Size 3 Length 00000008
5360107 ns: DDR_AXI_HOST4(GPU) WriteStart Address 00186c80 to Address 00186cb8 Size 3 Length 00000008
5372948 ns: DDR_AXI_HOST4(GPU) ReadStart Address 00186c80 to Address 00186cb8 Size 3 Length 00000008
5393500 ns: DDR_AXI_HOST4(GPU) ReadStart Address 00186a40 to Address 00186a78 Size 3 Length 00000008
5403550 ns: DDR_AXI_HOST4(GPU) WriteStart Address 00186cc0 to Address 00186cf8 Size 3 Length 00000008
5403670 ns: DDR_AXI_HOST4(GPU) ReadStart Address 00186c40 to Address 00186c78 Size 3 Length 00000008
5410844 ns: DDR_AXI_HOST4(GPU) ReadStart Address 001869c0 to Address 001869f8 Size 3 Length 00000008
5416476 ns: DDR_AXI_HOST4(GPU) WriteStart Address 00186c80 to Address 00186cb8 Size 3 Length 00000008
5417505 ns: DDR_AXI_HOST4(GPU) ReadStart Address 00186a00 to Address 00186a38 Size 3 Length 00000008
5426162 ns: DDR_AXI_HOST4(GPU) WriteStart Address 00186c40 to Address 00186c78 Size 3 Length 00000008
5426680 ns: DDR_AXI_HOST4(GPU) ReadStart Address 00186a80 to Address 00186ab8 Size 3 Length 00000008
6081575 ns: DDR_AXI_HOST4(GPU) WriteStart Address 001869c0 to Address 001869f8 Size 3 Length 00000008
6085481 ns: DDR_AXI_HOST4(GPU) ReadStart Address 001867c0 to Address 001867f8 Size 3 Length 00000008
6095774 ns: DDR_AXI_HOST4(GPU) WriteStart Address 00186a80 to Address 00186ab8 Size 3 Length 00000008
6100003 ns: DDR_AXI_HOST4(GPU) ReadStart Address 00186a80 to Address 00186ab8 Size 3 Length 00000008
6109426 ns: DDR_AXI_HOST4(GPU) ReadStart Address 00186800 to Address 00186838 Size 3 Length 00000008
6110138 ns: DDR_AXI_HOST4(GPU) WriteStart Address 00186a00 to Address 00186a38 Size 3 Length 00000008
6283065 ns: DDR_AXI_HOST4(GPU) WriteStart Address 00186a80 to Address 00186ab8 Size 3 Length 00000008
6301343 ns: DDR_AXI_HOST4(GPU) ReadStart Address 001866c0 to Address 001866f8 Size 3 Length 00000008
6302209 ns: DDR_AXI_HOST4(GPU) WriteStart Address 00186a40 to Address 00186a78 Size 3 Length 00000008
6310458 ns: DDR_AXI_HOST4(GPU) ReadStart Address 00186440 to Address 00186478 Size 3 Length 00000008
6314896 ns: DDR_AXI_HOST4(GPU) ReadStart Address 00186480 to Address 001864b8 Size 3 Length 00000008
6328980 ns: DDR_AXI_HOST4(GPU) WriteStart Address 001867c0 to Address 001867f8 Size 3 Length 00000008
6330010 ns: DDR_AXI_HOST4(GPU) ReadStart Address 001866c0 to Address 001866f8 Size 3 Length 00000008
6399334 ns: DDR_AXI_HOST4(GPU) ReadStart Address 001864c0 to Address 001864f8 Size 3 Length 00000008
6399578 ns: DDR_AXI_HOST4(GPU) WriteStart Address 00186800 to Address 00186838 Size 3 Length 00000008
6637704 ns: DDR_AXI_HOST4(GPU) ReadStart Address 00186500 to Address 00186538 Size 3 Length 00000008
6638470 ns: DDR_AXI_HOST4(GPU) WriteStart Address 001866c0 to Address 001866f8 Size 3 Length 00000008
6681844 ns: DDR_AXI_HOST4(GPU) ReadStart Address 00186200 to Address 00186238 Size 3 Length 00000008
6681963 ns: DDR_AXI_HOST4(GPU) WriteStart Address 00186440 to Address 00186478 Size 3 Length 00000008
6699123 ns: DDR_AXI_HOST4(GPU) ReadStart Address 00186240 to Address 00186278 Size 3 Length 00000008
6699431 ns: DDR_AXI_HOST4(GPU) WriteStart Address 00186500 to Address 00186538 Size 3 Length 00000008
6722043 ns: DDR_AXI_HOST4(GPU) ReadStart Address 00186280 to Address 001862b8 Size 3 Length 00000008
6722531 ns: DDR_AXI_HOST4(GPU) WriteStart Address 001864c0 to Address 001864f8 Size 3 Length 00000008
6886821 ns: DDR_AXI_HOST4(GPU) ReadStart Address 001862c0 to Address 001862f8 Size 3 Length 00000008
6887308 ns: DDR_AXI_HOST4(GPU) WriteStart Address 00186480 to Address 001864b8 Size 3 Length 00000008
7056295 ns: DDR_AXI_HOST4(GPU) WriteStart Address 001862c0 to Address 001862f8 Size 3 Length 00000008
7060558 ns: DDR_AXI_HOST4(GPU) ReadStart Address 001862c0 to Address 001862f8 Size 3 Length 00000008
7063499 ns: DDR_AXI_HOST4(GPU) WriteStart Address 00186200 to Address 00186238 Size 3 Length 00000008
7072598 ns: DDR_AXI_HOST4(GPU) ReadStart Address 001866c0 to Address 001866f8 Size 3 Length 00000008
7077141 ns: DDR_AXI_HOST4(GPU) WriteStart Address 00186240 to Address 00186278 Size 3 Length 00000008
7081195 ns: DDR_AXI_HOST4(GPU) ReadStart Address 00186700 to Address 00186738 Size 3 Length 00000008
7101658 ns: DDR_AXI_HOST4(GPU) ReadStart Address 001862c0 to Address 001862f8 Size 3 Length 00000008
7113982 ns: DDR_AXI_HOST4(GPU) ReadStart Address 00186740 to Address 00186778 Size 3 Length 00000008
7122365 ns: DDR_AXI_HOST4(GPU) WriteStart Address 00186280 to Address 001862b8 Size 3 Length 00000008
7123096 ns: DDR_AXI_HOST4(GPU) ReadStart Address 001866c0 to Address 001866f8 Size 3 Length 00000008
7135051 ns: DDR_AXI_HOST4(GPU) WriteStart Address 001862c0 to Address 001862f8 Size 3 Length 00000008
7135658 ns: DDR_AXI_HOST4(GPU) ReadStart Address 00186700 to Address 00186738 Size 3 Length 00000008
7147131 ns: DDR_AXI_HOST4(GPU) ReadStart Address 00186780 to Address 001867b8 Size 3 Length 00000008
7159206 ns: DDR_AXI_HOST4(GPU) WriteStart Address 001866c0 to Address 001866f8 Size 3 Length 00000008
7174524 ns: DDR_AXI_HOST4(GPU) ReadStart Address 001867c0 to Address 001867f8 Size 3 Length 00000008
7200261 ns: DDR_AXI_HOST4(GPU) WriteStart Address 00186700 to Address 00186738 Size 3 Length 00000008
7200380 ns: DDR_AXI_HOST4(GPU) ReadStart Address 00186800 to Address 00186838 Size 3 Length 00000008
7274476 ns: DDR_AXI_HOST4(GPU) ReadStart Address 00186700 to Address 00186738 Size 3 Length 00000008
7274595 ns: DDR_AXI_HOST4(GPU) WriteStart Address 00186800 to Address 00186838 Size 3 Length 00000008
7289794 ns: DDR_AXI_HOST4(GPU) WriteStart Address 001867c0 to Address 001867f8 Size 3 Length 00000008
7295904 ns: DDR_AXI_HOST4(GPU) ReadStart Address 001866c0 to Address 001866f8 Size 3 Length 00000008
7295948 ns: DDR_AXI_HOST4(GPU) WriteStart Address 00186780 to Address 001867b8 Size 3 Length 00000008
7303207 ns: DDR_AXI_HOST4(GPU) ReadStart Address 00186440 to Address 00186478 Size 3 Length 00000008
7307018 ns: DDR_AXI_HOST4(GPU) ReadStart Address 00186480 to Address 001864b8 Size 3 Length 00000008
7307137 ns: DDR_AXI_HOST4(GPU) WriteStart Address 00186740 to Address 00186778 Size 3 Length 00000008
7324486 ns: DDR_AXI_HOST4(GPU) ReadStart Address 001866c0 to Address 001866f8 Size 3 Length 00000008
7326391 ns: DDR_AXI_HOST4(GPU) ReadStart Address 001864c0 to Address 001864f8 Size 3 Length 00000008
7332297 ns: DDR_AXI_HOST4(GPU) WriteStart Address 00186700 to Address 00186738 Size 3 Length 00000008
7332784 ns: DDR_AXI_HOST4(GPU) ReadStart Address 00186440 to Address 00186478 Size 3 Length 00000008
7339073 ns: DDR_AXI_HOST4(GPU) ReadStart Address 00186480 to Address 001864b8 Size 3 Length 00000008
7352003 ns: DDR_AXI_HOST4(GPU) ReadStart Address 00186500 to Address 00186538 Size 3 Length 00000008
7352123 ns: DDR_AXI_HOST4(GPU) WriteStart Address 001866c0 to Address 001866f8 Size 3 Length 00000008
7372223 ns: DDR_AXI_HOST4(GPU) ReadStart Address 00186540 to Address 00186578 Size 3 Length 00000008
7372710 ns: DDR_AXI_HOST4(GPU) WriteStart Address 00186440 to Address 00186478 Size 3 Length 00000008
7390422 ns: DDR_AXI_HOST4(GPU) ReadStart Address 00186580 to Address 001865b8 Size 3 Length 00000008
7390541 ns: DDR_AXI_HOST4(GPU) WriteStart Address 00186480 to Address 001864b8 Size 3 Length 00000008
7446830 ns: DDR_AXI_HOST4(GPU) ReadStart Address 00186480 to Address 001864b8 Size 3 Length 00000008
7447362 ns: DDR_AXI_HOST4(GPU) WriteStart Address 00186580 to Address 001865b8 Size 3 Length 00000008
7464989 ns: DDR_AXI_HOST4(GPU) ReadStart Address 00186440 to Address 00186478 Size 3 Length 00000008
7465019 ns: DDR_AXI_HOST4(GPU) WriteStart Address 00186540 to Address 00186578 Size 3 Length 00000008
7520791 ns: DDR_AXI_HOST4(GPU) ReadStart Address 00186540 to Address 00186578 Size 3 Length 00000008
7521273 ns: DDR_AXI_HOST4(GPU) WriteStart Address 00186440 to Address 00186478 Size 3 Length 00000008
7540075 ns: DDR_AXI_HOST4(GPU) ReadStart Address 00186580 to Address 001865b8 Size 3 Length 00000008
7540891 ns: DDR_AXI_HOST4(GPU) WriteStart Address 00186480 to Address 001864b8 Size 3 Length 00000008
7606583 ns: DDR_AXI_HOST4(GPU) ReadStart Address 00186480 to Address 001864b8 Size 3 Length 00000008
7606598 ns: DDR_AXI_HOST4(GPU) WriteStart Address 00186580 to Address 001865b8 Size 3 Length 00000008
7688036 ns: DDR_AXI_HOST4(GPU) ReadStart Address 00186580 to Address 001865b8 Size 3 Length 00000008
7688126 ns: DDR_AXI_HOST4(GPU) WriteStart Address 00186480 to Address 001864b8 Size 3 Length 00000008
7752360 ns: DDR_AXI_HOST4(GPU) ReadStart Address 00186480 to Address 001864b8 Size 3 Length 00000008
7752400 ns: DDR_AXI_HOST4(GPU) WriteStart Address 00186580 to Address 001865b8 Size 3 Length 00000008
7823112 ns: DDR_AXI_HOST4(GPU) ReadStart Address 00186580 to Address 001865b8 Size 3 Length 00000008
7823982 ns: DDR_AXI_HOST4(GPU) WriteStart Address 00186480 to Address 001864b8 Size 3 Length 00000008
7885321 ns: DDR_AXI_HOST4(GPU) ReadStart Address 00186480 to Address 001864b8 Size 3 Length 00000008
7885809 ns: DDR_AXI_HOST4(GPU) WriteStart Address 00186580 to Address 001865b8 Size 3 Length 00000008
7948914 ns: DDR_AXI_HOST4(GPU) ReadStart Address 00186580 to Address 001865b8 Size 3 Length 00000008
7948954 ns: DDR_AXI_HOST4(GPU) WriteStart Address 00186480 to Address 001864b8 Size 3 Length 00000008
8270399 ns: DDR_AXI_HOST4(GPU) WriteStart Address 00186580 to Address 001865b8 Size 3 Length 00000008
8272673 ns: DDR_AXI_HOST4(GPU) ReadStart Address 00186280 to Address 001862b8 Size 3 Length 00000008
8287384 ns: DDR_AXI_HOST4(GPU) ReadStart Address 001862c0 to Address 001862f8 Size 3 Length 00000008
8287867 ns: DDR_AXI_HOST4(GPU) WriteStart Address 001864c0 to Address 001864f8 Size 3 Length 00000008
8438908 ns: DDR_AXI_HOST4(GPU) WriteStart Address 00186540 to Address 00186578 Size 3 Length 00000008
8439062 ns: DDR_AXI_HOST4(GPU) WriteStart Address 00186500 to Address 00186538 Size 3 Length 00000008
8439211 ns: DDR_AXI_HOST4(GPU) WriteStart Address 00186280 to Address 001862b8 Size 3 Length 00000008
8439594 ns: DDR_AXI_HOST4(GPU) WriteStart Address 001862c0 to Address 001862f8 Size 3 Length 00000008
8443460 ns: DDR_AXI_HOST4(GPU) ReadStart Address 00185ec0 to Address 00185ef8 Size 3 Length 00000008
8539311 ns: DDR_AXI_HOST4(GPU) ReadStart Address 00185f00 to Address 00185f38 Size 3 Length 00000008
8675268 ns: DDR_AXI_HOST4(GPU) ReadStart Address 00185f40 to Address 00185f78 Size 3 Length 00000008
8811189 ns: DDR_AXI_HOST4(GPU) ReadStart Address 00185f80 to Address 00185fb8 Size 3 Length 00000008
8947116 ns: DDR_AXI_HOST4(GPU) ReadStart Address 00185fc0 to Address 00185ff8 Size 3 Length 00000008
9083042 ns: DDR_AXI_HOST4(GPU) ReadStart Address 00186000 to Address 00186038 Size 3 Length 00000008
9219267 ns: DDR_AXI_HOST4(GPU) ReadStart Address 00186040 to Address 00186078 Size 3 Length 00000008
9354681 ns: DDR_AXI_HOST4(GPU) ReadStart Address 00186080 to Address 001860b8 Size 3 Length 00000008
9490608 ns: DDR_AXI_HOST4(GPU) ReadStart Address 001860c0 to Address 001860f8 Size 3 Length 00000008
9626534 ns: DDR_AXI_HOST4(GPU) ReadStart Address 00186100 to Address 00186138 Size 3 Length 00000008
9803088 ns: DDR_AXI_HOST4(GPU) ReadStart Address 00186140 to Address 00186178 Size 3 Length 00000008
9899273 ns: DDR_AXI_HOST4(GPU) ReadStart Address 00186180 to Address 001861b8 Size 3 Length 00000008
10034309 ns: DDR_AXI_HOST4(GPU) ReadStart Address 001861c0 to Address 001861f8 Size 3 Length 00000008
10170718 ns: DDR_AXI_HOST4(GPU) ReadStart Address 00186200 to Address 00186238 Size 3 Length 00000008
10369545 ns: DDR_AXI_HOST4(GPU) ReadStart Address 00186240 to Address 00186278 Size 3 Length 00000008
10581805 ns: DDR_AXI_HOST4(GPU) ReadStart Address 00186280 to Address 001862b8 Size 3 Length 00000008
10793399 ns: DDR_AXI_HOST4(GPU) ReadStart Address 001862c0 to Address 001862f8 Size 3 Length 00000008
10987998 ns: DDR_AXI_HOST4(GPU) ReadStart Address 00186300 to Address 00186338 Size 3 Length 00000008
11128223 ns: DDR_AXI_HOST4(GPU) ReadStart Address 00186340 to Address 00186378 Size 3 Length 00000008
11264288 ns: DDR_AXI_HOST4(GPU) ReadStart Address 00186380 to Address 001863b8 Size 3 Length 00000008
11440703 ns: DDR_AXI_HOST4(GPU) ReadStart Address 001863c0 to Address 001863f8 Size 3 Length 00000008
11537316 ns: DDR_AXI_HOST4(GPU) ReadStart Address 00186400 to Address 00186438 Size 3 Length 00000008
11672730 ns: DDR_AXI_HOST4(GPU) ReadStart Address 00186440 to Address 00186478 Size 3 Length 00000008
11833089 ns: DDR_AXI_HOST4(GPU) ReadStart Address 00186480 to Address 001864b8 Size 3 Length 00000008
12103693 ns: DDR_AXI_HOST4(GPU) ReadStart Address 001864c0 to Address 001864f8 Size 3 Length 00000008
12374850 ns: DDR_AXI_HOST4(GPU) ReadStart Address 00186500 to Address 00186538 Size 3 Length 00000008
12646006 ns: DDR_AXI_HOST4(GPU) ReadStart Address 00186540 to Address 00186578 Size 3 Length 00000008
12916675 ns: DDR_AXI_HOST4(GPU) ReadStart Address 00186580 to Address 001865b8 Size 3 Length 00000008
13077034 ns: DDR_AXI_HOST4(GPU) ReadStart Address 001865c0 to Address 001865f8 Size 3 Length 00000008
13213205 ns: DDR_AXI_HOST4(GPU) ReadStart Address 00186600 to Address 00186638 Size 3 Length 00000008
13389509 ns: DDR_AXI_HOST4(GPU) ReadStart Address 00186640 to Address 00186678 Size 3 Length 00000008
13485082 ns: DDR_AXI_HOST4(GPU) ReadStart Address 00186680 to Address 001866b8 Size 3 Length 00000008
13621496 ns: DDR_AXI_HOST4(GPU) ReadStart Address 001866c0 to Address 001866f8 Size 3 Length 00000008
13808100 ns: DDR_AXI_HOST4(GPU) ReadStart Address 00186700 to Address 00186738 Size 3 Length 00000008
14079256 ns: DDR_AXI_HOST4(GPU) ReadStart Address 00186740 to Address 00186778 Size 3 Length 00000008
14350741 ns: DDR_AXI_HOST4(GPU) ReadStart Address 00186780 to Address 001867b8 Size 3 Length 00000008
14621778 ns: DDR_AXI_HOST4(GPU) ReadStart Address 001867c0 to Address 001867f8 Size 3 Length 00000008
14892934 ns: DDR_AXI_HOST4(GPU) ReadStart Address 00186800 to Address 00186838 Size 3 Length 00000008
15080065 ns: DDR_AXI_HOST4(GPU) ReadStart Address 00186840 to Address 00186878 Size 3 Length 00000008
15215987 ns: DDR_AXI_HOST4(GPU) ReadStart Address 00186880 to Address 001868b8 Size 3 Length 00000008
15392754 ns: DDR_AXI_HOST4(GPU) ReadStart Address 001868c0 to Address 001868f8 Size 3 Length 00000008
15488322 ns: DDR_AXI_HOST4(GPU) ReadStart Address 00186900 to Address 00186938 Size 3 Length 00000008
15624771 ns: DDR_AXI_HOST4(GPU) ReadStart Address 00186940 to Address 00186978 Size 3 Length 00000008
15784952 ns: DDR_AXI_HOST4(GPU) ReadStart Address 00186980 to Address 001869b8 Size 3 Length 00000008
16058416 ns: DDR_AXI_HOST4(GPU) ReadStart Address 001869c0 to Address 001869f8 Size 3 Length 00000008
16330011 ns: DDR_AXI_HOST4(GPU) ReadStart Address 00186a00 to Address 00186a38 Size 3 Length 00000008
16600938 ns: DDR_AXI_HOST4(GPU) ReadStart Address 00186a40 to Address 00186a78 Size 3 Length 00000008
16872095 ns: DDR_AXI_HOST4(GPU) ReadStart Address 00186a80 to Address 00186ab8 Size 3 Length 00000008
17035250 ns: DDR_AXI_HOST4(GPU) ReadStart Address 00186ac0 to Address 00186af8 Size 3 Length 00000008
17170828 ns: DDR_AXI_HOST4(GPU) ReadStart Address 00186b00 to Address 00186b38 Size 3 Length 00000008
17347586 ns: DDR_AXI_HOST4(GPU) ReadStart Address 00186b40 to Address 00186b78 Size 3 Length 00000008
17443547 ns: DDR_AXI_HOST4(GPU) ReadStart Address 00186b80 to Address 00186bb8 Size 3 Length 00000008
17579468 ns: DDR_AXI_HOST4(GPU) ReadStart Address 00186bc0 to Address 00186bf8 Size 3 Length 00000008
17719564 ns: DDR_AXI_HOST4(GPU) ReadStart Address 00186c00 to Address 00186c38 Size 3 Length 00000008
17989233 ns: DDR_AXI_HOST4(GPU) ReadStart Address 00186c40 to Address 00186c78 Size 3 Length 00000008
18260389 ns: DDR_AXI_HOST4(GPU) ReadStart Address 00186c80 to Address 00186cb8 Size 3 Length 00000008
18531769 ns: DDR_AXI_HOST4(GPU) ReadStart Address 00186cc0 to Address 00186cf8 Size 3 Length 00000008
18799792 ns: DDR_AXI_HOST4(GPU) ReadStart Address 00186d00 to Address 00186d38 Size 3 Length 00000008
18941897 ns: DDR_AXI_HOST4(GPU) ReadStart Address 00186d40 to Address 00186d78 Size 3 Length 00000008
19077824 ns: DDR_AXI_HOST4(GPU) ReadStart Address 00186d80 to Address 00186db8 Size 3 Length 00000008
19254377 ns: DDR_AXI_HOST4(GPU) ReadStart Address 00186dc0 to Address 00186df8 Size 3 Length 00000008
19350751 ns: DDR_AXI_HOST4(GPU) ReadStart Address 00186e00 to Address 00186e38 Size 3 Length 00000008
19485787 ns: DDR_AXI_HOST4(GPU) ReadStart Address 00186e40 to Address 00186e78 Size 3 Length 00000008
19622196 ns: DDR_AXI_HOST4(GPU) ReadStart Address 00186e80 to Address 00186eb8 Size 3 Length 00000008
19804078 ns: DDR_AXI_HOST4(GPU) ReadStart Address 00186ec0 to Address 00186ef8 Size 3 Length 00000008
19990741 ns: DDR_AXI_HOST4(GPU) ReadStart Address 00186f00 to Address 00186f38 Size 3 Length 00000008
20177405 ns: DDR_AXI_HOST4(GPU) ReadStart Address 00186f40 to Address 00186f78 Size 3 Length 00000008
20359625 ns: DDR_AXI_HOST4(GPU) ReadStart Address 00186f80 to Address 00186fb8 Size 3 Length 00000008
20495795 ns: DDR_AXI_HOST4(GPU) ReadStart Address 00186fc0 to Address 00186ff8 Size 3 Length 00000008
20630781 ns: DDR_AXI_HOST4(GPU) ReadStart Address 00187000 to Address 00187038 Size 3 Length 00000008
20808027 ns: DDR_AXI_HOST4(GPU) ReadStart Address 00187040 to Address 00187078 Size 3 Length 00000008
20836171 ns: DDR_AXI_HOST4(GPU) ReadStart Address 00187080 to Address 001870b8 Size 3 Length 00000008
20904376 ns: DDR_AXI_HOST4(GPU) ReadStart Address 001870c0 to Address 001870f8 Size 3 Length 00000008
20972098 ns: DDR_AXI_HOST4(GPU) ReadStart Address 00187100 to Address 00187138 Size 3 Length 00000008
21040302 ns: DDR_AXI_HOST4(GPU) ReadStart Address 00187140 to Address 00187178 Size 3 Length 00000008
21108994 ns: DDR_AXI_HOST4(GPU) ReadStart Address 00187180 to Address 001871b8 Size 3 Length 00000008
21177199 ns: DDR_AXI_HOST4(GPU) ReadStart Address 001871c0 to Address 001871f8 Size 3 Length 00000008
21245403 ns: DDR_AXI_HOST4(GPU) ReadStart Address 00187200 to Address 00187238 Size 3 Length 00000008
21313608 ns: DDR_AXI_HOST4(GPU) ReadStart Address 00187240 to Address 00187278 Size 3 Length 00000008
21381812 ns: DDR_AXI_HOST4(GPU) ReadStart Address 00187280 to Address 001872b8 Size 3 Length 00000008
