527675 ns: DDR_AXI_HOST4(GPU) ReadStart Address 00130000 to Address 00130038 Size 3 Length 00000008
527680 ns: DDR_AXI_HOST4(GPU) ReadStart Address 00130040 to Address 00130078 Size 3 Length 00000008
527690 ns: DDR_AXI_HOST4(GPU) ReadStart Address 00130080 to Address 001300b8 Size 3 Length 00000008
527700 ns: DDR_AXI_HOST4(GPU) ReadStart Address 001300c0 to Address 001300f8 Size 3 Length 00000008
527720 ns: DDR_AXI_HOST4(GPU) ReadStart Address 00130100 to Address 00130138 Size 3 Length 00000008
527760 ns: DDR_AXI_HOST4(GPU) ReadStart Address 00130140 to Address 00130178 Size 3 Length 00000008
527800 ns: DDR_AXI_HOST4(GPU) ReadStart Address 00130180 to Address 001301b8 Size 3 Length 00000008
527839 ns: DDR_AXI_HOST4(GPU) ReadStart Address 001301c0 to Address 001301f8 Size 3 Length 00000008
528073 ns: DDR_AXI_HOST4(GPU) ReadStart Address 00130200 to Address 00130238 Size 3 Length 00000008
528193 ns: DDR_AXI_HOST4(GPU) ReadStart Address 00130240 to Address 00130278 Size 3 Length 00000008
528586 ns: DDR_AXI_HOST4(GPU) ReadStart Address 00130280 to Address 001302b8 Size 3 Length 00000008
528630 ns: DDR_AXI_HOST4(GPU) ReadStart Address 001302c0 to Address 001302f8 Size 3 Length 00000008
528899 ns: DDR_AXI_HOST4(GPU) ReadStart Address 00130300 to Address 00130338 Size 3 Length 00000008
529188 ns: DDR_AXI_HOST4(GPU) ReadStart Address 00130340 to Address 00130378 Size 3 Length 00000008
529317 ns: DDR_AXI_HOST4(GPU) ReadStart Address 00130380 to Address 001303b8 Size 3 Length 00000008
529476 ns: DDR_AXI_HOST4(GPU) ReadStart Address 001303c0 to Address 001303f8 Size 3 Length 00000008
529596 ns: DDR_AXI_HOST4(GPU) ReadStart Address 00130400 to Address 00130438 Size 3 Length 00000008
529715 ns: DDR_AXI_HOST4(GPU) ReadStart Address 00130440 to Address 00130478 Size 3 Length 00000008
529834 ns: DDR_AXI_HOST4(GPU) ReadStart Address 00130480 to Address 001304b8 Size 3 Length 00000008
529959 ns: DDR_AXI_HOST4(GPU) ReadStart Address 001304c0 to Address 001304f8 Size 3 Length 00000008
530073 ns: DDR_AXI_HOST4(GPU) ReadStart Address 00130500 to Address 00130538 Size 3 Length 00000008
530193 ns: DDR_AXI_HOST4(GPU) ReadStart Address 00130540 to Address 00130578 Size 3 Length 00000008
