527675 ns: DDR_AXI_HOST4(GPU) ReadStart Address 00130000 to Address 00130038 Size 3 Length 00000008
527680 ns: DDR_AXI_HOST4(GPU) ReadStart Address 00130040 to Address 00130078 Size 3 Length 00000008
527690 ns: DDR_AXI_HOST4(GPU) ReadStart Address 00130080 to Address 001300b8 Size 3 Length 00000008
527700 ns: DDR_AXI_HOST4(GPU) ReadStart Address 001300c0 to Address 001300f8 Size 3 Length 00000008
527720 ns: DDR_AXI_HOST4(GPU) ReadStart Address 00130100 to Address 00130138 Size 3 Length 00000008
527760 ns: DDR_AXI_HOST4(GPU) ReadStart Address 00130140 to Address 00130178 Size 3 Length 00000008
527800 ns: DDR_AXI_HOST4(GPU) ReadStart Address 00130180 to Address 001301b8 Size 3 Length 00000008
527839 ns: DDR_AXI_HOST4(GPU) ReadStart Address 001301c0 to Address 001301f8 Size 3 Length 00000008
528048 ns: DDR_AXI_HOST4(GPU) ReadStart Address 00130200 to Address 00130238 Size 3 Length 00000008
528168 ns: DDR_AXI_HOST4(GPU) ReadStart Address 00130240 to Address 00130278 Size 3 Length 00000008
528586 ns: DDR_AXI_HOST4(GPU) ReadStart Address 00130280 to Address 001302b8 Size 3 Length 00000008
528630 ns: DDR_AXI_HOST4(GPU) ReadStart Address 001302c0 to Address 001302f8 Size 3 Length 00000008
528899 ns: DDR_AXI_HOST4(GPU) ReadStart Address 00130300 to Address 00130338 Size 3 Length 00000008
529203 ns: DDR_AXI_HOST4(GPU) ReadStart Address 00130340 to Address 00130378 Size 3 Length 00000008
529327 ns: DDR_AXI_HOST4(GPU) ReadStart Address 00130380 to Address 001303b8 Size 3 Length 00000008
529456 ns: DDR_AXI_HOST4(GPU) ReadStart Address 001303c0 to Address 001303f8 Size 3 Length 00000008
529621 ns: DDR_AXI_HOST4(GPU) ReadStart Address 00130400 to Address 00130438 Size 3 Length 00000008
529780 ns: DDR_AXI_HOST4(GPU) ReadStart Address 00130440 to Address 00130478 Size 3 Length 00000008
529924 ns: DDR_AXI_HOST4(GPU) ReadStart Address 00130480 to Address 001304b8 Size 3 Length 00000008
530048 ns: DDR_AXI_HOST4(GPU) ReadStart Address 001304c0 to Address 001304f8 Size 3 Length 00000008
530193 ns: DDR_AXI_HOST4(GPU) ReadStart Address 00130500 to Address 00130538 Size 3 Length 00000008
530357 ns: DDR_AXI_HOST4(GPU) ReadStart Address 00130540 to Address 00130578 Size 3 Length 00000008
530491 ns: DDR_AXI_HOST4(GPU) ReadStart Address 00130580 to Address 001305b8 Size 3 Length 00000008
530616 ns: DDR_AXI_HOST4(GPU) ReadStart Address 001305c0 to Address 001305f8 Size 3 Length 00000008
530735 ns: DDR_AXI_HOST4(GPU) ReadStart Address 00130600 to Address 00130638 Size 3 Length 00000008
530854 ns: DDR_AXI_HOST4(GPU) ReadStart Address 00130640 to Address 00130678 Size 3 Length 00000008
531213 ns: DDR_AXI_HOST4(GPU) ReadStart Address 00130680 to Address 001306b8 Size 3 Length 00000008
