21973712 ns: DDR_AXI_HOST4(GPU) WriteStart Address 035df000 to Address 035df038 Size 3 Length 00000008
21975354 ns: DDR_AXI_HOST4(GPU) WriteStart Address 035df040 to Address 035df078 Size 3 Length 00000008
21977514 ns: DDR_AXI_HOST4(GPU) WriteStart Address 035df200 to Address 035df238 Size 3 Length 00000008
21978285 ns: DDR_AXI_HOST4(GPU) WriteStart Address 035df240 to Address 035df278 Size 3 Length 00000008
21981046 ns: DDR_AXI_HOST4(GPU) WriteStart Address 035df400 to Address 035df438 Size 3 Length 00000008
21982931 ns: DDR_AXI_HOST4(GPU) WriteStart Address 035df440 to Address 035df478 Size 3 Length 00000008
21984966 ns: DDR_AXI_HOST4(GPU) WriteStart Address 035df600 to Address 035df638 Size 3 Length 00000008
21985737 ns: DDR_AXI_HOST4(GPU) WriteStart Address 035df640 to Address 035df678 Size 3 Length 00000008
21988016 ns: DDR_AXI_HOST4(GPU) WriteStart Address 035df800 to Address 035df838 Size 3 Length 00000008
21989295 ns: DDR_AXI_HOST4(GPU) WriteStart Address 035df840 to Address 035df878 Size 3 Length 00000008
21990101 ns: DDR_AXI_HOST4(GPU) WriteStart Address 035dfa00 to Address 035dfa38 Size 3 Length 00000008
21992688 ns: DDR_AXI_HOST4(GPU) WriteStart Address 035dfa40 to Address 035dfa78 Size 3 Length 00000008
21995593 ns: DDR_AXI_HOST4(GPU) WriteStart Address 035dfc00 to Address 035dfc38 Size 3 Length 00000008
21996345 ns: DDR_AXI_HOST4(GPU) WriteStart Address 035dfc40 to Address 035dfc78 Size 3 Length 00000008
21998250 ns: DDR_AXI_HOST4(GPU) WriteStart Address 035dfe00 to Address 035dfe38 Size 3 Length 00000008
21999439 ns: DDR_AXI_HOST4(GPU) WriteStart Address 035dfe40 to Address 035dfe78 Size 3 Length 00000008
22001957 ns: DDR_AXI_HOST4(GPU) WriteStart Address 035e3000 to Address 035e3038 Size 3 Length 00000008
22002723 ns: DDR_AXI_HOST4(GPU) WriteStart Address 035e3040 to Address 035e3078 Size 3 Length 00000008
22004424 ns: DDR_AXI_HOST4(GPU) WriteStart Address 035e3200 to Address 035e3238 Size 3 Length 00000008
22006404 ns: DDR_AXI_HOST4(GPU) WriteStart Address 035e3240 to Address 035e3278 Size 3 Length 00000008
22007434 ns: DDR_AXI_HOST4(GPU) WriteStart Address 035e3400 to Address 035e3438 Size 3 Length 00000008
22009479 ns: DDR_AXI_HOST4(GPU) WriteStart Address 035e3440 to Address 035e3478 Size 3 Length 00000008
22011877 ns: DDR_AXI_HOST4(GPU) WriteStart Address 035e3600 to Address 035e3638 Size 3 Length 00000008
22014001 ns: DDR_AXI_HOST4(GPU) WriteStart Address 035e3640 to Address 035e3678 Size 3 Length 00000008
22014767 ns: DDR_AXI_HOST4(GPU) WriteStart Address 035e3800 to Address 035e3838 Size 3 Length 00000008
22017051 ns: DDR_AXI_HOST4(GPU) WriteStart Address 035e3840 to Address 035e3878 Size 3 Length 00000008
22017857 ns: DDR_AXI_HOST4(GPU) WriteStart Address 035e3a00 to Address 035e3a38 Size 3 Length 00000008
22019116 ns: DDR_AXI_HOST4(GPU) WriteStart Address 035e3a40 to Address 035e3a78 Size 3 Length 00000008
22021738 ns: DDR_AXI_HOST4(GPU) WriteStart Address 035e3c00 to Address 035e3c38 Size 3 Length 00000008
22024509 ns: DDR_AXI_HOST4(GPU) WriteStart Address 035e3c40 to Address 035e3c78 Size 3 Length 00000008
22025310 ns: DDR_AXI_HOST4(GPU) WriteStart Address 035e3e00 to Address 035e3e38 Size 3 Length 00000008
22026569 ns: DDR_AXI_HOST4(GPU) WriteStart Address 035e3e40 to Address 035e3e78 Size 3 Length 00000008
22028703 ns: DDR_AXI_HOST4(GPU) WriteStart Address 035e7000 to Address 035e7038 Size 3 Length 00000008
22030992 ns: DDR_AXI_HOST4(GPU) WriteStart Address 035e7040 to Address 035e7078 Size 3 Length 00000008
22031797 ns: DDR_AXI_HOST4(GPU) WriteStart Address 035e7200 to Address 035e7238 Size 3 Length 00000008
22034126 ns: DDR_AXI_HOST4(GPU) WriteStart Address 035e7240 to Address 035e7278 Size 3 Length 00000008
22035673 ns: DDR_AXI_HOST4(GPU) WriteStart Address 035e7400 to Address 035e7438 Size 3 Length 00000008
22036429 ns: DDR_AXI_HOST4(GPU) WriteStart Address 035e7440 to Address 035e7478 Size 3 Length 00000008
22038768 ns: DDR_AXI_HOST4(GPU) WriteStart Address 035e7600 to Address 035e7638 Size 3 Length 00000008
22041116 ns: DDR_AXI_HOST4(GPU) WriteStart Address 035e7640 to Address 035e7678 Size 3 Length 00000008
22043141 ns: DDR_AXI_HOST4(GPU) WriteStart Address 035e7800 to Address 035e7838 Size 3 Length 00000008
22043897 ns: DDR_AXI_HOST4(GPU) WriteStart Address 035e7840 to Address 035e7878 Size 3 Length 00000008
22046221 ns: DDR_AXI_HOST4(GPU) WriteStart Address 035e7a00 to Address 035e7a38 Size 3 Length 00000008
22046987 ns: DDR_AXI_HOST4(GPU) WriteStart Address 035e7a40 to Address 035e7a78 Size 3 Length 00000008
22048380 ns: DDR_AXI_HOST4(GPU) WriteStart Address 035e7c00 to Address 035e7c38 Size 3 Length 00000008
22050852 ns: DDR_AXI_HOST4(GPU) WriteStart Address 035e7c40 to Address 035e7c78 Size 3 Length 00000008
22053798 ns: DDR_AXI_HOST4(GPU) WriteStart Address 035e7e00 to Address 035e7e38 Size 3 Length 00000008
22054589 ns: DDR_AXI_HOST4(GPU) WriteStart Address 035e7e40 to Address 035e7e78 Size 3 Length 00000008
22060529 ns: DDR_AXI_HOST4(GPU) WriteStart Address 035eb000 to Address 035eb038 Size 3 Length 00000008
22060703 ns: DDR_AXI_HOST4(GPU) WriteStart Address 035eb040 to Address 035eb078 Size 3 Length 00000008
22064912 ns: DDR_AXI_HOST4(GPU) WriteStart Address 035eb200 to Address 035eb238 Size 3 Length 00000008
22066698 ns: DDR_AXI_HOST4(GPU) WriteStart Address 035eb240 to Address 035eb278 Size 3 Length 00000008
22068116 ns: DDR_AXI_HOST4(GPU) WriteStart Address 035eb400 to Address 035eb438 Size 3 Length 00000008
22069574 ns: DDR_AXI_HOST4(GPU) WriteStart Address 035eb440 to Address 035eb478 Size 3 Length 00000008
22071236 ns: DDR_AXI_HOST4(GPU) WriteStart Address 035eb600 to Address 035eb638 Size 3 Length 00000008
22074599 ns: DDR_AXI_HOST4(GPU) WriteStart Address 035eb640 to Address 035eb678 Size 3 Length 00000008
22077350 ns: DDR_AXI_HOST4(GPU) WriteStart Address 035eb800 to Address 035eb838 Size 3 Length 00000008
22079624 ns: DDR_AXI_HOST4(GPU) WriteStart Address 035eb840 to Address 035eb878 Size 3 Length 00000008
22080803 ns: DDR_AXI_HOST4(GPU) WriteStart Address 035eba00 to Address 035eba38 Size 3 Length 00000008
22084161 ns: DDR_AXI_HOST4(GPU) WriteStart Address 035eba40 to Address 035eba78 Size 3 Length 00000008
22086798 ns: DDR_AXI_HOST4(GPU) WriteStart Address 035ebc00 to Address 035ebc38 Size 3 Length 00000008
22089186 ns: DDR_AXI_HOST4(GPU) WriteStart Address 035ebc40 to Address 035ebc78 Size 3 Length 00000008
22090156 ns: DDR_AXI_HOST4(GPU) WriteStart Address 035ebe00 to Address 035ebe38 Size 3 Length 00000008
22093728 ns: DDR_AXI_HOST4(GPU) WriteStart Address 035ebe40 to Address 035ebe78 Size 3 Length 00000008
22096485 ns: DDR_AXI_HOST4(GPU) WriteStart Address 035df000 to Address 035df038 Size 3 Length 00000008
22098753 ns: DDR_AXI_HOST4(GPU) WriteStart Address 035df040 to Address 035df078 Size 3 Length 00000008
22100972 ns: DDR_AXI_HOST4(GPU) WriteStart Address 035df200 to Address 035df238 Size 3 Length 00000008
22103778 ns: DDR_AXI_HOST4(GPU) WriteStart Address 035df240 to Address 035df278 Size 3 Length 00000008
22104748 ns: DDR_AXI_HOST4(GPU) WriteStart Address 035df400 to Address 035df438 Size 3 Length 00000008
22106654 ns: DDR_AXI_HOST4(GPU) WriteStart Address 035df440 to Address 035df478 Size 3 Length 00000008
22110261 ns: DDR_AXI_HOST4(GPU) WriteStart Address 035df600 to Address 035df638 Size 3 Length 00000008
22110380 ns: DDR_AXI_HOST4(GPU) WriteStart Address 035df640 to Address 035df678 Size 3 Length 00000008
22114316 ns: DDR_AXI_HOST4(GPU) WriteStart Address 035df800 to Address 035df838 Size 3 Length 00000008
22116221 ns: DDR_AXI_HOST4(GPU) WriteStart Address 035df840 to Address 035df878 Size 3 Length 00000008
22119823 ns: DDR_AXI_HOST4(GPU) WriteStart Address 035dfa00 to Address 035dfa38 Size 3 Length 00000008
22119948 ns: DDR_AXI_HOST4(GPU) WriteStart Address 035dfa40 to Address 035dfa78 Size 3 Length 00000008
22124485 ns: DDR_AXI_HOST4(GPU) WriteStart Address 035dfc00 to Address 035dfc38 Size 3 Length 00000008
22125579 ns: DDR_AXI_HOST4(GPU) WriteStart Address 035dfc40 to Address 035dfc78 Size 3 Length 00000008
22129390 ns: DDR_AXI_HOST4(GPU) WriteStart Address 035dfe00 to Address 035dfe38 Size 3 Length 00000008
22129510 ns: DDR_AXI_HOST4(GPU) WriteStart Address 035dfe40 to Address 035dfe78 Size 3 Length 00000008
22134415 ns: DDR_AXI_HOST4(GPU) WriteStart Address 035e3000 to Address 035e3038 Size 3 Length 00000008
22136390 ns: DDR_AXI_HOST4(GPU) WriteStart Address 035e3040 to Address 035e3078 Size 3 Length 00000008
22138873 ns: DDR_AXI_HOST4(GPU) WriteStart Address 035e3200 to Address 035e3238 Size 3 Length 00000008
22139565 ns: DDR_AXI_HOST4(GPU) WriteStart Address 035e3240 to Address 035e3278 Size 3 Length 00000008
22140167 ns: DDR_AXI_HOST4(GPU) WriteStart Address 035e3400 to Address 035e3438 Size 3 Length 00000008
22144102 ns: DDR_AXI_HOST4(GPU) WriteStart Address 035e3440 to Address 035e3478 Size 3 Length 00000008
22147465 ns: DDR_AXI_HOST4(GPU) WriteStart Address 035e3600 to Address 035e3638 Size 3 Length 00000008
22148993 ns: DDR_AXI_HOST4(GPU) WriteStart Address 035e3640 to Address 035e3678 Size 3 Length 00000008
22149734 ns: DDR_AXI_HOST4(GPU) WriteStart Address 035e3800 to Address 035e3838 Size 3 Length 00000008
22153097 ns: DDR_AXI_HOST4(GPU) WriteStart Address 035e3840 to Address 035e3878 Size 3 Length 00000008
22155848 ns: DDR_AXI_HOST4(GPU) WriteStart Address 035e3a00 to Address 035e3a38 Size 3 Length 00000008
22158122 ns: DDR_AXI_HOST4(GPU) WriteStart Address 035e3a40 to Address 035e3a78 Size 3 Length 00000008
22159301 ns: DDR_AXI_HOST4(GPU) WriteStart Address 035e3c00 to Address 035e3c38 Size 3 Length 00000008
22163147 ns: DDR_AXI_HOST4(GPU) WriteStart Address 035e3c40 to Address 035e3c78 Size 3 Length 00000008
22165415 ns: DDR_AXI_HOST4(GPU) WriteStart Address 035e3e00 to Address 035e3e38 Size 3 Length 00000008
22167202 ns: DDR_AXI_HOST4(GPU) WriteStart Address 035e3e40 to Address 035e3e78 Size 3 Length 00000008
22169202 ns: DDR_AXI_HOST4(GPU) WriteStart Address 035e7000 to Address 035e7038 Size 3 Length 00000008
22172714 ns: DDR_AXI_HOST4(GPU) WriteStart Address 035e7040 to Address 035e7078 Size 3 Length 00000008
22174983 ns: DDR_AXI_HOST4(GPU) WriteStart Address 035e7200 to Address 035e7238 Size 3 Length 00000008
22176834 ns: DDR_AXI_HOST4(GPU) WriteStart Address 035e7240 to Address 035e7278 Size 3 Length 00000008
22179401 ns: DDR_AXI_HOST4(GPU) WriteStart Address 035e7400 to Address 035e7438 Size 3 Length 00000008
22179520 ns: DDR_AXI_HOST4(GPU) WriteStart Address 035e7440 to Address 035e7478 Size 3 Length 00000008
22183247 ns: DDR_AXI_HOST4(GPU) WriteStart Address 035e7600 to Address 035e7638 Size 3 Length 00000008
22185152 ns: DDR_AXI_HOST4(GPU) WriteStart Address 035e7640 to Address 035e7678 Size 3 Length 00000008
22188759 ns: DDR_AXI_HOST4(GPU) WriteStart Address 035e7800 to Address 035e7838 Size 3 Length 00000008
22189421 ns: DDR_AXI_HOST4(GPU) WriteStart Address 035e7840 to Address 035e7878 Size 3 Length 00000008
22193421 ns: DDR_AXI_HOST4(GPU) WriteStart Address 035e7a00 to Address 035e7a38 Size 3 Length 00000008
22194719 ns: DDR_AXI_HOST4(GPU) WriteStart Address 035e7a40 to Address 035e7a78 Size 3 Length 00000008
22198321 ns: DDR_AXI_HOST4(GPU) WriteStart Address 035e7c00 to Address 035e7c38 Size 3 Length 00000008
22198446 ns: DDR_AXI_HOST4(GPU) WriteStart Address 035e7c40 to Address 035e7c78 Size 3 Length 00000008
22202983 ns: DDR_AXI_HOST4(GPU) WriteStart Address 035e7e00 to Address 035e7e38 Size 3 Length 00000008
22204620 ns: DDR_AXI_HOST4(GPU) WriteStart Address 035e7e40 to Address 035e7e78 Size 3 Length 00000008
22207888 ns: DDR_AXI_HOST4(GPU) WriteStart Address 035eb000 to Address 035eb038 Size 3 Length 00000008
22208008 ns: DDR_AXI_HOST4(GPU) WriteStart Address 035eb040 to Address 035eb078 Size 3 Length 00000008
22212913 ns: DDR_AXI_HOST4(GPU) WriteStart Address 035eb200 to Address 035eb238 Size 3 Length 00000008
22213640 ns: DDR_AXI_HOST4(GPU) WriteStart Address 035eb240 to Address 035eb278 Size 3 Length 00000008
22217456 ns: DDR_AXI_HOST4(GPU) WriteStart Address 035eb400 to Address 035eb438 Size 3 Length 00000008
22217575 ns: DDR_AXI_HOST4(GPU) WriteStart Address 035eb440 to Address 035eb478 Size 3 Length 00000008
22222292 ns: DDR_AXI_HOST4(GPU) WriteStart Address 035eb600 to Address 035eb638 Size 3 Length 00000008
22223690 ns: DDR_AXI_HOST4(GPU) WriteStart Address 035eb640 to Address 035eb678 Size 3 Length 00000008
22225963 ns: DDR_AXI_HOST4(GPU) WriteStart Address 035eb800 to Address 035eb838 Size 3 Length 00000008
22227386 ns: DDR_AXI_HOST4(GPU) WriteStart Address 035eb840 to Address 035eb878 Size 3 Length 00000008
22228232 ns: DDR_AXI_HOST4(GPU) WriteStart Address 035eba00 to Address 035eba38 Size 3 Length 00000008
22231595 ns: DDR_AXI_HOST4(GPU) WriteStart Address 035eba40 to Address 035eba78 Size 3 Length 00000008
22234346 ns: DDR_AXI_HOST4(GPU) WriteStart Address 035ebc00 to Address 035ebc38 Size 3 Length 00000008
22236620 ns: DDR_AXI_HOST4(GPU) WriteStart Address 035ebc40 to Address 035ebc78 Size 3 Length 00000008
22237799 ns: DDR_AXI_HOST4(GPU) WriteStart Address 035ebe00 to Address 035ebe38 Size 3 Length 00000008
22241157 ns: DDR_AXI_HOST4(GPU) WriteStart Address 035ebe40 to Address 035ebe78 Size 3 Length 00000008
22243794 ns: DDR_AXI_HOST4(GPU) WriteStart Address 035df000 to Address 035df038 Size 3 Length 00000008
22246182 ns: DDR_AXI_HOST4(GPU) WriteStart Address 035df040 to Address 035df078 Size 3 Length 00000008
22247590 ns: DDR_AXI_HOST4(GPU) WriteStart Address 035df200 to Address 035df238 Size 3 Length 00000008
22250725 ns: DDR_AXI_HOST4(GPU) WriteStart Address 035df240 to Address 035df278 Size 3 Length 00000008
22253481 ns: DDR_AXI_HOST4(GPU) WriteStart Address 035df400 to Address 035df438 Size 3 Length 00000008
22255750 ns: DDR_AXI_HOST4(GPU) WriteStart Address 035df440 to Address 035df478 Size 3 Length 00000008
22257899 ns: DDR_AXI_HOST4(GPU) WriteStart Address 035df600 to Address 035df638 Size 3 Length 00000008
22260774 ns: DDR_AXI_HOST4(GPU) WriteStart Address 035df640 to Address 035df678 Size 3 Length 00000008
22262924 ns: DDR_AXI_HOST4(GPU) WriteStart Address 035df800 to Address 035df838 Size 3 Length 00000008
22263650 ns: DDR_AXI_HOST4(GPU) WriteStart Address 035df840 to Address 035df878 Size 3 Length 00000008
22267799 ns: DDR_AXI_HOST4(GPU) WriteStart Address 035dfa00 to Address 035dfa38 Size 3 Length 00000008
22267814 ns: DDR_AXI_HOST4(GPU) WriteStart Address 035dfa40 to Address 035dfa78 Size 3 Length 00000008
22271312 ns: DDR_AXI_HOST4(GPU) WriteStart Address 035dfc00 to Address 035dfc38 Size 3 Length 00000008
22273217 ns: DDR_AXI_HOST4(GPU) WriteStart Address 035dfc40 to Address 035dfc78 Size 3 Length 00000008
22276819 ns: DDR_AXI_HOST4(GPU) WriteStart Address 035dfe00 to Address 035dfe38 Size 3 Length 00000008
22276944 ns: DDR_AXI_HOST4(GPU) WriteStart Address 035dfe40 to Address 035dfe78 Size 3 Length 00000008
22281481 ns: DDR_AXI_HOST4(GPU) WriteStart Address 035e3000 to Address 035e3038 Size 3 Length 00000008
22282959 ns: DDR_AXI_HOST4(GPU) WriteStart Address 035e3040 to Address 035e3078 Size 3 Length 00000008
22286387 ns: DDR_AXI_HOST4(GPU) WriteStart Address 035e3200 to Address 035e3238 Size 3 Length 00000008
22286506 ns: DDR_AXI_HOST4(GPU) WriteStart Address 035e3240 to Address 035e3278 Size 3 Length 00000008
22291048 ns: DDR_AXI_HOST4(GPU) WriteStart Address 035e3400 to Address 035e3438 Size 3 Length 00000008
22293317 ns: DDR_AXI_HOST4(GPU) WriteStart Address 035e3440 to Address 035e3478 Size 3 Length 00000008
22294894 ns: DDR_AXI_HOST4(GPU) WriteStart Address 035e3600 to Address 035e3638 Size 3 Length 00000008
22296198 ns: DDR_AXI_HOST4(GPU) WriteStart Address 035e3640 to Address 035e3678 Size 3 Length 00000008
22297163 ns: DDR_AXI_HOST4(GPU) WriteStart Address 035e3800 to Address 035e3838 Size 3 Length 00000008
22300735 ns: DDR_AXI_HOST4(GPU) WriteStart Address 035e3840 to Address 035e3878 Size 3 Length 00000008
22303491 ns: DDR_AXI_HOST4(GPU) WriteStart Address 035e3a00 to Address 035e3a38 Size 3 Length 00000008
22305775 ns: DDR_AXI_HOST4(GPU) WriteStart Address 035e3a40 to Address 035e3a78 Size 3 Length 00000008
22306730 ns: DDR_AXI_HOST4(GPU) WriteStart Address 035e3c00 to Address 035e3c38 Size 3 Length 00000008
22310093 ns: DDR_AXI_HOST4(GPU) WriteStart Address 035e3c40 to Address 035e3c78 Size 3 Length 00000008
22313282 ns: DDR_AXI_HOST4(GPU) WriteStart Address 035e3e00 to Address 035e3e38 Size 3 Length 00000008
22315118 ns: DDR_AXI_HOST4(GPU) WriteStart Address 035e3e40 to Address 035e3e78 Size 3 Length 00000008
22316297 ns: DDR_AXI_HOST4(GPU) WriteStart Address 035e7000 to Address 035e7038 Size 3 Length 00000008
22320143 ns: DDR_AXI_HOST4(GPU) WriteStart Address 035e7040 to Address 035e7078 Size 3 Length 00000008
22322412 ns: DDR_AXI_HOST4(GPU) WriteStart Address 035e7200 to Address 035e7238 Size 3 Length 00000008
22324198 ns: DDR_AXI_HOST4(GPU) WriteStart Address 035e7240 to Address 035e7278 Size 3 Length 00000008
22325984 ns: DDR_AXI_HOST4(GPU) WriteStart Address 035e7400 to Address 035e7438 Size 3 Length 00000008
22329710 ns: DDR_AXI_HOST4(GPU) WriteStart Address 035e7440 to Address 035e7478 Size 3 Length 00000008
22331979 ns: DDR_AXI_HOST4(GPU) WriteStart Address 035e7600 to Address 035e7638 Size 3 Length 00000008
22333765 ns: DDR_AXI_HOST4(GPU) WriteStart Address 035e7640 to Address 035e7678 Size 3 Length 00000008
22336397 ns: DDR_AXI_HOST4(GPU) WriteStart Address 035e7800 to Address 035e7838 Size 3 Length 00000008
22336516 ns: DDR_AXI_HOST4(GPU) WriteStart Address 035e7840 to Address 035e7878 Size 3 Length 00000008
22340243 ns: DDR_AXI_HOST4(GPU) WriteStart Address 035e7a00 to Address 035e7a38 Size 3 Length 00000008
22342148 ns: DDR_AXI_HOST4(GPU) WriteStart Address 035e7a40 to Address 035e7a78 Size 3 Length 00000008
22346188 ns: DDR_AXI_HOST4(GPU) WriteStart Address 035e7c00 to Address 035e7c38 Size 3 Length 00000008
22346208 ns: DDR_AXI_HOST4(GPU) WriteStart Address 035e7c40 to Address 035e7c78 Size 3 Length 00000008
22349810 ns: DDR_AXI_HOST4(GPU) WriteStart Address 035e7e00 to Address 035e7e38 Size 3 Length 00000008
22351716 ns: DDR_AXI_HOST4(GPU) WriteStart Address 035e7e40 to Address 035e7e78 Size 3 Length 00000008
22355317 ns: DDR_AXI_HOST4(GPU) WriteStart Address 035eb000 to Address 035eb038 Size 3 Length 00000008
22355442 ns: DDR_AXI_HOST4(GPU) WriteStart Address 035eb040 to Address 035eb078 Size 3 Length 00000008
22359979 ns: DDR_AXI_HOST4(GPU) WriteStart Address 035eb200 to Address 035eb238 Size 3 Length 00000008
22361347 ns: DDR_AXI_HOST4(GPU) WriteStart Address 035eb240 to Address 035eb278 Size 3 Length 00000008
22364885 ns: DDR_AXI_HOST4(GPU) WriteStart Address 035eb400 to Address 035eb438 Size 3 Length 00000008
22365004 ns: DDR_AXI_HOST4(GPU) WriteStart Address 035eb440 to Address 035eb478 Size 3 Length 00000008
22369546 ns: DDR_AXI_HOST4(GPU) WriteStart Address 035eb600 to Address 035eb638 Size 3 Length 00000008
22370636 ns: DDR_AXI_HOST4(GPU) WriteStart Address 035eb640 to Address 035eb678 Size 3 Length 00000008
22374452 ns: DDR_AXI_HOST4(GPU) WriteStart Address 035eb800 to Address 035eb838 Size 3 Length 00000008
22374571 ns: DDR_AXI_HOST4(GPU) WriteStart Address 035eb840 to Address 035eb878 Size 3 Length 00000008
22379114 ns: DDR_AXI_HOST4(GPU) WriteStart Address 035eba00 to Address 035eba38 Size 3 Length 00000008
22381557 ns: DDR_AXI_HOST4(GPU) WriteStart Address 035eba40 to Address 035eba78 Size 3 Length 00000008
22383442 ns: DDR_AXI_HOST4(GPU) WriteStart Address 035ebc00 to Address 035ebc38 Size 3 Length 00000008
22384621 ns: DDR_AXI_HOST4(GPU) WriteStart Address 035ebc40 to Address 035ebc78 Size 3 Length 00000008
22385228 ns: DDR_AXI_HOST4(GPU) WriteStart Address 035ebe00 to Address 035ebe38 Size 3 Length 00000008
22389134 ns: DDR_AXI_HOST4(GPU) WriteStart Address 035ebe40 to Address 035ebe78 Size 3 Length 00000008
22391676 ns: DDR_AXI_HOST4(GPU) WriteStart Address 035df000 to Address 035df038 Size 3 Length 00000008
22394159 ns: DDR_AXI_HOST4(GPU) WriteStart Address 035df040 to Address 035df078 Size 3 Length 00000008
22394795 ns: DDR_AXI_HOST4(GPU) WriteStart Address 035df200 to Address 035df238 Size 3 Length 00000008
22398154 ns: DDR_AXI_HOST4(GPU) WriteStart Address 035df240 to Address 035df278 Size 3 Length 00000008
22400910 ns: DDR_AXI_HOST4(GPU) WriteStart Address 035df400 to Address 035df438 Size 3 Length 00000008
22403179 ns: DDR_AXI_HOST4(GPU) WriteStart Address 035df440 to Address 035df478 Size 3 Length 00000008
22404358 ns: DDR_AXI_HOST4(GPU) WriteStart Address 035df600 to Address 035df638 Size 3 Length 00000008
22408209 ns: DDR_AXI_HOST4(GPU) WriteStart Address 035df640 to Address 035df678 Size 3 Length 00000008
22410353 ns: DDR_AXI_HOST4(GPU) WriteStart Address 035df800 to Address 035df838 Size 3 Length 00000008
22411900 ns: DDR_AXI_HOST4(GPU) WriteStart Address 035df840 to Address 035df878 Size 3 Length 00000008
22414895 ns: DDR_AXI_HOST4(GPU) WriteStart Address 035dfa00 to Address 035dfa38 Size 3 Length 00000008
22417771 ns: DDR_AXI_HOST4(GPU) WriteStart Address 035dfa40 to Address 035dfa78 Size 3 Length 00000008
22418741 ns: DDR_AXI_HOST4(GPU) WriteStart Address 035dfc00 to Address 035dfc38 Size 3 Length 00000008
22422000 ns: DDR_AXI_HOST4(GPU) WriteStart Address 035dfc40 to Address 035dfc78 Size 3 Length 00000008
22424532 ns: DDR_AXI_HOST4(GPU) WriteStart Address 035dfe00 to Address 035dfe38 Size 3 Length 00000008
22424582 ns: DDR_AXI_HOST4(GPU) WriteStart Address 035dfe40 to Address 035dfe78 Size 3 Length 00000008
22428308 ns: DDR_AXI_HOST4(GPU) WriteStart Address 035e3000 to Address 035e3038 Size 3 Length 00000008
22430214 ns: DDR_AXI_HOST4(GPU) WriteStart Address 035e3040 to Address 035e3078 Size 3 Length 00000008
22433816 ns: DDR_AXI_HOST4(GPU) WriteStart Address 035e3200 to Address 035e3238 Size 3 Length 00000008
22433940 ns: DDR_AXI_HOST4(GPU) WriteStart Address 035e3240 to Address 035e3278 Size 3 Length 00000008
22438477 ns: DDR_AXI_HOST4(GPU) WriteStart Address 035e3400 to Address 035e3438 Size 3 Length 00000008
22439781 ns: DDR_AXI_HOST4(GPU) WriteStart Address 035e3440 to Address 035e3478 Size 3 Length 00000008
22443383 ns: DDR_AXI_HOST4(GPU) WriteStart Address 035e3600 to Address 035e3638 Size 3 Length 00000008
22443502 ns: DDR_AXI_HOST4(GPU) WriteStart Address 035e3640 to Address 035e3678 Size 3 Length 00000008
22448045 ns: DDR_AXI_HOST4(GPU) WriteStart Address 035e3800 to Address 035e3838 Size 3 Length 00000008
22450313 ns: DDR_AXI_HOST4(GPU) WriteStart Address 035e3840 to Address 035e3878 Size 3 Length 00000008
22452587 ns: DDR_AXI_HOST4(GPU) WriteStart Address 035e3a00 to Address 035e3a38 Size 3 Length 00000008
22453189 ns: DDR_AXI_HOST4(GPU) WriteStart Address 035e3a40 to Address 035e3a78 Size 3 Length 00000008
22454871 ns: DDR_AXI_HOST4(GPU) WriteStart Address 035e3c00 to Address 035e3c38 Size 3 Length 00000008
22457731 ns: DDR_AXI_HOST4(GPU) WriteStart Address 035e3c40 to Address 035e3c78 Size 3 Length 00000008
22460488 ns: DDR_AXI_HOST4(GPU) WriteStart Address 035e3e00 to Address 035e3e38 Size 3 Length 00000008
22462448 ns: DDR_AXI_HOST4(GPU) WriteStart Address 035e3e40 to Address 035e3e78 Size 3 Length 00000008
22463726 ns: DDR_AXI_HOST4(GPU) WriteStart Address 035e7000 to Address 035e7038 Size 3 Length 00000008
22467522 ns: DDR_AXI_HOST4(GPU) WriteStart Address 035e7040 to Address 035e7078 Size 3 Length 00000008
22470070 ns: DDR_AXI_HOST4(GPU) WriteStart Address 035e7200 to Address 035e7238 Size 3 Length 00000008
22472552 ns: DDR_AXI_HOST4(GPU) WriteStart Address 035e7240 to Address 035e7278 Size 3 Length 00000008
22473294 ns: DDR_AXI_HOST4(GPU) WriteStart Address 035e7400 to Address 035e7438 Size 3 Length 00000008
22477627 ns: DDR_AXI_HOST4(GPU) WriteStart Address 035e7440 to Address 035e7478 Size 3 Length 00000008
22479408 ns: DDR_AXI_HOST4(GPU) WriteStart Address 035e7600 to Address 035e7638 Size 3 Length 00000008
22481194 ns: DDR_AXI_HOST4(GPU) WriteStart Address 035e7640 to Address 035e7678 Size 3 Length 00000008
22482861 ns: DDR_AXI_HOST4(GPU) WriteStart Address 035e7800 to Address 035e7838 Size 3 Length 00000008
22486707 ns: DDR_AXI_HOST4(GPU) WriteStart Address 035e7840 to Address 035e7878 Size 3 Length 00000008
22488975 ns: DDR_AXI_HOST4(GPU) WriteStart Address 035e7a00 to Address 035e7a38 Size 3 Length 00000008
22491244 ns: DDR_AXI_HOST4(GPU) WriteStart Address 035e7a40 to Address 035e7a78 Size 3 Length 00000008
22493393 ns: DDR_AXI_HOST4(GPU) WriteStart Address 035e7c00 to Address 035e7c38 Size 3 Length 00000008
22493513 ns: DDR_AXI_HOST4(GPU) WriteStart Address 035e7c40 to Address 035e7c78 Size 3 Length 00000008
22497239 ns: DDR_AXI_HOST4(GPU) WriteStart Address 035e7e00 to Address 035e7e38 Size 3 Length 00000008
22500378 ns: DDR_AXI_HOST4(GPU) WriteStart Address 035e7e40 to Address 035e7e78 Size 3 Length 00000008
22500687 ns: DDR_AXI_HOST4(GPU) WriteStart Address 035eb000 to Address 035eb038 Size 3 Length 00000008
22501174 ns: DDR_AXI_HOST4(GPU) WriteStart Address 035eb040 to Address 035eb078 Size 3 Length 00000008
22501781 ns: DDR_AXI_HOST4(GPU) WriteStart Address 035eb200 to Address 035eb238 Size 3 Length 00000008
22504538 ns: DDR_AXI_HOST4(GPU) WriteStart Address 035eb240 to Address 035eb278 Size 3 Length 00000008
22505717 ns: DDR_AXI_HOST4(GPU) WriteStart Address 035eb400 to Address 035eb438 Size 3 Length 00000008
22506199 ns: DDR_AXI_HOST4(GPU) WriteStart Address 035eb440 to Address 035eb478 Size 3 Length 00000008
22509234 ns: DDR_AXI_HOST4(GPU) WriteStart Address 035eb600 to Address 035eb638 Size 3 Length 00000008
22512209 ns: DDR_AXI_HOST4(GPU) WriteStart Address 035eb640 to Address 035eb678 Size 3 Length 00000008
22513095 ns: DDR_AXI_HOST4(GPU) WriteStart Address 035eb800 to Address 035eb838 Size 3 Length 00000008
22514349 ns: DDR_AXI_HOST4(GPU) WriteStart Address 035eb840 to Address 035eb878 Size 3 Length 00000008
22516204 ns: DDR_AXI_HOST4(GPU) WriteStart Address 035eba00 to Address 035eba38 Size 3 Length 00000008
22518712 ns: DDR_AXI_HOST4(GPU) WriteStart Address 035eba40 to Address 035eba78 Size 3 Length 00000008
22519851 ns: DDR_AXI_HOST4(GPU) WriteStart Address 035ebc00 to Address 035ebc38 Size 3 Length 00000008
22521319 ns: DDR_AXI_HOST4(GPU) WriteStart Address 035ebc40 to Address 035ebc78 Size 3 Length 00000008
22523657 ns: DDR_AXI_HOST4(GPU) WriteStart Address 035ebe00 to Address 035ebe38 Size 3 Length 00000008
22524289 ns: DDR_AXI_HOST4(GPU) WriteStart Address 035ebe40 to Address 035ebe78 Size 3 Length 00000008
