0
3802
3532
3920
3050
2085
5492
2657
3707
2467
3010
4443
2890
3090
3881
3572
3393
3094
3876
3095
4373
3080
2159
5418
6731
4383
3204
3120
6114
3453
5995
3358
6329
4487
3776
5513
4055
5507
4662
4905
5025
4458
1294
7298
2269
6114
3453
6114
3787
5781
4418
3846
5512
4662
4900
4662
4905
5025
4543
4836
3671
2269
6114
3453
5995
3796
5891
4418
5025
4875
3513
5507
4662
4906
4661
3846
2269
6328
3239
6552
3015
6115
3572
5995
4418
3846
5945
3622
5507
4662
4906
4661
4906
4662
4328
1786
6448
3119
6115
3448
5995
4542
3846
5791
3776
5508
4661
4906
4662
4542
2284
5617
3238
6344
3224
6114
3453
6114
4418
3846
3448
1094
3936
3517
3861
3109
3647
3806
