14992184 ns: DDR_AXI_HOST4(GPU) WriteStart Address 035b7180 to Address 035b71b8 Size 3 Length 00000008
14993985 ns: DDR_AXI_HOST4(GPU) WriteStart Address 035b71c0 to Address 035b71f8 Size 3 Length 00000008
14996025 ns: DDR_AXI_HOST4(GPU) WriteStart Address 035b7380 to Address 035b73b8 Size 3 Length 00000008
14996811 ns: DDR_AXI_HOST4(GPU) WriteStart Address 035b73c0 to Address 035b73f8 Size 3 Length 00000008
14999174 ns: DDR_AXI_HOST4(GPU) WriteStart Address 035b7580 to Address 035b75b8 Size 3 Length 00000008
15000343 ns: DDR_AXI_HOST4(GPU) WriteStart Address 035b75c0 to Address 035b75f8 Size 3 Length 00000008
15001174 ns: DDR_AXI_HOST4(GPU) WriteStart Address 035b7780 to Address 035b77b8 Size 3 Length 00000008
15003746 ns: DDR_AXI_HOST4(GPU) WriteStart Address 035b77c0 to Address 035b77f8 Size 3 Length 00000008
15006751 ns: DDR_AXI_HOST4(GPU) WriteStart Address 035b7980 to Address 035b79b8 Size 3 Length 00000008
15007741 ns: DDR_AXI_HOST4(GPU) WriteStart Address 035b79c0 to Address 035b79f8 Size 3 Length 00000008
15008846 ns: DDR_AXI_HOST4(GPU) WriteStart Address 035b7b80 to Address 035b7bb8 Size 3 Length 00000008
15010716 ns: DDR_AXI_HOST4(GPU) WriteStart Address 035b7bc0 to Address 035b7bf8 Size 3 Length 00000008
15013114 ns: DDR_AXI_HOST4(GPU) WriteStart Address 035b7d80 to Address 035b7db8 Size 3 Length 00000008
15014512 ns: DDR_AXI_HOST4(GPU) WriteStart Address 035b7dc0 to Address 035b7df8 Size 3 Length 00000008
15015985 ns: DDR_AXI_HOST4(GPU) WriteStart Address 035b7f80 to Address 035b7fb8 Size 3 Length 00000008
15017463 ns: DDR_AXI_HOST4(GPU) WriteStart Address 035b7fc0 to Address 035b7ff8 Size 3 Length 00000008
15018343 ns: DDR_AXI_HOST4(GPU) WriteStart Address 035bb180 to Address 035bb1b8 Size 3 Length 00000008
15020737 ns: DDR_AXI_HOST4(GPU) WriteStart Address 035bb1c0 to Address 035bb1f8 Size 3 Length 00000008
15023154 ns: DDR_AXI_HOST4(GPU) WriteStart Address 035bb380 to Address 035bb3b8 Size 3 Length 00000008
15025259 ns: DDR_AXI_HOST4(GPU) WriteStart Address 035bb3c0 to Address 035bb3f8 Size 3 Length 00000008
15026144 ns: DDR_AXI_HOST4(GPU) WriteStart Address 035bb580 to Address 035bb5b8 Size 3 Length 00000008
15028309 ns: DDR_AXI_HOST4(GPU) WriteStart Address 035bb5c0 to Address 035bb5f8 Size 3 Length 00000008
15029254 ns: DDR_AXI_HOST4(GPU) WriteStart Address 035bb780 to Address 035bb7b8 Size 3 Length 00000008
15030169 ns: DDR_AXI_HOST4(GPU) WriteStart Address 035bb7c0 to Address 035bb7f8 Size 3 Length 00000008
15032871 ns: DDR_AXI_HOST4(GPU) WriteStart Address 035bb980 to Address 035bb9b8 Size 3 Length 00000008
15035766 ns: DDR_AXI_HOST4(GPU) WriteStart Address 035bb9c0 to Address 035bb9f8 Size 3 Length 00000008
15036692 ns: DDR_AXI_HOST4(GPU) WriteStart Address 035bbb80 to Address 035bbbb8 Size 3 Length 00000008
15037622 ns: DDR_AXI_HOST4(GPU) WriteStart Address 035bbbc0 to Address 035bbbf8 Size 3 Length 00000008
15039851 ns: DDR_AXI_HOST4(GPU) WriteStart Address 035bbd80 to Address 035bbdb8 Size 3 Length 00000008
15042050 ns: DDR_AXI_HOST4(GPU) WriteStart Address 035bbdc0 to Address 035bbdf8 Size 3 Length 00000008
15043354 ns: DDR_AXI_HOST4(GPU) WriteStart Address 035bbf80 to Address 035bbfb8 Size 3 Length 00000008
15044697 ns: DDR_AXI_HOST4(GPU) WriteStart Address 035bbfc0 to Address 035bbff8 Size 3 Length 00000008
15046831 ns: DDR_AXI_HOST4(GPU) WriteStart Address 035bf180 to Address 035bf1b8 Size 3 Length 00000008
15047503 ns: DDR_AXI_HOST4(GPU) WriteStart Address 035bf1c0 to Address 035bf1f8 Size 3 Length 00000008
15050304 ns: DDR_AXI_HOST4(GPU) WriteStart Address 035bf380 to Address 035bf3b8 Size 3 Length 00000008
15052150 ns: DDR_AXI_HOST4(GPU) WriteStart Address 035bf3c0 to Address 035bf3f8 Size 3 Length 00000008
15054284 ns: DDR_AXI_HOST4(GPU) WriteStart Address 035bf580 to Address 035bf5b8 Size 3 Length 00000008
15054951 ns: DDR_AXI_HOST4(GPU) WriteStart Address 035bf5c0 to Address 035bf5f8 Size 3 Length 00000008
15057274 ns: DDR_AXI_HOST4(GPU) WriteStart Address 035bf780 to Address 035bf7b8 Size 3 Length 00000008
15058344 ns: DDR_AXI_HOST4(GPU) WriteStart Address 035bf7c0 to Address 035bf7f8 Size 3 Length 00000008
15059379 ns: DDR_AXI_HOST4(GPU) WriteStart Address 035bf980 to Address 035bf9b8 Size 3 Length 00000008
15061906 ns: DDR_AXI_HOST4(GPU) WriteStart Address 035bf9c0 to Address 035bf9f8 Size 3 Length 00000008
15064841 ns: DDR_AXI_HOST4(GPU) WriteStart Address 035bfb80 to Address 035bfbb8 Size 3 Length 00000008
15065921 ns: DDR_AXI_HOST4(GPU) WriteStart Address 035bfbc0 to Address 035bfbf8 Size 3 Length 00000008
15066951 ns: DDR_AXI_HOST4(GPU) WriteStart Address 035bfd80 to Address 035bfdb8 Size 3 Length 00000008
15068876 ns: DDR_AXI_HOST4(GPU) WriteStart Address 035bfdc0 to Address 035bfdf8 Size 3 Length 00000008
15069841 ns: DDR_AXI_HOST4(GPU) WriteStart Address 035bff80 to Address 035bffb8 Size 3 Length 00000008
15071966 ns: DDR_AXI_HOST4(GPU) WriteStart Address 035bffc0 to Address 035bfff8 Size 3 Length 00000008
15076831 ns: DDR_AXI_HOST4(GPU) WriteStart Address 035c3180 to Address 035c31b8 Size 3 Length 00000008
15079583 ns: DDR_AXI_HOST4(GPU) WriteStart Address 035c31c0 to Address 035c31f8 Size 3 Length 00000008
15080667 ns: DDR_AXI_HOST4(GPU) WriteStart Address 035c3380 to Address 035c33b8 Size 3 Length 00000008
15083946 ns: DDR_AXI_HOST4(GPU) WriteStart Address 035c33c0 to Address 035c33f8 Size 3 Length 00000008
15085404 ns: DDR_AXI_HOST4(GPU) WriteStart Address 035c3580 to Address 035c35b8 Size 3 Length 00000008
15088976 ns: DDR_AXI_HOST4(GPU) WriteStart Address 035c35c0 to Address 035c35f8 Size 3 Length 00000008
15089941 ns: DDR_AXI_HOST4(GPU) WriteStart Address 035c3780 to Address 035c37b8 Size 3 Length 00000008
15093304 ns: DDR_AXI_HOST4(GPU) WriteStart Address 035c37c0 to Address 035c37f8 Size 3 Length 00000008
15096752 ns: DDR_AXI_HOST4(GPU) WriteStart Address 035c3980 to Address 035c39b8 Size 3 Length 00000008
15098329 ns: DDR_AXI_HOST4(GPU) WriteStart Address 035c39c0 to Address 035c39f8 Size 3 Length 00000008
15100478 ns: DDR_AXI_HOST4(GPU) WriteStart Address 035c3b80 to Address 035c3bb8 Size 3 Length 00000008
15103354 ns: DDR_AXI_HOST4(GPU) WriteStart Address 035c3bc0 to Address 035c3bf8 Size 3 Length 00000008
15104533 ns: DDR_AXI_HOST4(GPU) WriteStart Address 035c3d80 to Address 035c3db8 Size 3 Length 00000008
15106563 ns: DDR_AXI_HOST4(GPU) WriteStart Address 035c3dc0 to Address 035c3df8 Size 3 Length 00000008
15109090 ns: DDR_AXI_HOST4(GPU) WriteStart Address 035c3f80 to Address 035c3fb8 Size 3 Length 00000008
15112921 ns: DDR_AXI_HOST4(GPU) WriteStart Address 035c3fc0 to Address 035c3ff8 Size 3 Length 00000008
15115678 ns: DDR_AXI_HOST4(GPU) WriteStart Address 035b7180 to Address 035b71b8 Size 3 Length 00000008
15116668 ns: DDR_AXI_HOST4(GPU) WriteStart Address 035b71c0 to Address 035b71f8 Size 3 Length 00000008
15119608 ns: DDR_AXI_HOST4(GPU) WriteStart Address 035b7380 to Address 035b73b8 Size 3 Length 00000008
15119732 ns: DDR_AXI_HOST4(GPU) WriteStart Address 035b73c0 to Address 035b73f8 Size 3 Length 00000008
15123454 ns: DDR_AXI_HOST4(GPU) WriteStart Address 035b7580 to Address 035b75b8 Size 3 Length 00000008
15125364 ns: DDR_AXI_HOST4(GPU) WriteStart Address 035b75c0 to Address 035b75f8 Size 3 Length 00000008
15129299 ns: DDR_AXI_HOST4(GPU) WriteStart Address 035b7780 to Address 035b77b8 Size 3 Length 00000008
15129314 ns: DDR_AXI_HOST4(GPU) WriteStart Address 035b77c0 to Address 035b77f8 Size 3 Length 00000008
15133628 ns: DDR_AXI_HOST4(GPU) WriteStart Address 035b7980 to Address 035b79b8 Size 3 Length 00000008
15134926 ns: DDR_AXI_HOST4(GPU) WriteStart Address 035b79c0 to Address 035b79f8 Size 3 Length 00000008
15136872 ns: DDR_AXI_HOST4(GPU) WriteStart Address 035b7b80 to Address 035b7bb8 Size 3 Length 00000008
15138653 ns: DDR_AXI_HOST4(GPU) WriteStart Address 035b7bc0 to Address 035b7bf8 Size 3 Length 00000008
15143195 ns: DDR_AXI_HOST4(GPU) WriteStart Address 035b7d80 to Address 035b7db8 Size 3 Length 00000008
15144509 ns: DDR_AXI_HOST4(GPU) WriteStart Address 035b7dc0 to Address 035b7df8 Size 3 Length 00000008
15145464 ns: DDR_AXI_HOST4(GPU) WriteStart Address 035b7f80 to Address 035b7fb8 Size 3 Length 00000008
15148220 ns: DDR_AXI_HOST4(GPU) WriteStart Address 035b7fc0 to Address 035b7ff8 Size 3 Length 00000008
15152757 ns: DDR_AXI_HOST4(GPU) WriteStart Address 035bb180 to Address 035bb1b8 Size 3 Length 00000008
15152882 ns: DDR_AXI_HOST4(GPU) WriteStart Address 035bb1c0 to Address 035bb1f8 Size 3 Length 00000008
15155633 ns: DDR_AXI_HOST4(GPU) WriteStart Address 035bb380 to Address 035bb3b8 Size 3 Length 00000008
15157907 ns: DDR_AXI_HOST4(GPU) WriteStart Address 035bb3c0 to Address 035bb3f8 Size 3 Length 00000008
15158877 ns: DDR_AXI_HOST4(GPU) WriteStart Address 035bb580 to Address 035bb5b8 Size 3 Length 00000008
15162444 ns: DDR_AXI_HOST4(GPU) WriteStart Address 035bb5c0 to Address 035bb5f8 Size 3 Length 00000008
15165200 ns: DDR_AXI_HOST4(GPU) WriteStart Address 035bb780 to Address 035bb7b8 Size 3 Length 00000008
15167474 ns: DDR_AXI_HOST4(GPU) WriteStart Address 035bb7c0 to Address 035bb7f8 Size 3 Length 00000008
15169743 ns: DDR_AXI_HOST4(GPU) WriteStart Address 035bb980 to Address 035bb9b8 Size 3 Length 00000008
15172499 ns: DDR_AXI_HOST4(GPU) WriteStart Address 035bb9c0 to Address 035bb9f8 Size 3 Length 00000008
15173469 ns: DDR_AXI_HOST4(GPU) WriteStart Address 035bbb80 to Address 035bbbb8 Size 3 Length 00000008
15175375 ns: DDR_AXI_HOST4(GPU) WriteStart Address 035bbbc0 to Address 035bbbf8 Size 3 Length 00000008
15178006 ns: DDR_AXI_HOST4(GPU) WriteStart Address 035bbd80 to Address 035bbdb8 Size 3 Length 00000008
15182394 ns: DDR_AXI_HOST4(GPU) WriteStart Address 035bbdc0 to Address 035bbdf8 Size 3 Length 00000008
15184121 ns: DDR_AXI_HOST4(GPU) WriteStart Address 035bbf80 to Address 035bbfb8 Size 3 Length 00000008
15185300 ns: DDR_AXI_HOST4(GPU) WriteStart Address 035bbfc0 to Address 035bbff8 Size 3 Length 00000008
15188544 ns: DDR_AXI_HOST4(GPU) WriteStart Address 035bf180 to Address 035bf1b8 Size 3 Length 00000008
15191419 ns: DDR_AXI_HOST4(GPU) WriteStart Address 035bf1c0 to Address 035bf1f8 Size 3 Length 00000008
15192599 ns: DDR_AXI_HOST4(GPU) WriteStart Address 035bf380 to Address 035bf3b8 Size 3 Length 00000008
15194295 ns: DDR_AXI_HOST4(GPU) WriteStart Address 035bf3c0 to Address 035bf3f8 Size 3 Length 00000008
15198106 ns: DDR_AXI_HOST4(GPU) WriteStart Address 035bf580 to Address 035bf5b8 Size 3 Length 00000008
15198230 ns: DDR_AXI_HOST4(GPU) WriteStart Address 035bf5c0 to Address 035bf5f8 Size 3 Length 00000008
15201952 ns: DDR_AXI_HOST4(GPU) WriteStart Address 035bf780 to Address 035bf7b8 Size 3 Length 00000008
15203862 ns: DDR_AXI_HOST4(GPU) WriteStart Address 035bf7c0 to Address 035bf7f8 Size 3 Length 00000008
15207688 ns: DDR_AXI_HOST4(GPU) WriteStart Address 035bf980 to Address 035bf9b8 Size 3 Length 00000008
15207793 ns: DDR_AXI_HOST4(GPU) WriteStart Address 035bf9c0 to Address 035bf9f8 Size 3 Length 00000008
15211763 ns: DDR_AXI_HOST4(GPU) WriteStart Address 035bfb80 to Address 035bfbb8 Size 3 Length 00000008
15213425 ns: DDR_AXI_HOST4(GPU) WriteStart Address 035bfbc0 to Address 035bfbf8 Size 3 Length 00000008
15215574 ns: DDR_AXI_HOST4(GPU) WriteStart Address 035bfd80 to Address 035bfdb8 Size 3 Length 00000008
15217151 ns: DDR_AXI_HOST4(GPU) WriteStart Address 035bfdc0 to Address 035bfdf8 Size 3 Length 00000008
15221569 ns: DDR_AXI_HOST4(GPU) WriteStart Address 035bff80 to Address 035bffb8 Size 3 Length 00000008
15222843 ns: DDR_AXI_HOST4(GPU) WriteStart Address 035bffc0 to Address 035bfff8 Size 3 Length 00000008
15226111 ns: DDR_AXI_HOST4(GPU) WriteStart Address 035c3180 to Address 035c31b8 Size 3 Length 00000008
15226231 ns: DDR_AXI_HOST4(GPU) WriteStart Address 035c31c0 to Address 035c31f8 Size 3 Length 00000008
15231136 ns: DDR_AXI_HOST4(GPU) WriteStart Address 035c3380 to Address 035c33b8 Size 3 Length 00000008
15233042 ns: DDR_AXI_HOST4(GPU) WriteStart Address 035c33c0 to Address 035c33f8 Size 3 Length 00000008
15235489 ns: DDR_AXI_HOST4(GPU) WriteStart Address 035c3580 to Address 035c35b8 Size 3 Length 00000008
15236280 ns: DDR_AXI_HOST4(GPU) WriteStart Address 035c35c0 to Address 035c35f8 Size 3 Length 00000008
15236887 ns: DDR_AXI_HOST4(GPU) WriteStart Address 035c3780 to Address 035c37b8 Size 3 Length 00000008
15240823 ns: DDR_AXI_HOST4(GPU) WriteStart Address 035c37c0 to Address 035c37f8 Size 3 Length 00000008
15244186 ns: DDR_AXI_HOST4(GPU) WriteStart Address 035c3980 to Address 035c39b8 Size 3 Length 00000008
15245604 ns: DDR_AXI_HOST4(GPU) WriteStart Address 035c39c0 to Address 035c39f8 Size 3 Length 00000008
15246455 ns: DDR_AXI_HOST4(GPU) WriteStart Address 035c3b80 to Address 035c3bb8 Size 3 Length 00000008
15250629 ns: DDR_AXI_HOST4(GPU) WriteStart Address 035c3bc0 to Address 035c3bf8 Size 3 Length 00000008
15252569 ns: DDR_AXI_HOST4(GPU) WriteStart Address 035c3d80 to Address 035c3db8 Size 3 Length 00000008
15254355 ns: DDR_AXI_HOST4(GPU) WriteStart Address 035c3dc0 to Address 035c3df8 Size 3 Length 00000008
15256022 ns: DDR_AXI_HOST4(GPU) WriteStart Address 035c3f80 to Address 035c3fb8 Size 3 Length 00000008
15259868 ns: DDR_AXI_HOST4(GPU) WriteStart Address 035c3fc0 to Address 035c3ff8 Size 3 Length 00000008
15262136 ns: DDR_AXI_HOST4(GPU) WriteStart Address 035b7180 to Address 035b71b8 Size 3 Length 00000008
15263435 ns: DDR_AXI_HOST4(GPU) WriteStart Address 035b71c0 to Address 035b71f8 Size 3 Length 00000008
15265813 ns: DDR_AXI_HOST4(GPU) WriteStart Address 035b7380 to Address 035b73b8 Size 3 Length 00000008
15269430 ns: DDR_AXI_HOST4(GPU) WriteStart Address 035b73c0 to Address 035b73f8 Size 3 Length 00000008
15271579 ns: DDR_AXI_HOST4(GPU) WriteStart Address 035b7580 to Address 035b75b8 Size 3 Length 00000008
15272311 ns: DDR_AXI_HOST4(GPU) WriteStart Address 035b75c0 to Address 035b75f8 Size 3 Length 00000008
15276122 ns: DDR_AXI_HOST4(GPU) WriteStart Address 035b7780 to Address 035b77b8 Size 3 Length 00000008
15276241 ns: DDR_AXI_HOST4(GPU) WriteStart Address 035b77c0 to Address 035b77f8 Size 3 Length 00000008
15279967 ns: DDR_AXI_HOST4(GPU) WriteStart Address 035b7980 to Address 035b79b8 Size 3 Length 00000008
15281873 ns: DDR_AXI_HOST4(GPU) WriteStart Address 035b79c0 to Address 035b79f8 Size 3 Length 00000008
15286022 ns: DDR_AXI_HOST4(GPU) WriteStart Address 035b7b80 to Address 035b7bb8 Size 3 Length 00000008
15286037 ns: DDR_AXI_HOST4(GPU) WriteStart Address 035b7bc0 to Address 035b7bf8 Size 3 Length 00000008
15290137 ns: DDR_AXI_HOST4(GPU) WriteStart Address 035b7d80 to Address 035b7db8 Size 3 Length 00000008
15291440 ns: DDR_AXI_HOST4(GPU) WriteStart Address 035b7dc0 to Address 035b7df8 Size 3 Length 00000008
15294072 ns: DDR_AXI_HOST4(GPU) WriteStart Address 035b7f80 to Address 035b7fb8 Size 3 Length 00000008
15295166 ns: DDR_AXI_HOST4(GPU) WriteStart Address 035b7fc0 to Address 035b7ff8 Size 3 Length 00000008
15299704 ns: DDR_AXI_HOST4(GPU) WriteStart Address 035bb180 to Address 035bb1b8 Size 3 Length 00000008
15301182 ns: DDR_AXI_HOST4(GPU) WriteStart Address 035bb1c0 to Address 035bb1f8 Size 3 Length 00000008
15302943 ns: DDR_AXI_HOST4(GPU) WriteStart Address 035bb380 to Address 035bb3b8 Size 3 Length 00000008
15304853 ns: DDR_AXI_HOST4(GPU) WriteStart Address 035bb3c0 to Address 035bb3f8 Size 3 Length 00000008
15307973 ns: DDR_AXI_HOST4(GPU) WriteStart Address 035bb580 to Address 035bb5b8 Size 3 Length 00000008
15309390 ns: DDR_AXI_HOST4(GPU) WriteStart Address 035bb5c0 to Address 035bb5f8 Size 3 Length 00000008
15312510 ns: DDR_AXI_HOST4(GPU) WriteStart Address 035bb780 to Address 035bb7b8 Size 3 Length 00000008
15313933 ns: DDR_AXI_HOST4(GPU) WriteStart Address 035bb7c0 to Address 035bb7f8 Size 3 Length 00000008
15316361 ns: DDR_AXI_HOST4(GPU) WriteStart Address 035bb980 to Address 035bb9b8 Size 3 Length 00000008
15318958 ns: DDR_AXI_HOST4(GPU) WriteStart Address 035bb9c0 to Address 035bb9f8 Size 3 Length 00000008
15321590 ns: DDR_AXI_HOST4(GPU) WriteStart Address 035bbb80 to Address 035bbbb8 Size 3 Length 00000008
15323998 ns: DDR_AXI_HOST4(GPU) WriteStart Address 035bbbc0 to Address 035bbbf8 Size 3 Length 00000008
15324953 ns: DDR_AXI_HOST4(GPU) WriteStart Address 035bbd80 to Address 035bbdb8 Size 3 Length 00000008
15328316 ns: DDR_AXI_HOST4(GPU) WriteStart Address 035bbdc0 to Address 035bbdf8 Size 3 Length 00000008
15331505 ns: DDR_AXI_HOST4(GPU) WriteStart Address 035bbf80 to Address 035bbfb8 Size 3 Length 00000008
15333341 ns: DDR_AXI_HOST4(GPU) WriteStart Address 035bbfc0 to Address 035bbff8 Size 3 Length 00000008
15334520 ns: DDR_AXI_HOST4(GPU) WriteStart Address 035bf180 to Address 035bf1b8 Size 3 Length 00000008
15338366 ns: DDR_AXI_HOST4(GPU) WriteStart Address 035bf1c0 to Address 035bf1f8 Size 3 Length 00000008
15340515 ns: DDR_AXI_HOST4(GPU) WriteStart Address 035bf380 to Address 035bf3b8 Size 3 Length 00000008
15340754 ns: DDR_AXI_HOST4(GPU) WriteStart Address 035bf3c0 to Address 035bf3f8 Size 3 Length 00000008
15345052 ns: DDR_AXI_HOST4(GPU) WriteStart Address 035bf580 to Address 035bf5b8 Size 3 Length 00000008
15345351 ns: DDR_AXI_HOST4(GPU) WriteStart Address 035bf5c0 to Address 035bf5f8 Size 3 Length 00000008
15349232 ns: DDR_AXI_HOST4(GPU) WriteStart Address 035bf780 to Address 035bf7b8 Size 3 Length 00000008
15350809 ns: DDR_AXI_HOST4(GPU) WriteStart Address 035bf7c0 to Address 035bf7f8 Size 3 Length 00000008
15354620 ns: DDR_AXI_HOST4(GPU) WriteStart Address 035bf980 to Address 035bf9b8 Size 3 Length 00000008
15354739 ns: DDR_AXI_HOST4(GPU) WriteStart Address 035bf9c0 to Address 035bf9f8 Size 3 Length 00000008
15358465 ns: DDR_AXI_HOST4(GPU) WriteStart Address 035bfb80 to Address 035bfbb8 Size 3 Length 00000008
15360371 ns: DDR_AXI_HOST4(GPU) WriteStart Address 035bfbc0 to Address 035bfbf8 Size 3 Length 00000008
15364411 ns: DDR_AXI_HOST4(GPU) WriteStart Address 035bfd80 to Address 035bfdb8 Size 3 Length 00000008
15364426 ns: DDR_AXI_HOST4(GPU) WriteStart Address 035bfdc0 to Address 035bfdf8 Size 3 Length 00000008
15368033 ns: DDR_AXI_HOST4(GPU) WriteStart Address 035bff80 to Address 035bffb8 Size 3 Length 00000008
15369938 ns: DDR_AXI_HOST4(GPU) WriteStart Address 035bffc0 to Address 035bfff8 Size 3 Length 00000008
15373540 ns: DDR_AXI_HOST4(GPU) WriteStart Address 035c3180 to Address 035c31b8 Size 3 Length 00000008
15373665 ns: DDR_AXI_HOST4(GPU) WriteStart Address 035c31c0 to Address 035c31f8 Size 3 Length 00000008
15378202 ns: DDR_AXI_HOST4(GPU) WriteStart Address 035c3380 to Address 035c33b8 Size 3 Length 00000008
15379570 ns: DDR_AXI_HOST4(GPU) WriteStart Address 035c33c0 to Address 035c33f8 Size 3 Length 00000008
15383107 ns: DDR_AXI_HOST4(GPU) WriteStart Address 035c3580 to Address 035c35b8 Size 3 Length 00000008
15383227 ns: DDR_AXI_HOST4(GPU) WriteStart Address 035c35c0 to Address 035c35f8 Size 3 Length 00000008
15387769 ns: DDR_AXI_HOST4(GPU) WriteStart Address 035c3780 to Address 035c37b8 Size 3 Length 00000008
15390038 ns: DDR_AXI_HOST4(GPU) WriteStart Address 035c37c0 to Address 035c37f8 Size 3 Length 00000008
15392312 ns: DDR_AXI_HOST4(GPU) WriteStart Address 035c3980 to Address 035c39b8 Size 3 Length 00000008
15393277 ns: DDR_AXI_HOST4(GPU) WriteStart Address 035c39c0 to Address 035c39f8 Size 3 Length 00000008
15393884 ns: DDR_AXI_HOST4(GPU) WriteStart Address 035c3b80 to Address 035c3bb8 Size 3 Length 00000008
15397456 ns: DDR_AXI_HOST4(GPU) WriteStart Address 035c3bc0 to Address 035c3bf8 Size 3 Length 00000008
15400212 ns: DDR_AXI_HOST4(GPU) WriteStart Address 035c3d80 to Address 035c3db8 Size 3 Length 00000008
15402481 ns: DDR_AXI_HOST4(GPU) WriteStart Address 035c3dc0 to Address 035c3df8 Size 3 Length 00000008
15403451 ns: DDR_AXI_HOST4(GPU) WriteStart Address 035c3f80 to Address 035c3fb8 Size 3 Length 00000008
15407356 ns: DDR_AXI_HOST4(GPU) WriteStart Address 035c3fc0 to Address 035c3ff8 Size 3 Length 00000008
15409899 ns: DDR_AXI_HOST4(GPU) WriteStart Address 035b7180 to Address 035b71b8 Size 3 Length 00000008
15412381 ns: DDR_AXI_HOST4(GPU) WriteStart Address 035b71c0 to Address 035b71f8 Size 3 Length 00000008
15413018 ns: DDR_AXI_HOST4(GPU) WriteStart Address 035b7380 to Address 035b73b8 Size 3 Length 00000008
15416864 ns: DDR_AXI_HOST4(GPU) WriteStart Address 035b73c0 to Address 035b73f8 Size 3 Length 00000008
15419133 ns: DDR_AXI_HOST4(GPU) WriteStart Address 035b7580 to Address 035b75b8 Size 3 Length 00000008
15420919 ns: DDR_AXI_HOST4(GPU) WriteStart Address 035b75c0 to Address 035b75f8 Size 3 Length 00000008
15422580 ns: DDR_AXI_HOST4(GPU) WriteStart Address 035b7780 to Address 035b77b8 Size 3 Length 00000008
15426426 ns: DDR_AXI_HOST4(GPU) WriteStart Address 035b77c0 to Address 035b77f8 Size 3 Length 00000008
15428700 ns: DDR_AXI_HOST4(GPU) WriteStart Address 035b7980 to Address 035b79b8 Size 3 Length 00000008
15430486 ns: DDR_AXI_HOST4(GPU) WriteStart Address 035b79c0 to Address 035b79f8 Size 3 Length 00000008
15433118 ns: DDR_AXI_HOST4(GPU) WriteStart Address 035b7b80 to Address 035b7bb8 Size 3 Length 00000008
15433237 ns: DDR_AXI_HOST4(GPU) WriteStart Address 035b7bc0 to Address 035b7bf8 Size 3 Length 00000008
15436964 ns: DDR_AXI_HOST4(GPU) WriteStart Address 035b7d80 to Address 035b7db8 Size 3 Length 00000008
15438869 ns: DDR_AXI_HOST4(GPU) WriteStart Address 035b7dc0 to Address 035b7df8 Size 3 Length 00000008
15442750 ns: DDR_AXI_HOST4(GPU) WriteStart Address 035b7f80 to Address 035b7fb8 Size 3 Length 00000008
15442805 ns: DDR_AXI_HOST4(GPU) WriteStart Address 035b7fc0 to Address 035b7ff8 Size 3 Length 00000008
15447133 ns: DDR_AXI_HOST4(GPU) WriteStart Address 035bb180 to Address 035bb1b8 Size 3 Length 00000008
15448436 ns: DDR_AXI_HOST4(GPU) WriteStart Address 035bb1c0 to Address 035bb1f8 Size 3 Length 00000008
15451068 ns: DDR_AXI_HOST4(GPU) WriteStart Address 035bb380 to Address 035bb3b8 Size 3 Length 00000008
15452163 ns: DDR_AXI_HOST4(GPU) WriteStart Address 035bb3c0 to Address 035bb3f8 Size 3 Length 00000008
15456700 ns: DDR_AXI_HOST4(GPU) WriteStart Address 035bb580 to Address 035bb5b8 Size 3 Length 00000008
15458004 ns: DDR_AXI_HOST4(GPU) WriteStart Address 035bb5c0 to Address 035bb5f8 Size 3 Length 00000008
15460431 ns: DDR_AXI_HOST4(GPU) WriteStart Address 035bb780 to Address 035bb7b8 Size 3 Length 00000008
15461849 ns: DDR_AXI_HOST4(GPU) WriteStart Address 035bb7c0 to Address 035bb7f8 Size 3 Length 00000008
15465511 ns: DDR_AXI_HOST4(GPU) WriteStart Address 035bb980 to Address 035bb9b8 Size 3 Length 00000008
15466387 ns: DDR_AXI_HOST4(GPU) WriteStart Address 035bb9c0 to Address 035bb9f8 Size 3 Length 00000008
15468536 ns: DDR_AXI_HOST4(GPU) WriteStart Address 035bbb80 to Address 035bbbb8 Size 3 Length 00000008
15470984 ns: DDR_AXI_HOST4(GPU) WriteStart Address 035bbbc0 to Address 035bbbf8 Size 3 Length 00000008
15473093 ns: DDR_AXI_HOST4(GPU) WriteStart Address 035bbd80 to Address 035bbdb8 Size 3 Length 00000008
15475954 ns: DDR_AXI_HOST4(GPU) WriteStart Address 035bbdc0 to Address 035bbdf8 Size 3 Length 00000008
15478586 ns: DDR_AXI_HOST4(GPU) WriteStart Address 035bbf80 to Address 035bbfb8 Size 3 Length 00000008
15480979 ns: DDR_AXI_HOST4(GPU) WriteStart Address 035bbfc0 to Address 035bbff8 Size 3 Length 00000008
15481949 ns: DDR_AXI_HOST4(GPU) WriteStart Address 035bf180 to Address 035bf1b8 Size 3 Length 00000008
15485745 ns: DDR_AXI_HOST4(GPU) WriteStart Address 035bf1c0 to Address 035bf1f8 Size 3 Length 00000008
15488287 ns: DDR_AXI_HOST4(GPU) WriteStart Address 035bf380 to Address 035bf3b8 Size 3 Length 00000008
15490770 ns: DDR_AXI_HOST4(GPU) WriteStart Address 035bf3c0 to Address 035bf3f8 Size 3 Length 00000008
15491516 ns: DDR_AXI_HOST4(GPU) WriteStart Address 035bf580 to Address 035bf5b8 Size 3 Length 00000008
15495850 ns: DDR_AXI_HOST4(GPU) WriteStart Address 035bf5c0 to Address 035bf5f8 Size 3 Length 00000008
15497511 ns: DDR_AXI_HOST4(GPU) WriteStart Address 035bf780 to Address 035bf7b8 Size 3 Length 00000008
15499417 ns: DDR_AXI_HOST4(GPU) WriteStart Address 035bf7c0 to Address 035bf7f8 Size 3 Length 00000008
15502049 ns: DDR_AXI_HOST4(GPU) WriteStart Address 035bf980 to Address 035bf9b8 Size 3 Length 00000008
15502835 ns: DDR_AXI_HOST4(GPU) WriteStart Address 035bf9c0 to Address 035bf9f8 Size 3 Length 00000008
15506104 ns: DDR_AXI_HOST4(GPU) WriteStart Address 035bfb80 to Address 035bfbb8 Size 3 Length 00000008
15507800 ns: DDR_AXI_HOST4(GPU) WriteStart Address 035bfbc0 to Address 035bfbf8 Size 3 Length 00000008
15511616 ns: DDR_AXI_HOST4(GPU) WriteStart Address 035bfd80 to Address 035bfdb8 Size 3 Length 00000008
15512342 ns: DDR_AXI_HOST4(GPU) WriteStart Address 035bfdc0 to Address 035bfdf8 Size 3 Length 00000008
15515462 ns: DDR_AXI_HOST4(GPU) WriteStart Address 035bff80 to Address 035bffb8 Size 3 Length 00000008
15520989 ns: DDR_AXI_HOST4(GPU) WriteStart Address 035bffc0 to Address 035bfff8 Size 3 Length 00000008
15521129 ns: DDR_AXI_HOST4(GPU) WriteStart Address 035c3180 to Address 035c31b8 Size 3 Length 00000008
15522029 ns: DDR_AXI_HOST4(GPU) WriteStart Address 035c31c0 to Address 035c31f8 Size 3 Length 00000008
15522153 ns: DDR_AXI_HOST4(GPU) WriteStart Address 035c3380 to Address 035c33b8 Size 3 Length 00000008
15524905 ns: DDR_AXI_HOST4(GPU) WriteStart Address 035c33c0 to Address 035c33f8 Size 3 Length 00000008
15526208 ns: DDR_AXI_HOST4(GPU) WriteStart Address 035c3580 to Address 035c35b8 Size 3 Length 00000008
15526571 ns: DDR_AXI_HOST4(GPU) WriteStart Address 035c35c0 to Address 035c35f8 Size 3 Length 00000008
15529402 ns: DDR_AXI_HOST4(GPU) WriteStart Address 035c3780 to Address 035c37b8 Size 3 Length 00000008
15532477 ns: DDR_AXI_HOST4(GPU) WriteStart Address 035c37c0 to Address 035c37f8 Size 3 Length 00000008
15533238 ns: DDR_AXI_HOST4(GPU) WriteStart Address 035c3980 to Address 035c39b8 Size 3 Length 00000008
15534537 ns: DDR_AXI_HOST4(GPU) WriteStart Address 035c39c0 to Address 035c39f8 Size 3 Length 00000008
15536502 ns: DDR_AXI_HOST4(GPU) WriteStart Address 035c3b80 to Address 035c3bb8 Size 3 Length 00000008
15538979 ns: DDR_AXI_HOST4(GPU) WriteStart Address 035c3bc0 to Address 035c3bf8 Size 3 Length 00000008
15540223 ns: DDR_AXI_HOST4(GPU) WriteStart Address 035c3d80 to Address 035c3db8 Size 3 Length 00000008
15541507 ns: DDR_AXI_HOST4(GPU) WriteStart Address 035c3dc0 to Address 035c3df8 Size 3 Length 00000008
15542497 ns: DDR_AXI_HOST4(GPU) WriteStart Address 035c3f80 to Address 035c3fb8 Size 3 Length 00000008
15544557 ns: DDR_AXI_HOST4(GPU) WriteStart Address 035c3fc0 to Address 035c3ff8 Size 3 Length 00000008
