17693315 ns: DDR_AXI_HOST4(GPU) WriteStart Address 035dd000 to Address 035dd038 Size 3 Length 00000008
17694071 ns: DDR_AXI_HOST4(GPU) WriteStart Address 035dd040 to Address 035dd078 Size 3 Length 00000008
17696469 ns: DDR_AXI_HOST4(GPU) WriteStart Address 035dd200 to Address 035dd238 Size 3 Length 00000008
17698758 ns: DDR_AXI_HOST4(GPU) WriteStart Address 035dd240 to Address 035dd278 Size 3 Length 00000008
17700778 ns: DDR_AXI_HOST4(GPU) WriteStart Address 035dd400 to Address 035dd438 Size 3 Length 00000008
17701529 ns: DDR_AXI_HOST4(GPU) WriteStart Address 035dd440 to Address 035dd478 Size 3 Length 00000008
17703440 ns: DDR_AXI_HOST4(GPU) WriteStart Address 035dd600 to Address 035dd638 Size 3 Length 00000008
17705728 ns: DDR_AXI_HOST4(GPU) WriteStart Address 035dd640 to Address 035dd678 Size 3 Length 00000008
17706489 ns: DDR_AXI_HOST4(GPU) WriteStart Address 035dd800 to Address 035dd838 Size 3 Length 00000008
17708494 ns: DDR_AXI_HOST4(GPU) WriteStart Address 035dd840 to Address 035dd878 Size 3 Length 00000008
17710410 ns: DDR_AXI_HOST4(GPU) WriteStart Address 035dda00 to Address 035dda38 Size 3 Length 00000008
17711181 ns: DDR_AXI_HOST4(GPU) WriteStart Address 035dda40 to Address 035dda78 Size 3 Length 00000008
17713460 ns: DDR_AXI_HOST4(GPU) WriteStart Address 035ddc00 to Address 035ddc38 Size 3 Length 00000008
17716091 ns: DDR_AXI_HOST4(GPU) WriteStart Address 035ddc40 to Address 035ddc78 Size 3 Length 00000008
17717862 ns: DDR_AXI_HOST4(GPU) WriteStart Address 035dde00 to Address 035dde38 Size 3 Length 00000008
17718609 ns: DDR_AXI_HOST4(GPU) WriteStart Address 035dde40 to Address 035dde78 Size 3 Length 00000008
17720758 ns: DDR_AXI_HOST4(GPU) WriteStart Address 035e1000 to Address 035e1038 Size 3 Length 00000008
17722231 ns: DDR_AXI_HOST4(GPU) WriteStart Address 035e1040 to Address 035e1078 Size 3 Length 00000008
17723032 ns: DDR_AXI_HOST4(GPU) WriteStart Address 035e1200 to Address 035e1238 Size 3 Length 00000008
17725584 ns: DDR_AXI_HOST4(GPU) WriteStart Address 035e1240 to Address 035e1278 Size 3 Length 00000008
17728490 ns: DDR_AXI_HOST4(GPU) WriteStart Address 035e1400 to Address 035e1438 Size 3 Length 00000008
17730052 ns: DDR_AXI_HOST4(GPU) WriteStart Address 035e1440 to Address 035e1478 Size 3 Length 00000008
17731176 ns: DDR_AXI_HOST4(GPU) WriteStart Address 035e1600 to Address 035e1638 Size 3 Length 00000008
17732350 ns: DDR_AXI_HOST4(GPU) WriteStart Address 035e1640 to Address 035e1678 Size 3 Length 00000008
17733445 ns: DDR_AXI_HOST4(GPU) WriteStart Address 035e1800 to Address 035e1838 Size 3 Length 00000008
17735455 ns: DDR_AXI_HOST4(GPU) WriteStart Address 035e1840 to Address 035e1878 Size 3 Length 00000008
17737579 ns: DDR_AXI_HOST4(GPU) WriteStart Address 035e1a00 to Address 035e1a38 Size 3 Length 00000008
17739907 ns: DDR_AXI_HOST4(GPU) WriteStart Address 035e1a40 to Address 035e1a78 Size 3 Length 00000008
17740669 ns: DDR_AXI_HOST4(GPU) WriteStart Address 035e1c00 to Address 035e1c38 Size 3 Length 00000008
17743181 ns: DDR_AXI_HOST4(GPU) WriteStart Address 035e1c40 to Address 035e1c78 Size 3 Length 00000008
17744569 ns: DDR_AXI_HOST4(GPU) WriteStart Address 035e1e00 to Address 035e1e38 Size 3 Length 00000008
17746898 ns: DDR_AXI_HOST4(GPU) WriteStart Address 035e1e40 to Address 035e1e78 Size 3 Length 00000008
17747659 ns: DDR_AXI_HOST4(GPU) WriteStart Address 035e5000 to Address 035e5038 Size 3 Length 00000008
17749947 ns: DDR_AXI_HOST4(GPU) WriteStart Address 035e5040 to Address 035e5078 Size 3 Length 00000008
17752002 ns: DDR_AXI_HOST4(GPU) WriteStart Address 035e5200 to Address 035e5238 Size 3 Length 00000008
17753151 ns: DDR_AXI_HOST4(GPU) WriteStart Address 035e5240 to Address 035e5278 Size 3 Length 00000008
17754649 ns: DDR_AXI_HOST4(GPU) WriteStart Address 035e5400 to Address 035e5438 Size 3 Length 00000008
17756918 ns: DDR_AXI_HOST4(GPU) WriteStart Address 035e5440 to Address 035e5478 Size 3 Length 00000008
17758972 ns: DDR_AXI_HOST4(GPU) WriteStart Address 035e5600 to Address 035e5638 Size 3 Length 00000008
17759704 ns: DDR_AXI_HOST4(GPU) WriteStart Address 035e5640 to Address 035e5678 Size 3 Length 00000008
17761599 ns: DDR_AXI_HOST4(GPU) WriteStart Address 035e5800 to Address 035e5838 Size 3 Length 00000008
17762415 ns: DDR_AXI_HOST4(GPU) WriteStart Address 035e5840 to Address 035e5878 Size 3 Length 00000008
17764689 ns: DDR_AXI_HOST4(GPU) WriteStart Address 035e5a00 to Address 035e5a38 Size 3 Length 00000008
17766674 ns: DDR_AXI_HOST4(GPU) WriteStart Address 035e5a40 to Address 035e5a78 Size 3 Length 00000008
17769057 ns: DDR_AXI_HOST4(GPU) WriteStart Address 035e5c00 to Address 035e5c38 Size 3 Length 00000008
17769803 ns: DDR_AXI_HOST4(GPU) WriteStart Address 035e5c40 to Address 035e5c78 Size 3 Length 00000008
17772346 ns: DDR_AXI_HOST4(GPU) WriteStart Address 035e5e00 to Address 035e5e38 Size 3 Length 00000008
17773659 ns: DDR_AXI_HOST4(GPU) WriteStart Address 035e5e40 to Address 035e5e78 Size 3 Length 00000008
17780007 ns: DDR_AXI_HOST4(GPU) WriteStart Address 035e9000 to Address 035e9038 Size 3 Length 00000008
17780127 ns: DDR_AXI_HOST4(GPU) WriteStart Address 035e9040 to Address 035e9078 Size 3 Length 00000008
17784181 ns: DDR_AXI_HOST4(GPU) WriteStart Address 035e9200 to Address 035e9238 Size 3 Length 00000008
17785152 ns: DDR_AXI_HOST4(GPU) WriteStart Address 035e9240 to Address 035e9278 Size 3 Length 00000008
17786450 ns: DDR_AXI_HOST4(GPU) WriteStart Address 035e9400 to Address 035e9438 Size 3 Length 00000008
17789206 ns: DDR_AXI_HOST4(GPU) WriteStart Address 035e9440 to Address 035e9478 Size 3 Length 00000008
17793749 ns: DDR_AXI_HOST4(GPU) WriteStart Address 035e9600 to Address 035e9638 Size 3 Length 00000008
17794838 ns: DDR_AXI_HOST4(GPU) WriteStart Address 035e9640 to Address 035e9678 Size 3 Length 00000008
17796988 ns: DDR_AXI_HOST4(GPU) WriteStart Address 035e9800 to Address 035e9838 Size 3 Length 00000008
17798774 ns: DDR_AXI_HOST4(GPU) WriteStart Address 035e9840 to Address 035e9878 Size 3 Length 00000008
17802012 ns: DDR_AXI_HOST4(GPU) WriteStart Address 035e9a00 to Address 035e9a38 Size 3 Length 00000008
17803714 ns: DDR_AXI_HOST4(GPU) WriteStart Address 035e9a40 to Address 035e9a78 Size 3 Length 00000008
17806555 ns: DDR_AXI_HOST4(GPU) WriteStart Address 035e9c00 to Address 035e9c38 Size 3 Length 00000008
17808943 ns: DDR_AXI_HOST4(GPU) WriteStart Address 035e9c40 to Address 035e9c78 Size 3 Length 00000008
17809913 ns: DDR_AXI_HOST4(GPU) WriteStart Address 035e9e00 to Address 035e9e38 Size 3 Length 00000008
17812789 ns: DDR_AXI_HOST4(GPU) WriteStart Address 035e9e40 to Address 035e9e78 Size 3 Length 00000008
17815425 ns: DDR_AXI_HOST4(GPU) WriteStart Address 035dd000 to Address 035dd038 Size 3 Length 00000008
17817814 ns: DDR_AXI_HOST4(GPU) WriteStart Address 035dd040 to Address 035dd078 Size 3 Length 00000008
17818998 ns: DDR_AXI_HOST4(GPU) WriteStart Address 035dd200 to Address 035dd238 Size 3 Length 00000008
17822719 ns: DDR_AXI_HOST4(GPU) WriteStart Address 035dd240 to Address 035dd278 Size 3 Length 00000008
17826465 ns: DDR_AXI_HOST4(GPU) WriteStart Address 035dd400 to Address 035dd438 Size 3 Length 00000008
17827381 ns: DDR_AXI_HOST4(GPU) WriteStart Address 035dd440 to Address 035dd478 Size 3 Length 00000008
17829047 ns: DDR_AXI_HOST4(GPU) WriteStart Address 035dd600 to Address 035dd638 Size 3 Length 00000008
17832406 ns: DDR_AXI_HOST4(GPU) WriteStart Address 035dd640 to Address 035dd678 Size 3 Length 00000008
17834555 ns: DDR_AXI_HOST4(GPU) WriteStart Address 035dd800 to Address 035dd838 Size 3 Length 00000008
17835769 ns: DDR_AXI_HOST4(GPU) WriteStart Address 035dd840 to Address 035dd878 Size 3 Length 00000008
17839112 ns: DDR_AXI_HOST4(GPU) WriteStart Address 035dda00 to Address 035dda38 Size 3 Length 00000008
17841973 ns: DDR_AXI_HOST4(GPU) WriteStart Address 035dda40 to Address 035dda78 Size 3 Length 00000008
17842943 ns: DDR_AXI_HOST4(GPU) WriteStart Address 035ddc00 to Address 035ddc38 Size 3 Length 00000008
17845819 ns: DDR_AXI_HOST4(GPU) WriteStart Address 035ddc40 to Address 035ddc78 Size 3 Length 00000008
17848451 ns: DDR_AXI_HOST4(GPU) WriteStart Address 035dde00 to Address 035dde38 Size 3 Length 00000008
17848575 ns: DDR_AXI_HOST4(GPU) WriteStart Address 035dde40 to Address 035dde78 Size 3 Length 00000008
17852510 ns: DDR_AXI_HOST4(GPU) WriteStart Address 035e1000 to Address 035e1038 Size 3 Length 00000008
17854416 ns: DDR_AXI_HOST4(GPU) WriteStart Address 035e1040 to Address 035e1078 Size 3 Length 00000008
17858018 ns: DDR_AXI_HOST4(GPU) WriteStart Address 035e1200 to Address 035e1238 Size 3 Length 00000008
17858137 ns: DDR_AXI_HOST4(GPU) WriteStart Address 035e1240 to Address 035e1278 Size 3 Length 00000008
17862680 ns: DDR_AXI_HOST4(GPU) WriteStart Address 035e1400 to Address 035e1438 Size 3 Length 00000008
17863769 ns: DDR_AXI_HOST4(GPU) WriteStart Address 035e1440 to Address 035e1478 Size 3 Length 00000008
17867585 ns: DDR_AXI_HOST4(GPU) WriteStart Address 035e1600 to Address 035e1638 Size 3 Length 00000008
17867705 ns: DDR_AXI_HOST4(GPU) WriteStart Address 035e1640 to Address 035e1678 Size 3 Length 00000008
17872610 ns: DDR_AXI_HOST4(GPU) WriteStart Address 035e1800 to Address 035e1838 Size 3 Length 00000008
17874530 ns: DDR_AXI_HOST4(GPU) WriteStart Address 035e1840 to Address 035e1878 Size 3 Length 00000008
17877013 ns: DDR_AXI_HOST4(GPU) WriteStart Address 035e1a00 to Address 035e1a38 Size 3 Length 00000008
17877754 ns: DDR_AXI_HOST4(GPU) WriteStart Address 035e1a40 to Address 035e1a78 Size 3 Length 00000008
17878361 ns: DDR_AXI_HOST4(GPU) WriteStart Address 035e1c00 to Address 035e1c38 Size 3 Length 00000008
17882108 ns: DDR_AXI_HOST4(GPU) WriteStart Address 035e1c40 to Address 035e1c78 Size 3 Length 00000008
17885655 ns: DDR_AXI_HOST4(GPU) WriteStart Address 035e1e00 to Address 035e1e38 Size 3 Length 00000008
17887133 ns: DDR_AXI_HOST4(GPU) WriteStart Address 035e1e40 to Address 035e1e78 Size 3 Length 00000008
17887929 ns: DDR_AXI_HOST4(GPU) WriteStart Address 035e5000 to Address 035e5038 Size 3 Length 00000008
17891287 ns: DDR_AXI_HOST4(GPU) WriteStart Address 035e5040 to Address 035e5078 Size 3 Length 00000008
17894043 ns: DDR_AXI_HOST4(GPU) WriteStart Address 035e5200 to Address 035e5238 Size 3 Length 00000008
17896312 ns: DDR_AXI_HOST4(GPU) WriteStart Address 035e5240 to Address 035e5278 Size 3 Length 00000008
17897496 ns: DDR_AXI_HOST4(GPU) WriteStart Address 035e5400 to Address 035e5438 Size 3 Length 00000008
17901342 ns: DDR_AXI_HOST4(GPU) WriteStart Address 035e5440 to Address 035e5478 Size 3 Length 00000008
17903610 ns: DDR_AXI_HOST4(GPU) WriteStart Address 035e5600 to Address 035e5638 Size 3 Length 00000008
17905396 ns: DDR_AXI_HOST4(GPU) WriteStart Address 035e5640 to Address 035e5678 Size 3 Length 00000008
17907342 ns: DDR_AXI_HOST4(GPU) WriteStart Address 035e5800 to Address 035e5838 Size 3 Length 00000008
17910904 ns: DDR_AXI_HOST4(GPU) WriteStart Address 035e5840 to Address 035e5878 Size 3 Length 00000008
17913177 ns: DDR_AXI_HOST4(GPU) WriteStart Address 035e5a00 to Address 035e5a38 Size 3 Length 00000008
17915446 ns: DDR_AXI_HOST4(GPU) WriteStart Address 035e5a40 to Address 035e5a78 Size 3 Length 00000008
17917596 ns: DDR_AXI_HOST4(GPU) WriteStart Address 035e5c00 to Address 035e5c38 Size 3 Length 00000008
17917715 ns: DDR_AXI_HOST4(GPU) WriteStart Address 035e5c40 to Address 035e5c78 Size 3 Length 00000008
17921441 ns: DDR_AXI_HOST4(GPU) WriteStart Address 035e5e00 to Address 035e5e38 Size 3 Length 00000008
17925078 ns: DDR_AXI_HOST4(GPU) WriteStart Address 035e5e40 to Address 035e5e78 Size 3 Length 00000008
17926949 ns: DDR_AXI_HOST4(GPU) WriteStart Address 035e9000 to Address 035e9038 Size 3 Length 00000008
17927576 ns: DDR_AXI_HOST4(GPU) WriteStart Address 035e9040 to Address 035e9078 Size 3 Length 00000008
17931008 ns: DDR_AXI_HOST4(GPU) WriteStart Address 035e9200 to Address 035e9238 Size 3 Length 00000008
17933884 ns: DDR_AXI_HOST4(GPU) WriteStart Address 035e9240 to Address 035e9278 Size 3 Length 00000008
17936516 ns: DDR_AXI_HOST4(GPU) WriteStart Address 035e9400 to Address 035e9438 Size 3 Length 00000008
17936635 ns: DDR_AXI_HOST4(GPU) WriteStart Address 035e9440 to Address 035e9478 Size 3 Length 00000008
17941178 ns: DDR_AXI_HOST4(GPU) WriteStart Address 035e9600 to Address 035e9638 Size 3 Length 00000008
17942760 ns: DDR_AXI_HOST4(GPU) WriteStart Address 035e9640 to Address 035e9678 Size 3 Length 00000008
17946083 ns: DDR_AXI_HOST4(GPU) WriteStart Address 035e9800 to Address 035e9838 Size 3 Length 00000008
17946203 ns: DDR_AXI_HOST4(GPU) WriteStart Address 035e9840 to Address 035e9878 Size 3 Length 00000008
17951108 ns: DDR_AXI_HOST4(GPU) WriteStart Address 035e9a00 to Address 035e9a38 Size 3 Length 00000008
17951835 ns: DDR_AXI_HOST4(GPU) WriteStart Address 035e9a40 to Address 035e9a78 Size 3 Length 00000008
17955646 ns: DDR_AXI_HOST4(GPU) WriteStart Address 035e9c00 to Address 035e9c38 Size 3 Length 00000008
17955770 ns: DDR_AXI_HOST4(GPU) WriteStart Address 035e9c40 to Address 035e9c78 Size 3 Length 00000008
17960432 ns: DDR_AXI_HOST4(GPU) WriteStart Address 035e9e00 to Address 035e9e38 Size 3 Length 00000008
17961884 ns: DDR_AXI_HOST4(GPU) WriteStart Address 035e9e40 to Address 035e9e78 Size 3 Length 00000008
17964153 ns: DDR_AXI_HOST4(GPU) WriteStart Address 035dd000 to Address 035dd038 Size 3 Length 00000008
17965526 ns: DDR_AXI_HOST4(GPU) WriteStart Address 035dd040 to Address 035dd078 Size 3 Length 00000008
17966427 ns: DDR_AXI_HOST4(GPU) WriteStart Address 035dd200 to Address 035dd238 Size 3 Length 00000008
17969785 ns: DDR_AXI_HOST4(GPU) WriteStart Address 035dd240 to Address 035dd278 Size 3 Length 00000008
17973084 ns: DDR_AXI_HOST4(GPU) WriteStart Address 035dd400 to Address 035dd438 Size 3 Length 00000008
17974810 ns: DDR_AXI_HOST4(GPU) WriteStart Address 035dd440 to Address 035dd478 Size 3 Length 00000008
17975989 ns: DDR_AXI_HOST4(GPU) WriteStart Address 035dd600 to Address 035dd638 Size 3 Length 00000008
17979352 ns: DDR_AXI_HOST4(GPU) WriteStart Address 035dd640 to Address 035dd678 Size 3 Length 00000008
17981984 ns: DDR_AXI_HOST4(GPU) WriteStart Address 035dd800 to Address 035dd838 Size 3 Length 00000008
17984377 ns: DDR_AXI_HOST4(GPU) WriteStart Address 035dd840 to Address 035dd878 Size 3 Length 00000008
17985730 ns: DDR_AXI_HOST4(GPU) WriteStart Address 035dda00 to Address 035dda38 Size 3 Length 00000008
17988919 ns: DDR_AXI_HOST4(GPU) WriteStart Address 035dda40 to Address 035dda78 Size 3 Length 00000008
17991676 ns: DDR_AXI_HOST4(GPU) WriteStart Address 035ddc00 to Address 035ddc38 Size 3 Length 00000008
17993944 ns: DDR_AXI_HOST4(GPU) WriteStart Address 035ddc40 to Address 035ddc78 Size 3 Length 00000008
17996094 ns: DDR_AXI_HOST4(GPU) WriteStart Address 035dde00 to Address 035dde38 Size 3 Length 00000008
17998969 ns: DDR_AXI_HOST4(GPU) WriteStart Address 035dde40 to Address 035dde78 Size 3 Length 00000008
18001119 ns: DDR_AXI_HOST4(GPU) WriteStart Address 035e1000 to Address 035e1038 Size 3 Length 00000008
18001845 ns: DDR_AXI_HOST4(GPU) WriteStart Address 035e1040 to Address 035e1078 Size 3 Length 00000008
18005940 ns: DDR_AXI_HOST4(GPU) WriteStart Address 035e1200 to Address 035e1238 Size 3 Length 00000008
18005954 ns: DDR_AXI_HOST4(GPU) WriteStart Address 035e1240 to Address 035e1278 Size 3 Length 00000008
18009507 ns: DDR_AXI_HOST4(GPU) WriteStart Address 035e1400 to Address 035e1438 Size 3 Length 00000008
18011412 ns: DDR_AXI_HOST4(GPU) WriteStart Address 035e1440 to Address 035e1478 Size 3 Length 00000008
18015014 ns: DDR_AXI_HOST4(GPU) WriteStart Address 035e1600 to Address 035e1638 Size 3 Length 00000008
18015134 ns: DDR_AXI_HOST4(GPU) WriteStart Address 035e1640 to Address 035e1678 Size 3 Length 00000008
18019676 ns: DDR_AXI_HOST4(GPU) WriteStart Address 035e1800 to Address 035e1838 Size 3 Length 00000008
18021099 ns: DDR_AXI_HOST4(GPU) WriteStart Address 035e1840 to Address 035e1878 Size 3 Length 00000008
18024581 ns: DDR_AXI_HOST4(GPU) WriteStart Address 035e1a00 to Address 035e1a38 Size 3 Length 00000008
18024701 ns: DDR_AXI_HOST4(GPU) WriteStart Address 035e1a40 to Address 035e1a78 Size 3 Length 00000008
18029243 ns: DDR_AXI_HOST4(GPU) WriteStart Address 035e1c00 to Address 035e1c38 Size 3 Length 00000008
18031512 ns: DDR_AXI_HOST4(GPU) WriteStart Address 035e1c40 to Address 035e1c78 Size 3 Length 00000008
18033089 ns: DDR_AXI_HOST4(GPU) WriteStart Address 035e1e00 to Address 035e1e38 Size 3 Length 00000008
18034387 ns: DDR_AXI_HOST4(GPU) WriteStart Address 035e1e40 to Address 035e1e78 Size 3 Length 00000008
18035358 ns: DDR_AXI_HOST4(GPU) WriteStart Address 035e5000 to Address 035e5038 Size 3 Length 00000008
18038930 ns: DDR_AXI_HOST4(GPU) WriteStart Address 035e5040 to Address 035e5078 Size 3 Length 00000008
18041686 ns: DDR_AXI_HOST4(GPU) WriteStart Address 035e5200 to Address 035e5238 Size 3 Length 00000008
18043955 ns: DDR_AXI_HOST4(GPU) WriteStart Address 035e5240 to Address 035e5278 Size 3 Length 00000008
18044925 ns: DDR_AXI_HOST4(GPU) WriteStart Address 035e5400 to Address 035e5438 Size 3 Length 00000008
18048283 ns: DDR_AXI_HOST4(GPU) WriteStart Address 035e5440 to Address 035e5478 Size 3 Length 00000008
18051422 ns: DDR_AXI_HOST4(GPU) WriteStart Address 035e5600 to Address 035e5638 Size 3 Length 00000008
18053308 ns: DDR_AXI_HOST4(GPU) WriteStart Address 035e5640 to Address 035e5678 Size 3 Length 00000008
18054487 ns: DDR_AXI_HOST4(GPU) WriteStart Address 035e5800 to Address 035e5838 Size 3 Length 00000008
18058338 ns: DDR_AXI_HOST4(GPU) WriteStart Address 035e5840 to Address 035e5878 Size 3 Length 00000008
18060607 ns: DDR_AXI_HOST4(GPU) WriteStart Address 035e5a00 to Address 035e5a38 Size 3 Length 00000008
18062393 ns: DDR_AXI_HOST4(GPU) WriteStart Address 035e5a40 to Address 035e5a78 Size 3 Length 00000008
18064124 ns: DDR_AXI_HOST4(GPU) WriteStart Address 035e5c00 to Address 035e5c38 Size 3 Length 00000008
18067900 ns: DDR_AXI_HOST4(GPU) WriteStart Address 035e5c40 to Address 035e5c78 Size 3 Length 00000008
18071631 ns: DDR_AXI_HOST4(GPU) WriteStart Address 035e5e00 to Address 035e5e38 Size 3 Length 00000008
18071646 ns: DDR_AXI_HOST4(GPU) WriteStart Address 035e5e40 to Address 035e5e78 Size 3 Length 00000008
18073413 ns: DDR_AXI_HOST4(GPU) WriteStart Address 035e9000 to Address 035e9038 Size 3 Length 00000008
18076711 ns: DDR_AXI_HOST4(GPU) WriteStart Address 035e9040 to Address 035e9078 Size 3 Length 00000008
18080099 ns: DDR_AXI_HOST4(GPU) WriteStart Address 035e9200 to Address 035e9238 Size 3 Length 00000008
18080224 ns: DDR_AXI_HOST4(GPU) WriteStart Address 035e9240 to Address 035e9278 Size 3 Length 00000008
18084348 ns: DDR_AXI_HOST4(GPU) WriteStart Address 035e9400 to Address 035e9438 Size 3 Length 00000008
18084885 ns: DDR_AXI_HOST4(GPU) WriteStart Address 035e9440 to Address 035e9478 Size 3 Length 00000008
18088005 ns: DDR_AXI_HOST4(GPU) WriteStart Address 035e9600 to Address 035e9638 Size 3 Length 00000008
18089373 ns: DDR_AXI_HOST4(GPU) WriteStart Address 035e9640 to Address 035e9678 Size 3 Length 00000008
18093512 ns: DDR_AXI_HOST4(GPU) WriteStart Address 035e9800 to Address 035e9838 Size 3 Length 00000008
18093632 ns: DDR_AXI_HOST4(GPU) WriteStart Address 035e9840 to Address 035e9878 Size 3 Length 00000008
18097567 ns: DDR_AXI_HOST4(GPU) WriteStart Address 035e9a00 to Address 035e9a38 Size 3 Length 00000008
18100443 ns: DDR_AXI_HOST4(GPU) WriteStart Address 035e9a40 to Address 035e9a78 Size 3 Length 00000008
18103079 ns: DDR_AXI_HOST4(GPU) WriteStart Address 035e9c00 to Address 035e9c38 Size 3 Length 00000008
18103199 ns: DDR_AXI_HOST4(GPU) WriteStart Address 035e9c40 to Address 035e9c78 Size 3 Length 00000008
18107741 ns: DDR_AXI_HOST4(GPU) WriteStart Address 035e9e00 to Address 035e9e38 Size 3 Length 00000008
18108831 ns: DDR_AXI_HOST4(GPU) WriteStart Address 035e9e40 to Address 035e9e78 Size 3 Length 00000008
18112642 ns: DDR_AXI_HOST4(GPU) WriteStart Address 035dd000 to Address 035dd038 Size 3 Length 00000008
18112766 ns: DDR_AXI_HOST4(GPU) WriteStart Address 035dd040 to Address 035dd078 Size 3 Length 00000008
18117304 ns: DDR_AXI_HOST4(GPU) WriteStart Address 035dd200 to Address 035dd238 Size 3 Length 00000008
18119697 ns: DDR_AXI_HOST4(GPU) WriteStart Address 035dd240 to Address 035dd278 Size 3 Length 00000008
18122179 ns: DDR_AXI_HOST4(GPU) WriteStart Address 035dd400 to Address 035dd438 Size 3 Length 00000008
18122816 ns: DDR_AXI_HOST4(GPU) WriteStart Address 035dd440 to Address 035dd478 Size 3 Length 00000008
18123423 ns: DDR_AXI_HOST4(GPU) WriteStart Address 035dd600 to Address 035dd638 Size 3 Length 00000008
18127274 ns: DDR_AXI_HOST4(GPU) WriteStart Address 035dd640 to Address 035dd678 Size 3 Length 00000008
18129816 ns: DDR_AXI_HOST4(GPU) WriteStart Address 035dd800 to Address 035dd838 Size 3 Length 00000008
18132299 ns: DDR_AXI_HOST4(GPU) WriteStart Address 035dd840 to Address 035dd878 Size 3 Length 00000008
18132985 ns: DDR_AXI_HOST4(GPU) WriteStart Address 035dda00 to Address 035dda38 Size 3 Length 00000008
18136348 ns: DDR_AXI_HOST4(GPU) WriteStart Address 035dda40 to Address 035dda78 Size 3 Length 00000008
18139105 ns: DDR_AXI_HOST4(GPU) WriteStart Address 035ddc00 to Address 035ddc38 Size 3 Length 00000008
18141373 ns: DDR_AXI_HOST4(GPU) WriteStart Address 035ddc40 to Address 035ddc78 Size 3 Length 00000008
18142553 ns: DDR_AXI_HOST4(GPU) WriteStart Address 035dde00 to Address 035dde38 Size 3 Length 00000008
18146398 ns: DDR_AXI_HOST4(GPU) WriteStart Address 035dde40 to Address 035dde78 Size 3 Length 00000008
18148672 ns: DDR_AXI_HOST4(GPU) WriteStart Address 035e1000 to Address 035e1038 Size 3 Length 00000008
18150040 ns: DDR_AXI_HOST4(GPU) WriteStart Address 035e1040 to Address 035e1078 Size 3 Length 00000008
18153090 ns: DDR_AXI_HOST4(GPU) WriteStart Address 035e1200 to Address 035e1238 Size 3 Length 00000008
18155966 ns: DDR_AXI_HOST4(GPU) WriteStart Address 035e1240 to Address 035e1278 Size 3 Length 00000008
18156936 ns: DDR_AXI_HOST4(GPU) WriteStart Address 035e1400 to Address 035e1438 Size 3 Length 00000008
18158841 ns: DDR_AXI_HOST4(GPU) WriteStart Address 035e1440 to Address 035e1478 Size 3 Length 00000008
18162672 ns: DDR_AXI_HOST4(GPU) WriteStart Address 035e1600 to Address 035e1638 Size 3 Length 00000008
18162777 ns: DDR_AXI_HOST4(GPU) WriteStart Address 035e1640 to Address 035e1678 Size 3 Length 00000008
18166503 ns: DDR_AXI_HOST4(GPU) WriteStart Address 035e1800 to Address 035e1838 Size 3 Length 00000008
18168408 ns: DDR_AXI_HOST4(GPU) WriteStart Address 035e1840 to Address 035e1878 Size 3 Length 00000008
18172010 ns: DDR_AXI_HOST4(GPU) WriteStart Address 035e1a00 to Address 035e1a38 Size 3 Length 00000008
18172130 ns: DDR_AXI_HOST4(GPU) WriteStart Address 035e1a40 to Address 035e1a78 Size 3 Length 00000008
18176672 ns: DDR_AXI_HOST4(GPU) WriteStart Address 035e1c00 to Address 035e1c38 Size 3 Length 00000008
18177971 ns: DDR_AXI_HOST4(GPU) WriteStart Address 035e1c40 to Address 035e1c78 Size 3 Length 00000008
18181578 ns: DDR_AXI_HOST4(GPU) WriteStart Address 035e1e00 to Address 035e1e38 Size 3 Length 00000008
18181697 ns: DDR_AXI_HOST4(GPU) WriteStart Address 035e1e40 to Address 035e1e78 Size 3 Length 00000008
18186239 ns: DDR_AXI_HOST4(GPU) WriteStart Address 035e5000 to Address 035e5038 Size 3 Length 00000008
18188508 ns: DDR_AXI_HOST4(GPU) WriteStart Address 035e5040 to Address 035e5078 Size 3 Length 00000008
18190468 ns: DDR_AXI_HOST4(GPU) WriteStart Address 035e5200 to Address 035e5238 Size 3 Length 00000008
18191384 ns: DDR_AXI_HOST4(GPU) WriteStart Address 035e5240 to Address 035e5278 Size 3 Length 00000008
18193050 ns: DDR_AXI_HOST4(GPU) WriteStart Address 035e5400 to Address 035e5438 Size 3 Length 00000008
18195926 ns: DDR_AXI_HOST4(GPU) WriteStart Address 035e5440 to Address 035e5478 Size 3 Length 00000008
18198682 ns: DDR_AXI_HOST4(GPU) WriteStart Address 035e5600 to Address 035e5638 Size 3 Length 00000008
18200588 ns: DDR_AXI_HOST4(GPU) WriteStart Address 035e5640 to Address 035e5678 Size 3 Length 00000008
18201921 ns: DDR_AXI_HOST4(GPU) WriteStart Address 035e5800 to Address 035e5838 Size 3 Length 00000008
18205667 ns: DDR_AXI_HOST4(GPU) WriteStart Address 035e5840 to Address 035e5878 Size 3 Length 00000008
18208245 ns: DDR_AXI_HOST4(GPU) WriteStart Address 035e5a00 to Address 035e5a38 Size 3 Length 00000008
18210692 ns: DDR_AXI_HOST4(GPU) WriteStart Address 035e5a40 to Address 035e5a78 Size 3 Length 00000008
18211483 ns: DDR_AXI_HOST4(GPU) WriteStart Address 035e5c00 to Address 035e5c38 Size 3 Length 00000008
18214847 ns: DDR_AXI_HOST4(GPU) WriteStart Address 035e5c40 to Address 035e5c78 Size 3 Length 00000008
18218663 ns: DDR_AXI_HOST4(GPU) WriteStart Address 035e5e00 to Address 035e5e38 Size 3 Length 00000008
18219145 ns: DDR_AXI_HOST4(GPU) WriteStart Address 035e5e40 to Address 035e5e78 Size 3 Length 00000008
18219264 ns: DDR_AXI_HOST4(GPU) WriteStart Address 035e9000 to Address 035e9038 Size 3 Length 00000008
18219389 ns: DDR_AXI_HOST4(GPU) WriteStart Address 035e9040 to Address 035e9078 Size 3 Length 00000008
18223319 ns: DDR_AXI_HOST4(GPU) WriteStart Address 035e9200 to Address 035e9238 Size 3 Length 00000008
18223687 ns: DDR_AXI_HOST4(GPU) WriteStart Address 035e9240 to Address 035e9278 Size 3 Length 00000008
18224289 ns: DDR_AXI_HOST4(GPU) WriteStart Address 035e9400 to Address 035e9438 Size 3 Length 00000008
18227304 ns: DDR_AXI_HOST4(GPU) WriteStart Address 035e9440 to Address 035e9478 Size 3 Length 00000008
18230130 ns: DDR_AXI_HOST4(GPU) WriteStart Address 035e9600 to Address 035e9638 Size 3 Length 00000008
18231185 ns: DDR_AXI_HOST4(GPU) WriteStart Address 035e9640 to Address 035e9678 Size 3 Length 00000008
18232434 ns: DDR_AXI_HOST4(GPU) WriteStart Address 035e9800 to Address 035e9838 Size 3 Length 00000008
18234314 ns: DDR_AXI_HOST4(GPU) WriteStart Address 035e9840 to Address 035e9878 Size 3 Length 00000008
18235120 ns: DDR_AXI_HOST4(GPU) WriteStart Address 035e9a00 to Address 035e9a38 Size 3 Length 00000008
18237344 ns: DDR_AXI_HOST4(GPU) WriteStart Address 035e9a40 to Address 035e9a78 Size 3 Length 00000008
18239101 ns: DDR_AXI_HOST4(GPU) WriteStart Address 035e9c00 to Address 035e9c38 Size 3 Length 00000008
18239872 ns: DDR_AXI_HOST4(GPU) WriteStart Address 035e9c40 to Address 035e9c78 Size 3 Length 00000008
18242673 ns: DDR_AXI_HOST4(GPU) WriteStart Address 035e9e00 to Address 035e9e38 Size 3 Length 00000008
18244922 ns: DDR_AXI_HOST4(GPU) WriteStart Address 035e9e40 to Address 035e9e78 Size 3 Length 00000008
