18246782 ns: DDR_AXI_HOST4(GPU) WriteStart Address 035dd080 to Address 035dd0b8 Size 3 Length 00000008
18247320 ns: DDR_AXI_HOST4(GPU) WriteStart Address 035dd0c0 to Address 035dd0f8 Size 3 Length 00000008
18249643 ns: DDR_AXI_HOST4(GPU) WriteStart Address 035dd280 to Address 035dd2b8 Size 3 Length 00000008
18250419 ns: DDR_AXI_HOST4(GPU) WriteStart Address 035dd2c0 to Address 035dd2f8 Size 3 Length 00000008
18252295 ns: DDR_AXI_HOST4(GPU) WriteStart Address 035dd480 to Address 035dd4b8 Size 3 Length 00000008
18254275 ns: DDR_AXI_HOST4(GPU) WriteStart Address 035dd4c0 to Address 035dd4f8 Size 3 Length 00000008
18257101 ns: DDR_AXI_HOST4(GPU) WriteStart Address 035dd680 to Address 035dd6b8 Size 3 Length 00000008
18258235 ns: DDR_AXI_HOST4(GPU) WriteStart Address 035dd6c0 to Address 035dd6f8 Size 3 Length 00000008
18259951 ns: DDR_AXI_HOST4(GPU) WriteStart Address 035dd880 to Address 035dd8b8 Size 3 Length 00000008
18261270 ns: DDR_AXI_HOST4(GPU) WriteStart Address 035dd8c0 to Address 035dd8f8 Size 3 Length 00000008
18262225 ns: DDR_AXI_HOST4(GPU) WriteStart Address 035dda80 to Address 035ddab8 Size 3 Length 00000008
18264698 ns: DDR_AXI_HOST4(GPU) WriteStart Address 035ddac0 to Address 035ddaf8 Size 3 Length 00000008
18266693 ns: DDR_AXI_HOST4(GPU) WriteStart Address 035ddc80 to Address 035ddcb8 Size 3 Length 00000008
18268842 ns: DDR_AXI_HOST4(GPU) WriteStart Address 035ddcc0 to Address 035ddcf8 Size 3 Length 00000008
18269643 ns: DDR_AXI_HOST4(GPU) WriteStart Address 035dde80 to Address 035ddeb8 Size 3 Length 00000008
18272275 ns: DDR_AXI_HOST4(GPU) WriteStart Address 035ddec0 to Address 035ddef8 Size 3 Length 00000008
18273663 ns: DDR_AXI_HOST4(GPU) WriteStart Address 035e1080 to Address 035e10b8 Size 3 Length 00000008
18275588 ns: DDR_AXI_HOST4(GPU) WriteStart Address 035e10c0 to Address 035e10f8 Size 3 Length 00000008
18276573 ns: DDR_AXI_HOST4(GPU) WriteStart Address 035e1280 to Address 035e12b8 Size 3 Length 00000008
18279245 ns: DDR_AXI_HOST4(GPU) WriteStart Address 035e12c0 to Address 035e12f8 Size 3 Length 00000008
18280131 ns: DDR_AXI_HOST4(GPU) WriteStart Address 035e1480 to Address 035e14b8 Size 3 Length 00000008
18281444 ns: DDR_AXI_HOST4(GPU) WriteStart Address 035e14c0 to Address 035e14f8 Size 3 Length 00000008
18283972 ns: DDR_AXI_HOST4(GPU) WriteStart Address 035e1680 to Address 035e16b8 Size 3 Length 00000008
18286255 ns: DDR_AXI_HOST4(GPU) WriteStart Address 035e16c0 to Address 035e16f8 Size 3 Length 00000008
18287220 ns: DDR_AXI_HOST4(GPU) WriteStart Address 035e1880 to Address 035e18b8 Size 3 Length 00000008
18289051 ns: DDR_AXI_HOST4(GPU) WriteStart Address 035e18c0 to Address 035e18f8 Size 3 Length 00000008
18290330 ns: DDR_AXI_HOST4(GPU) WriteStart Address 035e1a80 to Address 035e1ab8 Size 3 Length 00000008
18291001 ns: DDR_AXI_HOST4(GPU) WriteStart Address 035e1ac0 to Address 035e1af8 Size 3 Length 00000008
18293847 ns: DDR_AXI_HOST4(GPU) WriteStart Address 035e1c80 to Address 035e1cb8 Size 3 Length 00000008
18296439 ns: DDR_AXI_HOST4(GPU) WriteStart Address 035e1cc0 to Address 035e1cf8 Size 3 Length 00000008
18297887 ns: DDR_AXI_HOST4(GPU) WriteStart Address 035e1e80 to Address 035e1eb8 Size 3 Length 00000008
18298454 ns: DDR_AXI_HOST4(GPU) WriteStart Address 035e1ec0 to Address 035e1ef8 Size 3 Length 00000008
18300817 ns: DDR_AXI_HOST4(GPU) WriteStart Address 035e5080 to Address 035e50b8 Size 3 Length 00000008
18302599 ns: DDR_AXI_HOST4(GPU) WriteStart Address 035e50c0 to Address 035e50f8 Size 3 Length 00000008
18304211 ns: DDR_AXI_HOST4(GPU) WriteStart Address 035e5280 to Address 035e52b8 Size 3 Length 00000008
18305390 ns: DDR_AXI_HOST4(GPU) WriteStart Address 035e52c0 to Address 035e52f8 Size 3 Length 00000008
18308270 ns: DDR_AXI_HOST4(GPU) WriteStart Address 035e5480 to Address 035e54b8 Size 3 Length 00000008
18309041 ns: DDR_AXI_HOST4(GPU) WriteStart Address 035e54c0 to Address 035e54f8 Size 3 Length 00000008
18311056 ns: DDR_AXI_HOST4(GPU) WriteStart Address 035e5680 to Address 035e56b8 Size 3 Length 00000008
18312375 ns: DDR_AXI_HOST4(GPU) WriteStart Address 035e56c0 to Address 035e56f8 Size 3 Length 00000008
18315260 ns: DDR_AXI_HOST4(GPU) WriteStart Address 035e5880 to Address 035e58b8 Size 3 Length 00000008
18316027 ns: DDR_AXI_HOST4(GPU) WriteStart Address 035e58c0 to Address 035e58f8 Size 3 Length 00000008
18318435 ns: DDR_AXI_HOST4(GPU) WriteStart Address 035e5a80 to Address 035e5ab8 Size 3 Length 00000008
18319320 ns: DDR_AXI_HOST4(GPU) WriteStart Address 035e5ac0 to Address 035e5af8 Size 3 Length 00000008
18320499 ns: DDR_AXI_HOST4(GPU) WriteStart Address 035e5c80 to Address 035e5cb8 Size 3 Length 00000008
18322982 ns: DDR_AXI_HOST4(GPU) WriteStart Address 035e5cc0 to Address 035e5cf8 Size 3 Length 00000008
18325385 ns: DDR_AXI_HOST4(GPU) WriteStart Address 035e5e80 to Address 035e5eb8 Size 3 Length 00000008
18326902 ns: DDR_AXI_HOST4(GPU) WriteStart Address 035e5ec0 to Address 035e5ef8 Size 3 Length 00000008
18332091 ns: DDR_AXI_HOST4(GPU) WriteStart Address 035e9080 to Address 035e90b8 Size 3 Length 00000008
18333360 ns: DDR_AXI_HOST4(GPU) WriteStart Address 035e90c0 to Address 035e90f8 Size 3 Length 00000008
18335455 ns: DDR_AXI_HOST4(GPU) WriteStart Address 035e9280 to Address 035e92b8 Size 3 Length 00000008
18338813 ns: DDR_AXI_HOST4(GPU) WriteStart Address 035e92c0 to Address 035e92f8 Size 3 Length 00000008
18340962 ns: DDR_AXI_HOST4(GPU) WriteStart Address 035e9480 to Address 035e94b8 Size 3 Length 00000008
18343355 ns: DDR_AXI_HOST4(GPU) WriteStart Address 035e94c0 to Address 035e94f8 Size 3 Length 00000008
18345504 ns: DDR_AXI_HOST4(GPU) WriteStart Address 035e9680 to Address 035e96b8 Size 3 Length 00000008
18345624 ns: DDR_AXI_HOST4(GPU) WriteStart Address 035e96c0 to Address 035e96f8 Size 3 Length 00000008
18348868 ns: DDR_AXI_HOST4(GPU) WriteStart Address 035e9880 to Address 035e98b8 Size 3 Length 00000008
18352922 ns: DDR_AXI_HOST4(GPU) WriteStart Address 035e98c0 to Address 035e98f8 Size 3 Length 00000008
18355191 ns: DDR_AXI_HOST4(GPU) WriteStart Address 035e9a80 to Address 035e9ab8 Size 3 Length 00000008
18357460 ns: DDR_AXI_HOST4(GPU) WriteStart Address 035e9ac0 to Address 035e9af8 Size 3 Length 00000008
18359838 ns: DDR_AXI_HOST4(GPU) WriteStart Address 035e9c80 to Address 035e9cb8 Size 3 Length 00000008
18362485 ns: DDR_AXI_HOST4(GPU) WriteStart Address 035e9cc0 to Address 035e9cf8 Size 3 Length 00000008
18363455 ns: DDR_AXI_HOST4(GPU) WriteStart Address 035e9e80 to Address 035e9eb8 Size 3 Length 00000008
18365365 ns: DDR_AXI_HOST4(GPU) WriteStart Address 035e9ec0 to Address 035e9ef8 Size 3 Length 00000008
18368967 ns: DDR_AXI_HOST4(GPU) WriteStart Address 035dd080 to Address 035dd0b8 Size 3 Length 00000008
18369087 ns: DDR_AXI_HOST4(GPU) WriteStart Address 035dd0c0 to Address 035dd0f8 Size 3 Length 00000008
18373022 ns: DDR_AXI_HOST4(GPU) WriteStart Address 035dd280 to Address 035dd2b8 Size 3 Length 00000008
18374997 ns: DDR_AXI_HOST4(GPU) WriteStart Address 035dd2c0 to Address 035dd2f8 Size 3 Length 00000008
18378535 ns: DDR_AXI_HOST4(GPU) WriteStart Address 035dd480 to Address 035dd4b8 Size 3 Length 00000008
18378654 ns: DDR_AXI_HOST4(GPU) WriteStart Address 035dd4c0 to Address 035dd4f8 Size 3 Length 00000008
18383196 ns: DDR_AXI_HOST4(GPU) WriteStart Address 035dd680 to Address 035dd6b8 Size 3 Length 00000008
18384286 ns: DDR_AXI_HOST4(GPU) WriteStart Address 035dd6c0 to Address 035dd6f8 Size 3 Length 00000008
18388097 ns: DDR_AXI_HOST4(GPU) WriteStart Address 035dd880 to Address 035dd8b8 Size 3 Length 00000008
18388341 ns: DDR_AXI_HOST4(GPU) WriteStart Address 035dd8c0 to Address 035dd8f8 Size 3 Length 00000008
18392758 ns: DDR_AXI_HOST4(GPU) WriteStart Address 035dda80 to Address 035ddab8 Size 3 Length 00000008
18393246 ns: DDR_AXI_HOST4(GPU) WriteStart Address 035ddac0 to Address 035ddaf8 Size 3 Length 00000008
18396604 ns: DDR_AXI_HOST4(GPU) WriteStart Address 035ddc80 to Address 035ddcb8 Size 3 Length 00000008
18397908 ns: DDR_AXI_HOST4(GPU) WriteStart Address 035ddcc0 to Address 035ddcf8 Size 3 Length 00000008
18398878 ns: DDR_AXI_HOST4(GPU) WriteStart Address 035dde80 to Address 035ddeb8 Size 3 Length 00000008
18402778 ns: DDR_AXI_HOST4(GPU) WriteStart Address 035ddec0 to Address 035ddef8 Size 3 Length 00000008
18405321 ns: DDR_AXI_HOST4(GPU) WriteStart Address 035e1080 to Address 035e10b8 Size 3 Length 00000008
18407261 ns: DDR_AXI_HOST4(GPU) WriteStart Address 035e10c0 to Address 035e10f8 Size 3 Length 00000008
18408440 ns: DDR_AXI_HOST4(GPU) WriteStart Address 035e1280 to Address 035e12b8 Size 3 Length 00000008
18411803 ns: DDR_AXI_HOST4(GPU) WriteStart Address 035e12c0 to Address 035e12f8 Size 3 Length 00000008
18414435 ns: DDR_AXI_HOST4(GPU) WriteStart Address 035e1480 to Address 035e14b8 Size 3 Length 00000008
18416828 ns: DDR_AXI_HOST4(GPU) WriteStart Address 035e14c0 to Address 035e14f8 Size 3 Length 00000008
18418022 ns: DDR_AXI_HOST4(GPU) WriteStart Address 035e1680 to Address 035e16b8 Size 3 Length 00000008
18421371 ns: DDR_AXI_HOST4(GPU) WriteStart Address 035e16c0 to Address 035e16f8 Size 3 Length 00000008
18424122 ns: DDR_AXI_HOST4(GPU) WriteStart Address 035e1880 to Address 035e18b8 Size 3 Length 00000008
18426395 ns: DDR_AXI_HOST4(GPU) WriteStart Address 035e18c0 to Address 035e18f8 Size 3 Length 00000008
18428545 ns: DDR_AXI_HOST4(GPU) WriteStart Address 035e1a80 to Address 035e1ab8 Size 3 Length 00000008
18431420 ns: DDR_AXI_HOST4(GPU) WriteStart Address 035e1ac0 to Address 035e1af8 Size 3 Length 00000008
18432391 ns: DDR_AXI_HOST4(GPU) WriteStart Address 035e1c80 to Address 035e1cb8 Size 3 Length 00000008
18434296 ns: DDR_AXI_HOST4(GPU) WriteStart Address 035e1cc0 to Address 035e1cf8 Size 3 Length 00000008
18438231 ns: DDR_AXI_HOST4(GPU) WriteStart Address 035e1e80 to Address 035e1eb8 Size 3 Length 00000008
18438246 ns: DDR_AXI_HOST4(GPU) WriteStart Address 035e1ec0 to Address 035e1ef8 Size 3 Length 00000008
18441953 ns: DDR_AXI_HOST4(GPU) WriteStart Address 035e5080 to Address 035e50b8 Size 3 Length 00000008
18443863 ns: DDR_AXI_HOST4(GPU) WriteStart Address 035e50c0 to Address 035e50f8 Size 3 Length 00000008
18447465 ns: DDR_AXI_HOST4(GPU) WriteStart Address 035e5280 to Address 035e52b8 Size 3 Length 00000008
18447585 ns: DDR_AXI_HOST4(GPU) WriteStart Address 035e52c0 to Address 035e52f8 Size 3 Length 00000008
18452127 ns: DDR_AXI_HOST4(GPU) WriteStart Address 035e5480 to Address 035e54b8 Size 3 Length 00000008
18453426 ns: DDR_AXI_HOST4(GPU) WriteStart Address 035e54c0 to Address 035e54f8 Size 3 Length 00000008
18457033 ns: DDR_AXI_HOST4(GPU) WriteStart Address 035e5680 to Address 035e56b8 Size 3 Length 00000008
18457152 ns: DDR_AXI_HOST4(GPU) WriteStart Address 035e56c0 to Address 035e56f8 Size 3 Length 00000008
18461694 ns: DDR_AXI_HOST4(GPU) WriteStart Address 035e5880 to Address 035e58b8 Size 3 Length 00000008
18463963 ns: DDR_AXI_HOST4(GPU) WriteStart Address 035e58c0 to Address 035e58f8 Size 3 Length 00000008
18465973 ns: DDR_AXI_HOST4(GPU) WriteStart Address 035e5a80 to Address 035e5ab8 Size 3 Length 00000008
18466839 ns: DDR_AXI_HOST4(GPU) WriteStart Address 035e5ac0 to Address 035e5af8 Size 3 Length 00000008
18467809 ns: DDR_AXI_HOST4(GPU) WriteStart Address 035e5c80 to Address 035e5cb8 Size 3 Length 00000008
18471381 ns: DDR_AXI_HOST4(GPU) WriteStart Address 035e5cc0 to Address 035e5cf8 Size 3 Length 00000008
18475102 ns: DDR_AXI_HOST4(GPU) WriteStart Address 035e5e80 to Address 035e5eb8 Size 3 Length 00000008
18476406 ns: DDR_AXI_HOST4(GPU) WriteStart Address 035e5ec0 to Address 035e5ef8 Size 3 Length 00000008
18477376 ns: DDR_AXI_HOST4(GPU) WriteStart Address 035e9080 to Address 035e90b8 Size 3 Length 00000008
18481172 ns: DDR_AXI_HOST4(GPU) WriteStart Address 035e90c0 to Address 035e90f8 Size 3 Length 00000008
18483714 ns: DDR_AXI_HOST4(GPU) WriteStart Address 035e9280 to Address 035e92b8 Size 3 Length 00000008
18486197 ns: DDR_AXI_HOST4(GPU) WriteStart Address 035e92c0 to Address 035e92f8 Size 3 Length 00000008
18486938 ns: DDR_AXI_HOST4(GPU) WriteStart Address 035e9480 to Address 035e94b8 Size 3 Length 00000008
18491277 ns: DDR_AXI_HOST4(GPU) WriteStart Address 035e94c0 to Address 035e94f8 Size 3 Length 00000008
18493058 ns: DDR_AXI_HOST4(GPU) WriteStart Address 035e9680 to Address 035e96b8 Size 3 Length 00000008
18494844 ns: DDR_AXI_HOST4(GPU) WriteStart Address 035e96c0 to Address 035e96f8 Size 3 Length 00000008
18496506 ns: DDR_AXI_HOST4(GPU) WriteStart Address 035e9880 to Address 035e98b8 Size 3 Length 00000008
18500351 ns: DDR_AXI_HOST4(GPU) WriteStart Address 035e98c0 to Address 035e98f8 Size 3 Length 00000008
18502620 ns: DDR_AXI_HOST4(GPU) WriteStart Address 035e9a80 to Address 035e9ab8 Size 3 Length 00000008
18503938 ns: DDR_AXI_HOST4(GPU) WriteStart Address 035e9ac0 to Address 035e9af8 Size 3 Length 00000008
18506406 ns: DDR_AXI_HOST4(GPU) WriteStart Address 035e9c80 to Address 035e9cb8 Size 3 Length 00000008
18509919 ns: DDR_AXI_HOST4(GPU) WriteStart Address 035e9cc0 to Address 035e9cf8 Size 3 Length 00000008
18512068 ns: DDR_AXI_HOST4(GPU) WriteStart Address 035e9e80 to Address 035e9eb8 Size 3 Length 00000008
18512794 ns: DDR_AXI_HOST4(GPU) WriteStart Address 035e9ec0 to Address 035e9ef8 Size 3 Length 00000008
18516605 ns: DDR_AXI_HOST4(GPU) WriteStart Address 035dd080 to Address 035dd0b8 Size 3 Length 00000008
18516730 ns: DDR_AXI_HOST4(GPU) WriteStart Address 035dd0c0 to Address 035dd0f8 Size 3 Length 00000008
18520451 ns: DDR_AXI_HOST4(GPU) WriteStart Address 035dd280 to Address 035dd2b8 Size 3 Length 00000008
18522362 ns: DDR_AXI_HOST4(GPU) WriteStart Address 035dd2c0 to Address 035dd2f8 Size 3 Length 00000008
18525964 ns: DDR_AXI_HOST4(GPU) WriteStart Address 035dd480 to Address 035dd4b8 Size 3 Length 00000008
18526625 ns: DDR_AXI_HOST4(GPU) WriteStart Address 035dd4c0 to Address 035dd4f8 Size 3 Length 00000008
18530625 ns: DDR_AXI_HOST4(GPU) WriteStart Address 035dd680 to Address 035dd6b8 Size 3 Length 00000008
18531924 ns: DDR_AXI_HOST4(GPU) WriteStart Address 035dd6c0 to Address 035dd6f8 Size 3 Length 00000008
18535531 ns: DDR_AXI_HOST4(GPU) WriteStart Address 035dd880 to Address 035dd8b8 Size 3 Length 00000008
18535650 ns: DDR_AXI_HOST4(GPU) WriteStart Address 035dd8c0 to Address 035dd8f8 Size 3 Length 00000008
18540193 ns: DDR_AXI_HOST4(GPU) WriteStart Address 035dda80 to Address 035ddab8 Size 3 Length 00000008
18541824 ns: DDR_AXI_HOST4(GPU) WriteStart Address 035ddac0 to Address 035ddaf8 Size 3 Length 00000008
18545093 ns: DDR_AXI_HOST4(GPU) WriteStart Address 035ddc80 to Address 035ddcb8 Size 3 Length 00000008
18545337 ns: DDR_AXI_HOST4(GPU) WriteStart Address 035ddcc0 to Address 035ddcf8 Size 3 Length 00000008
18550118 ns: DDR_AXI_HOST4(GPU) WriteStart Address 035dde80 to Address 035ddeb8 Size 3 Length 00000008
18550242 ns: DDR_AXI_HOST4(GPU) WriteStart Address 035ddec0 to Address 035ddef8 Size 3 Length 00000008
18554471 ns: DDR_AXI_HOST4(GPU) WriteStart Address 035e1080 to Address 035e10b8 Size 3 Length 00000008
18555267 ns: DDR_AXI_HOST4(GPU) WriteStart Address 035e10c0 to Address 035e10f8 Size 3 Length 00000008
18555874 ns: DDR_AXI_HOST4(GPU) WriteStart Address 035e1280 to Address 035e12b8 Size 3 Length 00000008
18559805 ns: DDR_AXI_HOST4(GPU) WriteStart Address 035e12c0 to Address 035e12f8 Size 3 Length 00000008
18563650 ns: DDR_AXI_HOST4(GPU) WriteStart Address 035e1480 to Address 035e14b8 Size 3 Length 00000008
18564834 ns: DDR_AXI_HOST4(GPU) WriteStart Address 035e14c0 to Address 035e14f8 Size 3 Length 00000008
18565436 ns: DDR_AXI_HOST4(GPU) WriteStart Address 035e1680 to Address 035e16b8 Size 3 Length 00000008
18569650 ns: DDR_AXI_HOST4(GPU) WriteStart Address 035e16c0 to Address 035e16f8 Size 3 Length 00000008
18572735 ns: DDR_AXI_HOST4(GPU) WriteStart Address 035e1880 to Address 035e18b8 Size 3 Length 00000008
18573825 ns: DDR_AXI_HOST4(GPU) WriteStart Address 035e18c0 to Address 035e18f8 Size 3 Length 00000008
18575004 ns: DDR_AXI_HOST4(GPU) WriteStart Address 035e1a80 to Address 035e1ab8 Size 3 Length 00000008
18578849 ns: DDR_AXI_HOST4(GPU) WriteStart Address 035e1ac0 to Address 035e1af8 Size 3 Length 00000008
18581606 ns: DDR_AXI_HOST4(GPU) WriteStart Address 035e1c80 to Address 035e1cb8 Size 3 Length 00000008
18582904 ns: DDR_AXI_HOST4(GPU) WriteStart Address 035e1cc0 to Address 035e1cf8 Size 3 Length 00000008
18585541 ns: DDR_AXI_HOST4(GPU) WriteStart Address 035e1e80 to Address 035e1eb8 Size 3 Length 00000008
18585780 ns: DDR_AXI_HOST4(GPU) WriteStart Address 035e1ec0 to Address 035e1ef8 Size 3 Length 00000008
18589874 ns: DDR_AXI_HOST4(GPU) WriteStart Address 035e5080 to Address 035e50b8 Size 3 Length 00000008
18591292 ns: DDR_AXI_HOST4(GPU) WriteStart Address 035e50c0 to Address 035e50f8 Size 3 Length 00000008
18595103 ns: DDR_AXI_HOST4(GPU) WriteStart Address 035e5280 to Address 035e52b8 Size 3 Length 00000008
18595228 ns: DDR_AXI_HOST4(GPU) WriteStart Address 035e52c0 to Address 035e52f8 Size 3 Length 00000008
18598949 ns: DDR_AXI_HOST4(GPU) WriteStart Address 035e5480 to Address 035e54b8 Size 3 Length 00000008
18600860 ns: DDR_AXI_HOST4(GPU) WriteStart Address 035e54c0 to Address 035e54f8 Size 3 Length 00000008
18605004 ns: DDR_AXI_HOST4(GPU) WriteStart Address 035e5680 to Address 035e56b8 Size 3 Length 00000008
18605019 ns: DDR_AXI_HOST4(GPU) WriteStart Address 035e56c0 to Address 035e56f8 Size 3 Length 00000008
18609123 ns: DDR_AXI_HOST4(GPU) WriteStart Address 035e5880 to Address 035e58b8 Size 3 Length 00000008
18610422 ns: DDR_AXI_HOST4(GPU) WriteStart Address 035e58c0 to Address 035e58f8 Size 3 Length 00000008
18613059 ns: DDR_AXI_HOST4(GPU) WriteStart Address 035e5a80 to Address 035e5ab8 Size 3 Length 00000008
18614148 ns: DDR_AXI_HOST4(GPU) WriteStart Address 035e5ac0 to Address 035e5af8 Size 3 Length 00000008
18619173 ns: DDR_AXI_HOST4(GPU) WriteStart Address 035e5c80 to Address 035e5cb8 Size 3 Length 00000008
18620959 ns: DDR_AXI_HOST4(GPU) WriteStart Address 035e5cc0 to Address 035e5cf8 Size 3 Length 00000008
18625994 ns: DDR_AXI_HOST4(GPU) WriteStart Address 035e5e80 to Address 035e5eb8 Size 3 Length 00000008
18626347 ns: DDR_AXI_HOST4(GPU) WriteStart Address 035e5ec0 to Address 035e5ef8 Size 3 Length 00000008
18630890 ns: DDR_AXI_HOST4(GPU) WriteStart Address 035e9080 to Address 035e90b8 Size 3 Length 00000008
18631372 ns: DDR_AXI_HOST4(GPU) WriteStart Address 035e90c0 to Address 035e90f8 Size 3 Length 00000008
18638462 ns: DDR_AXI_HOST4(GPU) WriteStart Address 035e9280 to Address 035e92b8 Size 3 Length 00000008
18638671 ns: DDR_AXI_HOST4(GPU) WriteStart Address 035e92c0 to Address 035e92f8 Size 3 Length 00000008
18646109 ns: DDR_AXI_HOST4(GPU) WriteStart Address 035e9480 to Address 035e94b8 Size 3 Length 00000008
18646447 ns: DDR_AXI_HOST4(GPU) WriteStart Address 035e94c0 to Address 035e94f8 Size 3 Length 00000008
18650557 ns: DDR_AXI_HOST4(GPU) WriteStart Address 035e9680 to Address 035e96b8 Size 3 Length 00000008
18651353 ns: DDR_AXI_HOST4(GPU) WriteStart Address 035e96c0 to Address 035e96f8 Size 3 Length 00000008
18651960 ns: DDR_AXI_HOST4(GPU) WriteStart Address 035e9880 to Address 035e98b8 Size 3 Length 00000008
18654353 ns: DDR_AXI_HOST4(GPU) WriteStart Address 035e98c0 to Address 035e98f8 Size 3 Length 00000008
18655596 ns: DDR_AXI_HOST4(GPU) WriteStart Address 035e9a80 to Address 035e9ab8 Size 3 Length 00000008
18656134 ns: DDR_AXI_HOST4(GPU) WriteStart Address 035e9ac0 to Address 035e9af8 Size 3 Length 00000008
18656865 ns: DDR_AXI_HOST4(GPU) WriteStart Address 035e9c80 to Address 035e9cb8 Size 3 Length 00000008
18659134 ns: DDR_AXI_HOST4(GPU) WriteStart Address 035e9cc0 to Address 035e9cf8 Size 3 Length 00000008
18660920 ns: DDR_AXI_HOST4(GPU) WriteStart Address 035e9e80 to Address 035e9eb8 Size 3 Length 00000008
18661402 ns: DDR_AXI_HOST4(GPU) WriteStart Address 035e9ec0 to Address 035e9ef8 Size 3 Length 00000008
18661890 ns: DDR_AXI_HOST4(GPU) WriteStart Address 035dd080 to Address 035dd0b8 Size 3 Length 00000008
18669427 ns: DDR_AXI_HOST4(GPU) WriteStart Address 035dd0c0 to Address 035dd0f8 Size 3 Length 00000008
18674144 ns: DDR_AXI_HOST4(GPU) WriteStart Address 035dd280 to Address 035dd2b8 Size 3 Length 00000008
18678990 ns: DDR_AXI_HOST4(GPU) WriteStart Address 035dd2c0 to Address 035dd2f8 Size 3 Length 00000008
18683383 ns: DDR_AXI_HOST4(GPU) WriteStart Address 035dd480 to Address 035dd4b8 Size 3 Length 00000008
18684383 ns: DDR_AXI_HOST4(GPU) WriteStart Address 035dd4c0 to Address 035dd4f8 Size 3 Length 00000008
18684985 ns: DDR_AXI_HOST4(GPU) WriteStart Address 035dd680 to Address 035dd6b8 Size 3 Length 00000008
18686681 ns: DDR_AXI_HOST4(GPU) WriteStart Address 035dd6c0 to Address 035dd6f8 Size 3 Length 00000008
18688955 ns: DDR_AXI_HOST4(GPU) WriteStart Address 035dd880 to Address 035dd8b8 Size 3 Length 00000008
18691721 ns: DDR_AXI_HOST4(GPU) WriteStart Address 035dd8c0 to Address 035dd8f8 Size 3 Length 00000008
18699089 ns: DDR_AXI_HOST4(GPU) WriteStart Address 035dda80 to Address 035ddab8 Size 3 Length 00000008
18703875 ns: DDR_AXI_HOST4(GPU) WriteStart Address 035ddac0 to Address 035ddaf8 Size 3 Length 00000008
18707149 ns: DDR_AXI_HOST4(GPU) WriteStart Address 035ddc80 to Address 035ddcb8 Size 3 Length 00000008
18708656 ns: DDR_AXI_HOST4(GPU) WriteStart Address 035ddcc0 to Address 035ddcf8 Size 3 Length 00000008
18710234 ns: DDR_AXI_HOST4(GPU) WriteStart Address 035dde80 to Address 035ddeb8 Size 3 Length 00000008
18711537 ns: DDR_AXI_HOST4(GPU) WriteStart Address 035ddec0 to Address 035ddef8 Size 3 Length 00000008
18714288 ns: DDR_AXI_HOST4(GPU) WriteStart Address 035e1080 to Address 035e10b8 Size 3 Length 00000008
18717652 ns: DDR_AXI_HOST4(GPU) WriteStart Address 035e10c0 to Address 035e10f8 Size 3 Length 00000008
18720930 ns: DDR_AXI_HOST4(GPU) WriteStart Address 035e1280 to Address 035e12b8 Size 3 Length 00000008
18726383 ns: DDR_AXI_HOST4(GPU) WriteStart Address 035e12c0 to Address 035e12f8 Size 3 Length 00000008
18731657 ns: DDR_AXI_HOST4(GPU) WriteStart Address 035e1480 to Address 035e14b8 Size 3 Length 00000008
18732244 ns: DDR_AXI_HOST4(GPU) WriteStart Address 035e14c0 to Address 035e14f8 Size 3 Length 00000008
18734030 ns: DDR_AXI_HOST4(GPU) WriteStart Address 035e1680 to Address 035e16b8 Size 3 Length 00000008
18734756 ns: DDR_AXI_HOST4(GPU) WriteStart Address 035e16c0 to Address 035e16f8 Size 3 Length 00000008
18737060 ns: DDR_AXI_HOST4(GPU) WriteStart Address 035e1880 to Address 035e18b8 Size 3 Length 00000008
18739294 ns: DDR_AXI_HOST4(GPU) WriteStart Address 035e18c0 to Address 035e18f8 Size 3 Length 00000008
18744323 ns: DDR_AXI_HOST4(GPU) WriteStart Address 035e1a80 to Address 035e1ab8 Size 3 Length 00000008
18745776 ns: DDR_AXI_HOST4(GPU) WriteStart Address 035e1ac0 to Address 035e1af8 Size 3 Length 00000008
18753020 ns: DDR_AXI_HOST4(GPU) WriteStart Address 035e1c80 to Address 035e1cb8 Size 3 Length 00000008
18755717 ns: DDR_AXI_HOST4(GPU) WriteStart Address 035e1cc0 to Address 035e1cf8 Size 3 Length 00000008
18759005 ns: DDR_AXI_HOST4(GPU) WriteStart Address 035e1e80 to Address 035e1eb8 Size 3 Length 00000008
18761781 ns: DDR_AXI_HOST4(GPU) WriteStart Address 035e1ec0 to Address 035e1ef8 Size 3 Length 00000008
18765214 ns: DDR_AXI_HOST4(GPU) WriteStart Address 035e5080 to Address 035e50b8 Size 3 Length 00000008
18765876 ns: DDR_AXI_HOST4(GPU) WriteStart Address 035e50c0 to Address 035e50f8 Size 3 Length 00000008
18767179 ns: DDR_AXI_HOST4(GPU) WriteStart Address 035e5280 to Address 035e52b8 Size 3 Length 00000008
18768662 ns: DDR_AXI_HOST4(GPU) WriteStart Address 035e52c0 to Address 035e52f8 Size 3 Length 00000008
18770448 ns: DDR_AXI_HOST4(GPU) WriteStart Address 035e5480 to Address 035e54b8 Size 3 Length 00000008
18773214 ns: DDR_AXI_HOST4(GPU) WriteStart Address 035e54c0 to Address 035e54f8 Size 3 Length 00000008
18781070 ns: DDR_AXI_HOST4(GPU) WriteStart Address 035e5680 to Address 035e56b8 Size 3 Length 00000008
18785856 ns: DDR_AXI_HOST4(GPU) WriteStart Address 035e56c0 to Address 035e56f8 Size 3 Length 00000008
18789140 ns: DDR_AXI_HOST4(GPU) WriteStart Address 035e5880 to Address 035e58b8 Size 3 Length 00000008
18790533 ns: DDR_AXI_HOST4(GPU) WriteStart Address 035e58c0 to Address 035e58f8 Size 3 Length 00000008
18792319 ns: DDR_AXI_HOST4(GPU) WriteStart Address 035e5a80 to Address 035e5ab8 Size 3 Length 00000008
18793045 ns: DDR_AXI_HOST4(GPU) WriteStart Address 035e5ac0 to Address 035e5af8 Size 3 Length 00000008
18796284 ns: DDR_AXI_HOST4(GPU) WriteStart Address 035e5c80 to Address 035e5cb8 Size 3 Length 00000008
18797588 ns: DDR_AXI_HOST4(GPU) WriteStart Address 035e5cc0 to Address 035e5cf8 Size 3 Length 00000008
18803986 ns: DDR_AXI_HOST4(GPU) WriteStart Address 035e5e80 to Address 035e5eb8 Size 3 Length 00000008
18812433 ns: DDR_AXI_HOST4(GPU) WriteStart Address 035e5ec0 to Address 035e5ef8 Size 3 Length 00000008
18816289 ns: DDR_AXI_HOST4(GPU) WriteStart Address 035e9080 to Address 035e90b8 Size 3 Length 00000008
18817727 ns: DDR_AXI_HOST4(GPU) WriteStart Address 035e90c0 to Address 035e90f8 Size 3 Length 00000008
18821573 ns: DDR_AXI_HOST4(GPU) WriteStart Address 035e9280 to Address 035e92b8 Size 3 Length 00000008
18822876 ns: DDR_AXI_HOST4(GPU) WriteStart Address 035e92c0 to Address 035e92f8 Size 3 Length 00000008
18826722 ns: DDR_AXI_HOST4(GPU) WriteStart Address 035e9480 to Address 035e94b8 Size 3 Length 00000008
18828508 ns: DDR_AXI_HOST4(GPU) WriteStart Address 035e94c0 to Address 035e94f8 Size 3 Length 00000008
18831259 ns: DDR_AXI_HOST4(GPU) WriteStart Address 035e9680 to Address 035e96b8 Size 3 Length 00000008
18835682 ns: DDR_AXI_HOST4(GPU) WriteStart Address 035e96c0 to Address 035e96f8 Size 3 Length 00000008
18837707 ns: DDR_AXI_HOST4(GPU) WriteStart Address 035e9880 to Address 035e98b8 Size 3 Length 00000008
18843220 ns: DDR_AXI_HOST4(GPU) WriteStart Address 035e98c0 to Address 035e98f8 Size 3 Length 00000008
18845180 ns: DDR_AXI_HOST4(GPU) WriteStart Address 035e9a80 to Address 035e9ab8 Size 3 Length 00000008
18849454 ns: DDR_AXI_HOST4(GPU) WriteStart Address 035e9ac0 to Address 035e9af8 Size 3 Length 00000008
18851966 ns: DDR_AXI_HOST4(GPU) WriteStart Address 035e9c80 to Address 035e9cb8 Size 3 Length 00000008
18856991 ns: DDR_AXI_HOST4(GPU) WriteStart Address 035e9cc0 to Address 035e9cf8 Size 3 Length 00000008
18860304 ns: DDR_AXI_HOST4(GPU) WriteStart Address 035e9e80 to Address 035e9eb8 Size 3 Length 00000008
18863439 ns: DDR_AXI_HOST4(GPU) WriteStart Address 035e9ec0 to Address 035e9ef8 Size 3 Length 00000008
